<?xml version="1.0" encoding="UTF-8"?>
<!DOCTYPE svg PUBLIC "-//W3C//DTD SVG 1.1//EN" "http://www.w3.org/Graphics/SVG/1.1/DTD/svg11.dtd">
<svg xmlns="http://www.w3.org/2000/svg" xmlns:xl="http://www.w3.org/1999/xlink" version="1.1" viewBox="11 9 842 651" width="842pt" height="651pt"><metadata xmlns:dc="http://purl.org/dc/elements/1.1/"><dc:date>2012-11-26 14:44Z</dc:date><!-- Produced by OmniGraffle Professional 5.4.2 --></metadata><defs><font-face font-family="Courier" font-size="18" units-per-em="1000" underline-position="-178.22266" underline-thickness="57.617188" slope="0" x-height="462.40234" cap-height="594.72656" ascent="753.90625" descent="-246.09375" font-weight="500"><font-face-src><font-face-name name="Courier"/></font-face-src></font-face><marker orient="auto" overflow="visible" markerUnits="strokeWidth" id="FilledArrow_Marker" viewBox="-1 -4 10 8" markerWidth="10" markerHeight="8" color="black"><g><path d="M 8 0 L 0 -3 L 0 3 Z" fill="currentColor" stroke="currentColor" stroke-width="1"/></g></marker><font-face font-family="Helvetica" font-size="12" units-per-em="1000" underline-position="-75.683594" underline-thickness="49.316406" slope="0" x-height="522.94922" cap-height="717.28516" ascent="770.01953" descent="-229.98047" font-weight="500"><font-face-src><font-face-name name="Helvetica"/></font-face-src></font-face><marker orient="auto" overflow="visible" markerUnits="strokeWidth" id="FilledArrow_Marker_2" viewBox="-1 -4 10 8" markerWidth="10" markerHeight="8" color="#ff0080"><g><path d="M 8 0 L 0 -3 L 0 3 Z" fill="currentColor" stroke="currentColor" stroke-width="1"/></g></marker><marker orient="auto" overflow="visible" markerUnits="strokeWidth" id="FilledArrow_Marker_3" viewBox="-1 -3 7 6" markerWidth="7" markerHeight="6" color="black"><g><path d="M 4.7999992 0 L 0 -1.7999997 L 0 1.7999997 Z" fill="currentColor" stroke="currentColor" stroke-width="1"/></g></marker><font-face font-family="Courier" font-size="12" units-per-em="1000" underline-position="-178.22266" underline-thickness="57.617188" slope="0" x-height="462.40234" cap-height="594.72656" ascent="753.90625" descent="-246.09375" font-weight="500"><font-face-src><font-face-name name="Courier"/></font-face-src></font-face><marker orient="auto" overflow="visible" markerUnits="strokeWidth" id="FilledArrow_Marker_4" viewBox="-1 -4 10 8" markerWidth="10" markerHeight="8" color="#ff0080"><g><path d="M 8 0 L 0 -3 L 0 3 Z" fill="currentColor" stroke="currentColor" stroke-width="1"/></g></marker></defs><g stroke="none" stroke-opacity="1" stroke-dasharray="none" fill="none" fill-opacity="1"><title>Canvas 1</title><rect fill="white" width="1074" height="1044"/><g><title>Layer 1</title><rect x="13.407654" y="12" width="837.05957" height="645.47662" fill="#f3f3f3"/><path d="M 13.407654 12 L 850.4672 12 L 850.4672 657.47662 L 13.407654 657.47662 Z" stroke="black" stroke-linecap="round" stroke-linejoin="round" stroke-width="1" stroke-dasharray="4,4"/><text transform="translate(28.407654 17)" fill="black"><tspan font-family="Courier" font-size="18" font-weight="500" x="785.45605" y="18" textLength="21.603516">&lt;&gt;</tspan></text><path d="M 379.6676 537.652 C 398.13138 512.64278 420.3065 483.06455 435.06447 462.6168 C 449.82244 442.16905 462.2979 460.6015 468.22428 414.95325 C 473.89543 371.27092 470.17924 273.06047 470.5502 198.60149" marker-end="url(#FilledArrow_Marker)" stroke="black" stroke-linecap="round" stroke-linejoin="round" stroke-width="1"/><path d="M 413.2911 429.43223 L 520.67825 367.43223 L 529.67825 383.02069 L 422.2911 445.0207 Z" fill="#f3f3f3"/><text transform="translate(416.88918 429.66428) rotate(-30)" fill="black"><tspan font-family="Helvetica" font-size="12" font-weight="500" x=".30078125" y="11" textLength="64.02539">prov:wasInfl</tspan><tspan font-family="Helvetica" font-size="12" font-weight="500" x="64.32617" y="11" textLength="53.373047">uencedBy</tspan></text><path d="M 358.01796 312.57124 C 373.25655 342.33423 401.61885 364.40507 403.7383 401.86914 C 405.70955 436.71365 384.98066 484.89345 373.2223 527.7988" marker-end="url(#FilledArrow_Marker)" stroke="black" stroke-linecap="round" stroke-linejoin="round" stroke-width="1"/><rect x="349.94896" y="357.99702" width="87" height="18" fill="#f3f3f3"/><text transform="translate(352.94896 359.99702)" fill="black"><tspan font-family="Helvetica" font-size="12" font-weight="500" x=".13769531" y="11" textLength="80.72461">prov:generated</tspan></text><path d="M 268.36029 192.49313 L 268.36029 156.47513 L 314.81444 138.49313 L 361.2686 156.47513 L 361.2686 192.49313 Z" fill="#fc6" fill-opacity=".38999999"/><path d="M 268.36029 192.49313 L 268.36029 156.47513 L 314.81444 138.49313 L 361.2686 156.47513 L 361.2686 192.49313 Z" stroke="black" stroke-linecap="round" stroke-linejoin="round" stroke-width="1"/><text transform="translate(273.36029 167.45713)" fill="black"><tspan font-family="Helvetica" font-size="12" font-weight="500" x="24.778373" y="11" textLength="33.351562">:derek</tspan></text><path d="M 256 149.01971 C 256 141.49396 253.10094 140.56287 231.92414 133.11497 L 231.70043 133.03791 C 210.41177 125.512156 210.19034 125.512156 188.34242 125.512156 C 159.25141 125.512156 27.727844 125.512156 27.727844 125.512156 L 27.727844 204.95642 L 256 204.95642 L 256 149.01971 Z" fill="white"/><path d="M 256 149.01971 C 256 141.49396 253.10094 140.56287 231.92414 133.11497 L 231.70043 133.03791 C 210.41177 125.512156 210.19034 125.512156 188.34242 125.512156 C 159.25141 125.512156 27.727844 125.512156 27.727844 125.512156 L 27.727844 204.95642 L 256 204.95642 L 256 149.01971 Z M 256 148.63203 C 256 141.49396 255.7763 141.49396 210.19034 141.49396 L 210.19034 141.49396 C 210.19034 125.59001 210.19034 125.512156 189.68009 125.512156" stroke="black" stroke-linecap="round" stroke-linejoin="round" stroke-width="1"/><text transform="translate(32.727844 130.23429)" fill="black"><tspan font-family="Helvetica" font-size="12" font-weight="500" x="0" y="11" textLength="159.09375">type=prov:Person, prov:Agent</tspan><tspan font-family="Helvetica" font-size="12" font-weight="500" x="0" y="39" textLength="131.583984">foaf:givenName="Derek"</tspan><tspan font-family="Helvetica" font-size="12" font-weight="500" x="0" y="67" textLength="217.29492">foaf:mbox=&lt;mailto:derek@example.org&gt;</tspan></text><line x1="267.86029" y1="165.42286" x2="256.5" y2="165.40585" stroke="black" stroke-linecap="round" stroke-linejoin="round" stroke-width="1" stroke-dasharray="4,4"/><path d="M 268.36029 78.314312 L 268.36029 42.296312 L 314.86029 24.314312 L 361.36029 42.296312 L 361.36029 78.314312 Z" fill="#fc6" fill-opacity=".38999999"/><path d="M 268.36029 78.314312 L 268.36029 42.296312 L 314.86029 24.314312 L 361.36029 42.296312 L 361.36029 78.314312 Z" stroke="black" stroke-linecap="round" stroke-linejoin="round" stroke-width="1"/><text transform="translate(273.36029 46.278312)" fill="black"><tspan font-family="Helvetica" font-size="12" font-weight="500" x="15.478516" y="11" textLength="52.04297">:national_</tspan><tspan font-family="Helvetica" font-size="12" font-weight="500" x="1.140625" y="25" textLength="80.71875">newspaper_inc</tspan></text><line x1="314.8289" y1="137.99862" x2="314.85508" y2="88.21431" marker-end="url(#FilledArrow_Marker_2)" stroke="#ff0080" stroke-linecap="round" stroke-linejoin="round" stroke-width="1"/><rect x="252.34176" y="104.55005" width="125" height="18" fill="#f3f3f3"/><text transform="translate(255.34176 106.55005)" fill="black"><tspan font-family="Helvetica" font-size="12" font-weight="500" x=".1328125" y="11" textLength="118.734375">prov:actedOnBehalfOf</tspan></text><path d="M 241.8369 43.11466 C 241.8369 37.09588 239.11771 36.351237 219.25482 30.394723 L 219.04499 30.333092 C 199.07718 24.314313 198.8695 24.314313 178.37712 24.314313 C 151.09106 24.314313 27.727845 24.314313 27.727845 24.314313 L 27.727845 87.850465 L 241.8369 87.850465 L 241.8369 43.11466 Z" fill="white"/><path d="M 241.8369 43.11466 C 241.8369 37.09588 239.11771 36.351237 219.25482 30.394723 L 219.04499 30.333092 C 199.07718 24.314313 198.8695 24.314313 178.37712 24.314313 C 151.09106 24.314313 27.727845 24.314313 27.727845 24.314313 L 27.727845 87.850465 L 241.8369 87.850465 L 241.8369 43.11466 Z M 241.8369 42.804604 C 241.8369 37.09588 241.62707 37.09588 198.8695 37.09588 L 198.8695 37.09588 C 198.8695 24.376578 198.8695 24.314313 179.6318 24.314313" stroke="black" stroke-linecap="round" stroke-linejoin="round" stroke-width="1"/><text transform="translate(32.727845 41.350465)" fill="black"><tspan font-family="Helvetica" font-size="12" font-weight="500" x="0" y="11" textLength="189.11133">type=prov:Organization, prov:Agent</tspan><tspan font-family="Helvetica" font-size="12" font-weight="500" x="0" y="39" textLength="172.69336">foaf:name="National Newspaper</tspan><tspan font-family="Helvetica" font-size="12" font-weight="500" x="172.03711" y="39" textLength="30.269531">, Inc."</tspan></text><line x1="268.36029" y1="51.314312" x2="242.33658" y2="52.24323" stroke="black" stroke-linecap="round" stroke-linejoin="round" stroke-width="1" stroke-dasharray="4,4"/><path d="M 580.3769 197.19999 L 580.3769 161.182 L 626.8769 143.2 L 673.3769 161.182 L 673.3769 197.19999 Z" fill="#fc6" fill-opacity=".38999999"/><path d="M 580.3769 197.19999 L 580.3769 161.182 L 626.8769 143.2 L 673.3769 161.182 L 673.3769 197.19999 Z" stroke="black" stroke-linecap="round" stroke-linejoin="round" stroke-width="1"/><text transform="translate(585.3769 172.164)" fill="black"><tspan font-family="Helvetica" font-size="12" font-weight="500" x="12.818359" y="11" textLength="57.36328">:postEditor</tspan></text><path d="M 813.7811 63.564515 C 813.7811 58.007123 811.42744 57.319562 794.23454 51.819663 L 794.0529 51.762757 C 776.7692 46.205365 776.58944 46.205365 758.85167 46.205365 C 735.23344 46.205365 628.45287 46.205365 628.45287 46.205365 L 628.45287 104.87096 L 813.7811 104.87096 L 813.7811 63.564515 Z" fill="white"/><path d="M 813.7811 63.564515 C 813.7811 58.007123 811.42744 57.319562 794.23454 51.819663 L 794.0529 51.762757 C 776.7692 46.205365 776.58944 46.205365 758.85167 46.205365 C 735.23344 46.205365 628.45287 46.205365 628.45287 46.205365 L 628.45287 104.87096 L 813.7811 104.87096 L 813.7811 63.564515 Z M 813.7811 63.278227 C 813.7811 58.007123 813.5995 58.007123 776.58944 58.007123 L 776.58944 58.007123 C 776.58944 46.262857 776.58944 46.205365 759.9377 46.205365" stroke="black" stroke-linecap="round" stroke-linejoin="round" stroke-width="1"/><text transform="translate(633.45287 47.538163)" fill="black"><tspan font-family="Helvetica" font-size="12" font-weight="500" x="0" y="11" textLength="138.416016">type=prov:SoftwareAgent,</tspan><tspan font-family="Helvetica" font-size="12" font-weight="500" x="0" y="25" textLength="58.03711">prov:Agent</tspan><tspan font-family="Helvetica" font-size="12" font-weight="500" x="0" y="53" textLength="157.61719">foaf:name="Post Editor 3000"</tspan></text><line x1="646.6414" y1="150.3524" x2="691.5795" y2="105.22541" stroke="black" stroke-linecap="round" stroke-linejoin="round" stroke-width="1" stroke-dasharray="4,4"/><ellipse cx="470.82274" cy="170.2" rx="88.669716" ry="18.000029" fill="#ffffbe"/><ellipse cx="470.82274" cy="170.2" rx="88.669716" ry="18.000029" stroke="gray" stroke-linecap="round" stroke-linejoin="round" stroke-width="1"/><text transform="translate(404.88709 163.2)" fill="black"><tspan font-family="Helvetica" font-size="12" font-weight="500" x="4.8926897" y="11" textLength="122.08594">:aggregatedByRegions</tspan></text><path d="M 460.1854 151.89082 C 455.07737 143.09881 447.60199 142.43533 444.8598 125.512156 C 442.46626 110.740736 443.67756 83.57381 443.774 60.243032" marker-end="url(#FilledArrow_Marker)" stroke="black" stroke-linecap="round" stroke-linejoin="round" stroke-width="1"/><rect x="398.91837" y="94.08434" width="89" height="18" fill="#f3f3f3"/><text transform="translate(401.91837 96.08434)" fill="black"><tspan font-family="Helvetica" font-size="12" font-weight="500" x=".47265625" y="11" textLength="82.054688">prov:atLocation</tspan></text><ellipse cx="697.7087" cy="422.20628" rx="107.054695" ry="16.295786" fill="#ffffbe"/><ellipse cx="697.7087" cy="422.20628" rx="107.054695" ry="16.295786" stroke="black" stroke-linecap="round" stroke-linejoin="round" stroke-width="1"/><text transform="translate(617.0651 415.20628)" fill="black"><tspan font-family="Helvetica" font-size="12" font-weight="500" x="1.2871765" y="11" textLength="158.71289">:more-crime-happens-in-cities</tspan></text><path d="M 834.0487 376.65743 C 834.0487 373.95763 831.695 373.6236 814.5021 370.95173 L 814.3205 370.92409 C 797.0368 368.22428 796.857 368.22428 779.11924 368.22428 C 755.501 368.22428 648.72044 368.22428 648.72044 368.22428 L 648.72044 396.72428 L 834.0487 396.72428 L 834.0487 376.65743 Z" fill="white"/><path d="M 834.0487 376.65743 C 834.0487 373.95763 831.695 373.6236 814.5021 370.95173 L 814.3205 370.92409 C 797.0368 368.22428 796.857 368.22428 779.11924 368.22428 C 755.501 368.22428 648.72044 368.22428 648.72044 368.22428 L 648.72044 396.72428 L 834.0487 396.72428 L 834.0487 376.65743 Z M 834.0487 376.51835 C 834.0487 373.95763 833.86706 373.95763 796.857 373.95763 L 796.857 373.95763 C 796.857 368.25221 796.857 368.22428 780.20527 368.22428" stroke="black" stroke-linecap="round" stroke-linejoin="round" stroke-width="1"/><text transform="translate(653.72044 378.22428)" fill="black"><tspan font-family="Helvetica" font-size="12" font-weight="500" x="0" y="11" textLength="141.73242">type=sioc:Post, prov:Entity</tspan></text><line x1="715.49632" y1="405.7873" x2="724.95526" y2="397.05618" stroke="black" stroke-linecap="round" stroke-linejoin="round" stroke-width="1" stroke-dasharray="4,4"/><path d="M 376.04713 26.341622 L 511.41404 26.341622 C 514.17547 26.341622 516.41404 28.580198 516.41404 31.341622 L 516.41404 45.341622 C 516.41404 48.103046 514.17547 50.341622 511.41404 50.341622 L 376.04713 50.341622 C 373.2857 50.341622 371.04713 48.103046 371.04713 45.341622 C 371.04713 45.341622 371.04713 45.34162 371.04713 45.34162 L 371.04713 31.341622 C 371.04713 28.580198 373.2857 26.341622 376.04713 26.341622 C 376.04713 26.341622 376.04713 26.341622 376.04713 26.341622 Z" fill="#804000" fill-opacity=".38999999"/><path d="M 376.04713 26.341622 L 511.41404 26.341622 C 514.17547 26.341622 516.41404 28.580198 516.41404 31.341622 L 516.41404 45.341622 C 516.41404 48.103046 514.17547 50.341622 511.41404 50.341622 L 376.04713 50.341622 C 373.2857 50.341622 371.04713 48.103046 371.04713 45.341622 C 371.04713 45.341622 371.04713 45.34162 371.04713 45.34162 L 371.04713 31.341622 C 371.04713 28.580198 373.2857 26.341622 376.04713 26.341622 C 376.04713 26.341622 376.04713 26.341622 376.04713 26.341622 Z" stroke="black" stroke-linecap="round" stroke-linejoin="round" stroke-width="1"/><text transform="translate(376.04713 31.341622)" fill="black"><tspan font-family="Helvetica" font-size="12" font-weight="500" x="10.988144" y="11" textLength="13.0078125">&lt;fi</tspan><tspan font-family="Helvetica" font-size="12" font-weight="500" x="23.995956" y="11" textLength="78.029297">le://Users/aggr</tspan><tspan font-family="Helvetica" font-size="12" font-weight="500" x="101.369003" y="11" textLength="23.009766">.txt&gt;</tspan></text><ellipse cx="366.2396" cy="555.8403" rx="85.16678" ry="18.000029" fill="#ffffbe"/><ellipse cx="366.2396" cy="555.8403" rx="85.16678" ry="18.000029" stroke="gray" stroke-linecap="round" stroke-linejoin="round" stroke-width="1"/><text transform="translate(303.10628 548.8403)" fill="black"><tspan font-family="Helvetica" font-size="12" font-weight="500" x="30.44093" y="11" textLength="65.384766">:post9821v1</tspan></text><path d="M 263.78617 538.70032 C 263.78617 525.86308 260.88712 524.27485 239.71031 511.5704 L 239.4866 511.43897 C 218.19794 498.60172 217.97652 498.60172 196.12859 498.60172 C 167.03758 498.60172 35.514017 498.60172 35.514017 498.60172 L 35.514017 634.11573 L 263.78617 634.11573 L 263.78617 538.70032 Z" fill="white"/><path d="M 263.78617 538.70032 C 263.78617 525.86308 260.88712 524.27485 239.71031 511.5704 L 239.4866 511.43897 C 218.19794 498.60172 217.97652 498.60172 196.12859 498.60172 C 167.03758 498.60172 35.514017 498.60172 35.514017 498.60172 L 35.514017 634.11573 L 263.78617 634.11573 L 263.78617 538.70032 Z M 263.78617 538.039 C 263.78617 525.86308 263.56247 525.86308 217.97652 525.86308 L 217.97652 525.86308 C 217.97652 498.73453 217.97652 498.60172 197.46626 498.60172" stroke="black" stroke-linecap="round" stroke-linejoin="round" stroke-width="1"/><text transform="translate(40.514017 503.35873)" fill="black"><tspan font-family="Helvetica" font-size="12" font-weight="500" x="0" y="11" textLength="78.375">type=sioc:Post</tspan><tspan font-family="Helvetica" font-size="12" font-weight="500" x="0" y="39" textLength="211.60547">sioc:title="More crime happens in cities"</tspan><tspan font-family="Helvetica" font-size="12" font-weight="500" x="0" y="67" textLength="99.39258">prov:generatedAtT</tspan><tspan font-family="Helvetica" font-size="12" font-weight="500" x="98.953125" y="67" textLength="22.669922">ime </tspan><tspan font-family="Helvetica" font-size="12" font-weight="500" x="0" y="81" textLength="24.28125">"201</tspan><tspan font-family="Helvetica" font-size="12" font-weight="500" x="23.396484" y="81" textLength="170.94727">1-07-16T01:52:02Z"^^xsd:dateT</tspan><tspan font-family="Helvetica" font-size="12" font-weight="500" x="193.9043" y="81" textLength="19.335938">ime</tspan><tspan font-family="Helvetica" font-size="12" font-weight="500" x="0" y="109" textLength="102.720703">prov:invalidatedAtT</tspan><tspan font-family="Helvetica" font-size="12" font-weight="500" x="102.28125" y="109" textLength="22.669922">ime </tspan><tspan font-family="Helvetica" font-size="12" font-weight="500" x="0" y="123" textLength="24.28125">"201</tspan><tspan font-family="Helvetica" font-size="12" font-weight="500" x="23.396484" y="123" textLength="170.94727">1-07-16T02:02:02Z"^^xsd:dateT</tspan><tspan font-family="Helvetica" font-size="12" font-weight="500" x="193.9043" y="123" textLength="22.669922">ime;</tspan></text><line x1="281.13871" y1="557.9299" x2="264.28496" y2="558.34374" stroke="black" stroke-linecap="round" stroke-linejoin="round" stroke-width="1" stroke-dasharray="4,4"/><path d="M 676.783 438.50853 C 648.07625 460.8726 618.71334 494.26967 590.65418 505.60745 C 562.59502 516.94523 538.3426 500.76002 508.4112 506.54203 C 481.32678 511.77407 450.1079 525.96752 420.36996 536.9576" marker-end="url(#FilledArrow_Marker)" stroke="black" stroke-linecap="round" stroke-linejoin="round" stroke-width="1"/><rect x="485.43592" y="498.6017" width="122" height="18" fill="#f3f3f3"/><text transform="translate(488.43592 500.6017)" fill="black"><tspan font-family="Helvetica" font-size="12" font-weight="500" x=".30566406" y="11" textLength="115.38867">sioc:previous_version</tspan></text><ellipse cx="697.67173" cy="555.8403" rx="85.16678" ry="18.000029" fill="#ffffbe"/><ellipse cx="697.67173" cy="555.8403" rx="85.16678" ry="18.000029" stroke="gray" stroke-linecap="round" stroke-linejoin="round" stroke-width="1"/><text transform="translate(634.53842 548.8403)" fill="black"><tspan font-family="Helvetica" font-size="12" font-weight="500" x="30.44093" y="11" textLength="65.384766">:post9821v2</tspan></text><path d="M 834.04867 592.04168 C 834.04867 588.86822 832.86757 588.4756 824.23996 585.33498 L 824.1488 585.3025 C 815.47564 582.12903 815.38543 582.12903 806.4844 582.12903 C 794.6325 582.12903 741.04867 582.12903 741.04867 582.12903 L 741.04867 615.629 L 834.04867 615.629 L 834.04867 592.04168 Z" fill="white"/><path d="M 834.04867 592.04168 C 834.04867 588.86822 832.86757 588.4756 824.23996 585.33498 L 824.1488 585.3025 C 815.47564 582.12903 815.38543 582.12903 806.4844 582.12903 C 794.6325 582.12903 741.04867 582.12903 741.04867 582.12903 L 741.04867 615.629 L 834.04867 615.629 L 834.04867 592.04168 Z M 834.04867 591.8782 C 834.04867 588.86822 833.95753 588.86822 815.38543 588.86822 L 815.38543 588.86822 C 815.38543 582.16186 815.38543 582.12903 807.0294 582.12903" stroke="black" stroke-linecap="round" stroke-linejoin="round" stroke-width="1"/><text transform="translate(746.04867 591.87902)" fill="black"><tspan font-family="Helvetica" font-size="12" font-weight="500" x="0" y="11" textLength="78.375">type=sioc:Post</tspan></text><line x1="732.5205" y1="572.52808" x2="752.11903" y2="581.9131" stroke="black" stroke-linecap="round" stroke-linejoin="round" stroke-width="1" stroke-dasharray="4,4"/><line x1="697.70406" y1="439.00205" x2="697.6796" y2="527.44028" marker-end="url(#FilledArrow_Marker)" stroke="black" stroke-linecap="round" stroke-linejoin="round" stroke-width="1"/><rect x="645.18593" y="495.51286" width="105" height="18" fill="#f3f3f3"/><text transform="translate(648.18593 497.51286)" fill="black"><tspan font-family="Helvetica" font-size="12" font-weight="500" x=".14355469" y="11" textLength="98.71289">sioc:latest_version</tspan></text><rect x="274.49015" y="262.12619" width="141" height="50" fill="#cfceff"/><rect x="274.49015" y="262.12619" width="141" height="50" stroke="blue" stroke-linecap="round" stroke-linejoin="round" stroke-width="1"/><text transform="translate(279.49015 280.12619)" fill="black"><tspan font-family="Helvetica" font-size="12" font-weight="500" x="3.2382812" y="11" textLength="105.38672">:publicationActivity1</tspan><tspan font-family="Helvetica" font-size="12" font-weight="500" x="107.740234" y="11" textLength="20.021484">123</tspan></text><path d="M 353.54786 537.62088 C 341.4024 520.18565 319.1317 522.80615 317.1078 485.30997 C 315.19666 449.9028 331.33806 378.70444 339.9608 322.4179" marker-end="url(#FilledArrow_Marker)" stroke="black" stroke-linecap="round" stroke-linejoin="round" stroke-width="1"/><rect x="257.31008" y="434.28879" width="125" height="18" fill="#f3f3f3"/><text transform="translate(260.31008 436.28879)" fill="black"><tspan font-family="Helvetica" font-size="12" font-weight="500" x=".13574219" y="11" textLength="118.728516">prov:wasGeneratedBy</tspan></text><line x1="366.2396" y1="574.3403" x2="366.2396" y2="621.02084" marker-end="url(#FilledArrow_Marker_3)" stroke="black" stroke-linecap="round" stroke-linejoin="round" stroke-width="1"/><rect x="335.2396" y="586.84834" width="62" height="18" fill="#f3f3f3"/><text transform="translate(338.2396 588.84834)" fill="black"><tspan font-family="Helvetica" font-size="12" font-weight="500" x=".31738281" y="11" textLength="55.365234">prov:value</tspan></text><path d="M 316.7545 627.72084 L 415.7247 627.72084 C 418.48613 627.72084 420.7247 629.9594 420.7247 632.72084 L 420.7247 646.72084 C 420.7247 649.48226 418.48613 651.72084 415.7247 651.72084 L 316.7545 651.72084 C 313.99307 651.72084 311.7545 649.48226 311.7545 646.72084 C 311.7545 646.72084 311.7545 646.72084 311.7545 646.72084 L 311.7545 632.72084 C 311.7545 629.9594 313.99307 627.72084 316.7545 627.72084 C 316.7545 627.72084 316.7545 627.72084 316.7545 627.72084 Z" fill="white"/><text transform="translate(316.7545 632.72084)" fill="black"><tspan font-family="Helvetica" font-size="12" font-weight="500" x="6.550536" y="11" textLength="85.86914">"I was currius..."</tspan></text><path d="M 727.5206 538.69433 C 738.43943 532.42228 754.97668 534.21526 760.28034 519.8763 C 765.584 505.53735 764.4435 466.29603 759.34576 452.652 C 755.7375 442.99458 747.332 442.11575 739.22306 440.69537" marker-end="url(#FilledArrow_Marker)" stroke="black" stroke-linecap="round" stroke-linejoin="round" stroke-width="1"/><rect x="704.64583" y="474.38761" width="118" height="18" fill="#f3f3f3"/><text transform="translate(707.64583 476.38761)" fill="black"><tspan font-family="Helvetica" font-size="12" font-weight="500" x=".30664062" y="11" textLength="111.38672">prov:specializationOf</tspan></text><line x1="697.67174" y1="574.3403" x2="697.67174" y2="617.82087" marker-end="url(#FilledArrow_Marker)" stroke="black" stroke-linecap="round" stroke-linejoin="round" stroke-width="1"/><rect x="666.67174" y="588.28118" width="62" height="18" fill="#f3f3f3"/><text transform="translate(669.67174 590.28118)" fill="black"><tspan font-family="Helvetica" font-size="12" font-weight="500" x=".31738281" y="11" textLength="55.365234">prov:value</tspan></text><path d="M 648.18665 627.72087 L 747.15686 627.72087 C 749.9183 627.72087 752.15686 629.95945 752.15686 632.72087 L 752.15686 646.72087 C 752.15686 649.4823 749.9183 651.72087 747.15686 651.72087 L 648.18665 651.72087 C 645.42523 651.72087 643.18665 649.4823 643.18665 646.72087 C 643.18665 646.72087 643.18665 646.72087 643.18665 646.72087 L 643.18665 632.72087 C 643.18665 629.95945 645.42523 627.72087 648.18665 627.72087 C 648.18665 627.72087 648.18665 627.72087 648.18665 627.72087 Z" fill="white"/><text transform="translate(648.18665 632.72087)" fill="black"><tspan font-family="Helvetica" font-size="12" font-weight="500" x="5.211669" y="11" textLength="88.546875">"I was curious..."</tspan></text><line x1="612.00516" y1="555.8115" x2="461.8054" y2="555.76103" marker-end="url(#FilledArrow_Marker)" stroke="black" stroke-linecap="round" stroke-linejoin="round" stroke-width="1"/><rect x="476.21896" y="546.78486" width="113" height="18" fill="#f3f3f3"/><text transform="translate(479.21896 548.78486)" fill="black"><tspan font-family="Helvetica" font-size="12" font-weight="500" x=".14746094" y="11" textLength="106.70508">prov:wasRevisionOf</tspan></text><path d="M 635.87855 568.4354 C 619.5811 571.75728 617.7997 577.4719 586.98128 578.402 C 556.16287 579.3321 477.69488 575.62184 450.94958 574.0165 C 443.14017 573.54774 438.50118 573.05445 435.64404 572.54737" marker-end="url(#FilledArrow_Marker)" stroke="black" stroke-linecap="round" stroke-linejoin="round" stroke-width="1"/><rect x="487.75528" y="568.74698" width="93" height="18" fill="#f3f3f3"/><text transform="translate(490.75528 570.74698)" fill="black"><tspan font-family="Helvetica" font-size="12" font-weight="500" x=".47753906" y="11" textLength="86.04492">prov:alternateOf</tspan></text><path d="M 210 266.58838 C 210 257.05605 207.68514 255.87671 190.77576 246.443 L 190.59713 246.3454 C 173.59843 236.81307 173.42162 236.81307 155.97636 236.81307 C 132.74759 236.81307 27.727844 236.81307 27.727844 236.81307 L 27.727844 337.4393 L 210 337.4393 L 210 266.58838 Z" fill="white"/><path d="M 210 266.58838 C 210 257.05605 207.68514 255.87671 190.77576 246.443 L 190.59713 246.3454 C 173.59843 236.81307 173.42162 236.81307 155.97636 236.81307 C 132.74759 236.81307 27.727844 236.81307 27.727844 236.81307 L 27.727844 337.4393 L 210 337.4393 L 210 266.58838 Z M 210 266.09732 C 210 257.05605 209.82137 257.05605 173.42162 257.05605 L 173.42162 257.05605 C 173.42162 236.91169 173.42162 236.81307 157.04447 236.81307" stroke="black" stroke-linecap="round" stroke-linejoin="round" stroke-width="1"/><text transform="translate(32.727844 262.9393)" fill="black"><tspan font-family="Helvetica" font-size="12" font-weight="500" x="0" y="11" textLength="82.03125">prov:startedAtT</tspan><tspan font-family="Helvetica" font-size="12" font-weight="500" x="81.591797" y="11" textLength="50.625">ime="201</tspan><tspan font-family="Helvetica" font-size="12" font-weight="500" x="131.33203" y="11" textLength="34.6875">1-07-1</tspan><tspan font-family="Helvetica" font-size="12" font-weight="500" x="0" y="25" textLength="136.259766">6T01:01:01Z"^^xsd:dateT</tspan><tspan font-family="Helvetica" font-size="12" font-weight="500" x="135.82031" y="25" textLength="19.335938">ime</tspan><tspan font-family="Helvetica" font-size="12" font-weight="500" x="0" y="53" textLength="78.714844">prov:endedAtT</tspan><tspan font-family="Helvetica" font-size="12" font-weight="500" x="78.27539" y="53" textLength="50.625">ime="201</tspan><tspan font-family="Helvetica" font-size="12" font-weight="500" x="128.015625" y="53" textLength="41.361328">1-07-16</tspan><tspan font-family="Helvetica" font-size="12" font-weight="500" x="0" y="67" textLength="129.58594">T01:52:02Z"^^xsd:dateT</tspan><tspan font-family="Helvetica" font-size="12" font-weight="500" x="129.146484" y="67" textLength="19.335938">ime</tspan></text><line x1="273.99015" y1="287.1262" x2="210.5" y2="287.1262" stroke="black" stroke-linecap="round" stroke-linejoin="round" stroke-width="1" stroke-dasharray="4,4"/><path d="M 317.68671 261.78605 C 307.10487 251.96512 288.39401 243.79148 285.93801 232.3203 C 284.01734 223.34948 292.0368 212.35777 298.33576 201.71671" marker-end="url(#FilledArrow_Marker)" stroke="black" stroke-linecap="round" stroke-linejoin="round" stroke-width="1"/><rect x="212.7865" y="221.05066" width="107" height="18" fill="#f3f3f3"/><text transform="translate(215.7865 223.05066)" fill="black"><tspan font-family="Helvetica" font-size="12" font-weight="500" x=".14453125" y="11" textLength="100.71094">prov:wasStartedBy</tspan></text><path d="M 360.41604 261.6987 C 366.06912 252.38035 380.79547 245.21255 377.377 233.74086 C 374.53472 224.20278 359.1475 211.68467 346.86206 199.9043" marker-end="url(#FilledArrow_Marker)" stroke="black" stroke-linecap="round" stroke-linejoin="round" stroke-width="1"/><rect x="334.53373" y="220.86382" width="103" height="18" fill="#f3f3f3"/><text transform="translate(337.53373 222.86382)" fill="black"><tspan font-family="Helvetica" font-size="12" font-weight="500" x=".13964844" y="11" textLength="96.720703">prov:wasEndedBy</tspan></text><ellipse cx="569.6009" cy="125.2" rx="43.500069" ry="18.000029" fill="#ffffbe"/><ellipse cx="569.6009" cy="125.2" rx="43.500069" ry="18.000029" stroke="gray" stroke-linecap="round" stroke-linejoin="round" stroke-width="1"/><text transform="translate(539.8009 118.2)" fill="black"><tspan font-family="Helvetica" font-size="12" font-weight="500" x=".79316406" y="11" textLength="58.013672">:crimeData</tspan></text><path d="M 389.86913 538.22047 C 418.64965 516.7597 448.67692 491.88227 476.21933 473.83175 C 503.76175 455.78123 539.76255 472.73713 555.14016 429.90652 C 570.51777 387.07592 566.1216 264.51878 568.49424 216.82242 C 570.49987 176.50409 569.5355 169.51383 569.36696 153.5949" marker-end="url(#FilledArrow_Marker)" stroke="black" stroke-linecap="round" stroke-linejoin="round" stroke-width="1"/><path d="M 494.01793 426.70648 L 609.1993 360.20648 L 618.1993 375.79494 L 503.01793 442.29494 Z" fill="#f3f3f3"/><text transform="translate(497.616 426.93853) rotate(-30)" fill="black"><tspan font-family="Helvetica" font-size="12" font-weight="500" x=".4736328" y="11" textLength="126.052734">prov:hadPrimarySource</tspan></text><path d="M 415.99011 286.2916 C 431.26997 286.11199 448.24307 286.79067 465.6537 287.69099 C 465.94816 282.19888 476.9278 282.78756 476.63334 288.27967 C 506.61217 289.92949 537.10134 291.83748 561.82986 290.8242 C 561.48667 285.33491 572.4631 284.64866 572.8063 290.13794 C 584.3211 289.13486 594.1219 287.26262 601.40184 284.11214 C 631.81647 270.94981 618.24663 235.46908 619.5037 207.51515" marker-end="url(#FilledArrow_Marker_2)" stroke="#ff0080" stroke-linecap="round" stroke-linejoin="round" stroke-width="1"/><rect x="568.49424" y="239.70503" width="137" height="18" fill="#f3f3f3"/><text transform="translate(571.49424 241.70503)" fill="black"><tspan font-family="Helvetica" font-size="12" font-weight="500" x=".14160156" y="11" textLength="130.7168">prov:wasAssociatedWith</tspan></text></g><g><title>hide</title><path d="M 750.10575 200.79259 C 757.2349 207.5446 770.5906 210.89071 771.4953 221.05066 C 772.39998 231.21061 760.85417 248.1905 755.5344 261.75839" stroke="black" stroke-linecap="round" stroke-linejoin="round" stroke-width="1" stroke-dasharray="4,4"/><ellipse cx="732.1455" cy="183.78242" rx="46.500072" ry="18.000029" fill="#ffffbe"/><ellipse cx="732.1455" cy="183.78242" rx="46.500072" ry="18.000029" stroke="gray" stroke-linecap="round" stroke-linejoin="round" stroke-width="1"/><text transform="translate(699.9455 176.78242)" fill="black"><tspan font-family="Courier" font-size="12" font-weight="500" x="24.998828" y="11" textLength="14.402344">&lt;&gt;</tspan></text><path d="M 826.05956 289.33501 C 826.05956 280.6556 823.80735 279.58179 807.3556 270.99217 L 807.1818 270.9033 C 790.64316 262.22389 790.47114 262.22389 773.498 262.22389 C 750.8979 262.22389 648.7204 262.22389 648.7204 262.22389 L 648.7204 353.84647 L 826.05956 353.84647 L 826.05956 289.33501 Z" fill="white"/><path d="M 826.05956 289.33501 C 826.05956 280.6556 823.80735 279.58179 807.3556 270.99217 L 807.1818 270.9033 C 790.64316 262.22389 790.47114 262.22389 773.498 262.22389 C 750.8979 262.22389 648.7204 262.22389 648.7204 262.22389 L 648.7204 353.84647 L 826.05956 353.84647 L 826.05956 289.33501 Z M 826.05956 288.8879 C 826.05956 280.6556 825.88577 280.6556 790.47114 280.6556 L 790.47114 280.6556 C 790.47114 262.31368 790.47114 262.22389 774.5372 262.22389" stroke="black" stroke-linecap="round" stroke-linejoin="round" stroke-width="1"/><text transform="translate(653.7204 266.03518)" fill="black"><tspan font-family="Helvetica" font-size="12" font-weight="500" x="0" y="11" textLength="97.066406">type=prov:Bundle,</tspan><tspan font-family="Helvetica" font-size="12" font-weight="500" x="0" y="25" textLength="56.689453">prov:Entity</tspan><tspan font-family="Helvetica" font-size="12" font-weight="500" x="0" y="53" textLength="99.39258">prov:generatedAtT</tspan><tspan font-family="Helvetica" font-size="12" font-weight="500" x="98.953125" y="53" textLength="22.669922">ime </tspan><tspan font-family="Helvetica" font-size="12" font-weight="500" x="0" y="67" textLength="24.28125">"201</tspan><tspan font-family="Helvetica" font-size="12" font-weight="500" x="23.396484" y="67" textLength="140.26172">1-07-16T02:52:02Z"^^xsd:</tspan><tspan font-family="Helvetica" font-size="12" font-weight="500" x="0" y="81" textLength="30.685547">dateT</tspan><tspan font-family="Helvetica" font-size="12" font-weight="500" x="30.246094" y="81" textLength="22.669922">ime;</tspan></text><path d="M 709.48435 199.88223 C 701.6678 205.43558 693.98984 216.93954 686.0323 216.54393 C 680.4372 216.26577 674.7015 210.10452 668.9739 204.26534" marker-end="url(#FilledArrow_Marker_2)" stroke="#ff0080" stroke-linecap="round" stroke-linejoin="round" stroke-width="1"/><rect x="634.96065" y="217.44091" width="119" height="18" fill="#f3f3f3"/><text transform="translate(637.96065 219.44091)" fill="black"><tspan font-family="Helvetica" font-size="12" font-weight="500" x=".47265625" y="11" textLength="106.71094">prov:wasAttributedT</tspan><tspan font-family="Helvetica" font-size="12" font-weight="500" x="105.853516" y="11" textLength="6.673828">o</tspan></text><path d="M 401.0034 539.1441 C 434.7451 522.9388 470.63333 500.3174 502.23863 490.52334 C 533.84393 480.72927 562.96595 489.1036 590.65418 480.3738 C 615.2545 472.6176 637.0497 456.4164 659.77545 443.02645" marker-end="url(#FilledArrow_Marker)" stroke="black" stroke-linecap="round" stroke-linejoin="round" stroke-width="1"/><rect x="486.72566" y="476.084" width="118" height="18" fill="#f3f3f3"/><text transform="translate(489.72566 478.084)" fill="black"><tspan font-family="Helvetica" font-size="12" font-weight="500" x=".30664062" y="11" textLength="111.38672">prov:specializationOf</tspan></text><path d="M 533.12106 61.168165 L 533.12106 30.717554 L 572.43344 15.515074 L 611.74583 30.717554 L 611.74583 61.168165 Z" fill="#fc6" fill-opacity=".38999999"/><path d="M 533.12106 61.168165 L 533.12106 30.717554 L 572.43344 15.515074 L 611.74583 30.717554 L 611.74583 61.168165 Z" stroke="black" stroke-linecap="round" stroke-linejoin="round" stroke-width="1"/><text transform="translate(538.12106 38.920033)" fill="black"><tspan font-family="Helvetica" font-size="12" font-weight="500" x=".96082143" y="11" textLength="66.703125">:government</tspan></text><line x1="570.4193" y1="106.703474" x2="571.97436" y2="71.558027" marker-end="url(#FilledArrow_Marker_4)" stroke="#ff0080" stroke-linecap="round" stroke-linejoin="round" stroke-width="1"/><rect x="504.20772" y="78.922327" width="119" height="18" fill="#f3f3f3"/><text transform="translate(507.20772 80.922327)" fill="black"><tspan font-family="Helvetica" font-size="12" font-weight="500" x=".47265625" y="11" textLength="106.71094">prov:wasAttributedT</tspan><tspan font-family="Helvetica" font-size="12" font-weight="500" x="105.853516" y="11" textLength="6.673828">o</tspan></text></g></g><script xmlns="">
  {
    const open = XMLHttpRequest.prototype.open;
    XMLHttpRequest.prototype.open = function (method, url) {
      open.apply(this, arguments);
      this.addEventListener('readystatechange', function _() {
        if(this.readyState == this.HEADERS_RECEIVED) {
          const contentType = this.getResponseHeader('Content-Type') || '';
          if (contentType.startsWith('video/') || contentType.startsWith('audio/')) {
            window.postMessage({
              source: 'xmlhttprequest-open-open-in-vlc',
              url,
              mime: contentType,
              method,
              contentType
            }, '*');
          }
          this.removeEventListener('readystatechange', _);
        }
      })
    }
  }
  </script></svg>