<?xml version="1.0" encoding="UTF-8" standalone="no"?>
<!-- Created with Inkscape (http://www.inkscape.org/) -->

<svg
   xmlns:dc="http://purl.org/dc/elements/1.1/"
   xmlns:cc="http://creativecommons.org/ns#"
   xmlns:rdf="http://www.w3.org/1999/02/22-rdf-syntax-ns#"
   xmlns:svg="http://www.w3.org/2000/svg"
   xmlns="http://www.w3.org/2000/svg"
   xmlns:xlink="http://www.w3.org/1999/xlink"
   xmlns:sodipodi="http://sodipodi.sourceforge.net/DTD/sodipodi-0.dtd"
   xmlns:inkscape="http://www.inkscape.org/namespaces/inkscape"
   width="297mm"
   height="210mm"
   viewBox="0 0 297 210"
   version="1.1"
   id="svg8"
   inkscape:version="0.92.4 (f8dce91, 2019-08-02)"
   sodipodi:docname="interactionOutilsBureautique.svg"
   inkscape:export-filename="/home/pascal/gitlab/formations/presentations/ae/images/interactionOutilsBureautique.png"
   inkscape:export-xdpi="52"
   inkscape:export-ydpi="52">
  <defs
     id="defs2" />
  <sodipodi:namedview
     id="base"
     pagecolor="#ffffff"
     bordercolor="#666666"
     borderopacity="1.0"
     inkscape:pageopacity="0.0"
     inkscape:pageshadow="2"
     inkscape:zoom="0.5697005"
     inkscape:cx="249.46138"
     inkscape:cy="270.05783"
     inkscape:document-units="mm"
     inkscape:current-layer="layer1"
     showgrid="false"
     inkscape:window-width="1920"
     inkscape:window-height="978"
     inkscape:window-x="0"
     inkscape:window-y="27"
     inkscape:window-maximized="1" />
  <metadata
     id="metadata5">
    <rdf:RDF>
      <cc:Work
         rdf:about="">
        <dc:format>image/svg+xml</dc:format>
        <dc:type
           rdf:resource="http://purl.org/dc/dcmitype/StillImage" />
        <dc:title />
      </cc:Work>
    </rdf:RDF>
  </metadata>
  <g
     inkscape:groupmode="layer"
     id="layer2"
     inkscape:label="outils"
     transform="translate(0,-87)"
     style="display:inline">
    <image
       y="87.752388"
       x="42.33334"
       id="image894"
       xlink:href="data:image/png;base64,iVBORw0KGgoAAAANSUhEUgAAAyoAAADtCAYAAAEny7HAAAAABmJLR0QA/wD/AP+gvaeTAAAACXBI WXMAAAsTAAALEwEAmpwYAAAAB3RJTUUH5AMDDjM6LO23ggAAAB1pVFh0Q29tbWVudAAAAAAAQ3Jl YXRlZCB3aXRoIEdJTVBkLmUHAAAgAElEQVR42uyddZhdxdnAfzPn3HPvXfe4rMUgHkIgCa7Bizul tLTQUtLgWqAthVLCV0pLBQnQ4lDcPVg8gQgJcd3sZv3qOWfm++PubjbJxiC2YX7Pc597dM6cmfPO +76jQmutMexxSJMEJmMMJmNMxhhMxpiMMWwHXtKvauu48nXDl/9bsMxkzBY45hRmAPqUs/lqR4d9 9f5PFIwdPOFFgHHDHvcBxg6egLRE5uRXFzrR+mTt7cc+16CVjpmMacUXk5j55osMAsSLT9J/bSUr d8JjTklJibLGDXvcHz/9QsYOnkC8wZVaaX3rm6dn/WboY+HtCdDe0xP28t8w57ve+7d/0Q+INu0+ BZwFdAG47KfMOf0UOGQ0/b5P/IQQ+voXT64B8gCOuHjfOb8ZMmHf/C4ZjUIKUpL0mPenSefHgdA2 h/sdPX8fsNoqcpszW2vdKITIANTukkyRCcB5wBM0CkGG1jQusMgo93XDromD76mEZcvg99YxWmu3 KeEBVNJNNr+Cp7VOAlRUVHztum5jq0xi7ry5swABaIBRo0fNBZg7d87U1sEDxOPxul2RKFdexjcb H7v19+Xzbr2eBbvq4/gumdKcERvQ+vjzzz8/VrfB8uXLpzdv19fXz299Lh6PJ7TW+sCRB05q2l+u tdY1tTXLtda6uKz41p49u/aaOXPmRL2TUUonyNCaDL0fQNO2JkPv8WyiY0rLS8cIRCcALdaXcjNm zJjTrVu3wvz8/MJAICC2I+N9gJzsnK4AxT17jnnvnfdvapKunVV8AcR1A6GmImtSk7C2G8TeVru8 ccYYB3M3ct0tO8UE3kskZvZtsPK1bddtR3z2lpD20VsvClsMkfVfU1Yri9D1HQJWEkDVb3rt1q3d PfPj3OP9GCHaNMuhUazXUQFNky6xdlY86uvr8X0fWwh8HKQXRVo+nmUjtI1t25vk+LaQlpa2KzJm 724MFUKgpI3USVwng8nfLGNUeR6ffP4ZHTp0IC0tjUQiQVFREZZl4TgOruviOA5CiA0yz/d9XNfd BRnjNW5iaOnZJ6C//Bj54xoo2o8nnv8zd3tR7vjlK5yA3Caz7Owfb+ZERksR/FSz0j/rtO2L8lmn suak4+m4LdcqHcQL1+AkJI6bxn8nf40b8TmirJiPH/+A3IICfv7733Dnz2/h5vG3kQhX0/BVI6+9 /Cqn/vwMZn8xiyEnHAh2kqArUUIQDAbbb1H25CMtlta7wBG6IXWsdfp+j+A7buuFUiYI+rnc/+Tn /OaMoeQvsSjpESQe98mjA7++49eM/+U/uf3e27jhotu49NZLWfjZAk4feymP3/QEBxyyL1+/NYUh x/bHlxIJKKX2AqusURy5Ox+vEzbrqhfTY5nmwZte5diT+oFMJxJuYHX/Ufh2glUrKmh0Gvi0qpr6 oiIKLhlFtuOxeNocOh3ejZqoxidJPJLA9/1do/zvy7SZ6jr4eDyZ9T7qxuPhP9d+IcfePGL/W9Zx YO8g43+XxnmkAT8GOHq7HpCxe/2tuN9A0MrmqMvyOXvMXzhTjiKQ72MlBeecWs59L3zAVY/9mtOP uoUxxx+DkFUUiHziEuyOHtkOZBXaWMoCobESccgItm+J0Q3rf7sLx3EIBoPIdIunP3iIUDCNUEER DY2a6W+9Ss3zE3n8yns5aEQxRx5cTLdYOg9ecju3XfRbTvzTL3jpo6/p2q8v997yCMsX1HHTr+6i tibQfnXMnoLrukgpUZ4imUwipaSuahHFxcWM+dHh1Bw6hE6dOrF8+XJcN06lXs0Fd1yAEIKqqtWM HNCNRGQVv/rtJSiluPGv1yNEDAj/MKpk9hZMm7/JGIPJGJMxhp1W/WOUv5EWg8kUkykGkykmUwwm U9oNflu9+pfMXFsJMPezlStMprSB1sQTSZLJJMlYjFU7Muz//XlyRSBoF44dPIGKRbXfXjfyP8nV C2rqeg4sKgSY9vqihj+f8+qKq/Z73NuecPf22mMlBKGg07LfORKlPj2NrB31gIVT1ywrGdKBsYMn lAF0Ks91aiuiKyqX1bnR+qReMXddV1Idyqv3ikz5Pr34YYOe/EuBxcAYIOuyn6bCfeDe79eLX0oh SoZ06DZ28AR69C+oWPpVVYe6imjtbcc823X89AuZ+PS8r5surd6ecHekR58AgntSpjb1AViJ1o8j xGOQyoxd2ZD27sNfLTvi4v7dv5dOiUQi1clksnW0fYDKqsqWoWjxeLx+4/suvvjiu5qL8eZjy5Yt +yZVrmu3OUzf9yPs+r5Lnzdv7Mre+wDbmyFNinA9Bx960NcAZWWljVprvXr16tlaa11eXjp7497l w4YNndm0GdVa67///e+XpnrMq/rmaxKJRERrrSdPntTS279nz669iou7D9oVPeB/+wc9raXtP0P3 bS899zeQlP+98FJa6lPXHkDHjh37ALz55tvxTcuGrXcttSwrAKBYX0TOn7/oy5GjD3p4Z3yVhT2p F5nrO4nfej2DdUPTh9fAnN3dB2B36JTdTmFP6qvWpSyr9pD4e62fct0trHzp1V2rJ9qPpLw9fHs0 GRw1eVscv02KyNFHIz/9vKl3bKue+rFKVgaD294zErbQ4Xw3s0f7KW0lWksH+Oae+gHNWacxPxSi 186KR319ytj0fR+hLRSa3OooMR3Bzi0i7oBlWRvFU2zJuGo531aH8B2YKXonXbuHVdvgoYHlWdnk 1iT5asYM6nWCYDBIbm4uAEVFRUgpsSwLz/MIh8NIKVsyQmtNMplEKbWzM0VsEn31cA7imBMRnR/n 8Q8/ZPH+ipueP4Ov7rydgdsQYlu987+Z37SRMnWfAnjqOXolEsSCQbZrYoKNOpRv3opUNtFggqAf wtE2dcEIJec9waNHFaCsKPVz6/jJbecx+ZM5rPx2KUf/sohw1Oa+q/7FT2++nIfu/jeXXf8LEpka 20t19nMcp30WX82J1mziDh9Gw9rFZLa6pHXP/PDOikckVEd2NJP7XvuMi086hFWTlrP8/y7k/rsm kCdCXPXHy3n7jYmU9itjYMkAXr71KabOWMo9j9/C/fc9y69+eTljT76Oe17+LX5w0yJsr7O+dgWZ 0UxqifLzo/bjj+f8jmcfmUwip46i3G5kju7OyrDLN9MXk5Nh45YFeOzDueijjmVtegUj9+9FxEki i3KQ4SC+7+F5Hr7vb7Z3/g6TlPPzUuL4Xu4HSOmz7LrjkU+/Q9JVUw/+3TlDP/9DU9l50uvbVHTt ScRIIjyIqggHnzmC0QePIqYqyC+p54jjhvPU/z7ipBtO4/5xj5F1wCCO678v8XJJvh/A75hNWrqg R78CErEIru9i+R62baMyMtpf8dWindY7gpm7xZmTskVxjzxhPwQuIpmFLMrnH799jFNOPJqHzr+F n/31Vt598U3mul+R9fISbntSUX5Yf3qGJNEeOfztvv8SqU+SnelQuXYtBYcfyrjTD26fmbLbPwqt 8TyPQCBAPBLDsixCwSDHHDKYww7ch4aGBn78l0tJz4pz6ClDOOXHhxGJRFiwYAFlZWV88803HNy7 CwNOPxatdUt4mxsfaTrjmWoWg8kUkykGkyl7MUbRGwymBDMYjLAYDEZYDAYjLAaDERaD4YeDaYvc i3BdKhNJopaFFQ7RdU+P7//+PHnVR0/M6QxUAQUX3HlQ1eBjigvauNQfO3iCNfTYkrlT31jUd/z0 C3ntr9O+7dAzWw47vrTEaBbDNjF5GvPmzWcuQCBAYUY6PZoFZcFCllWsZWk7eI3VAOXDOwGp9bqE EGLs4Am/uWbEEz5gCSnU1DcW9R15eu9vAOZ+sjJr+ttL4pHaRM3YwRMYO3hC3tjBE14bO3iC0SyG ttlvCH02d668lO7t4R3GT7+w/9jBE3jtr9OjZ95yAJAaANZ8ftnXVZF7p16Q3iRIvfsd1HURsEFn uvtmXFRz5aBHpwPH7ax4mkbJdkqrJWjOA+4CuqD1H4nI68nQfWHTkfDteeDb5ojUJmpuOvSp3PHT L9x7zLA1a9bMaOt4LBZbTGqEfgsnn3LS6zQNJHddN6n1+iUzR44aOaXFkPV9N5FIrDCi88MlPSe4 SwRlq8Li+35dr15lD5aWl3Qq71X2bFl5SU3zuedeeG5cWVnpHTNnznib1OKRJJPJytNOP+1/nuet u+vuu95rHdaog0ZlxWKxldOmTX3vo48++rL5uOd5XvP9Teq34bBDDn+1OW5NSzC0npFGt7q3JhaL NbbY71MmTb/qqnGTl69YPrP5uhdefOGL0vKSE3r27FE6fP/9prCXrBoTr2qZHegnQE6qmJXXb3zd Fb9gdfPPiNZO9FlGjjpw5YIFC3/RtHtGaVlJiyIXQuhvv114Y2uB2/+A4ZXTp844GeDaa649vHVY n37yaUM4HC4ZMmRol/2GD5s+edKUts0LITKdoKPYhqUNhRAZ4XA42VqK7rnnz/u1viZg27Fv5y98 qfVtOyrxOpbu3MyprEIrtenYxg5FCKBzhyIADm05U7SpSf3083Rqtd3C//1Rzz3zdNHXiMB2sLXp RHzfb3j33Xdrfd+Pz507d/X6xU1VTGutNr7e87yGd999tzaZTNZsdLy+1QKuK1uF37hxOEqpSKtt X2vtN++vXLlyZetrp0+fvqbV4q91bb3D2rVrV02a9OXa1uG0N044zf+iaQqamDbsFoyDvwfTalaa uSh/JtI6i3a+puxea4btFhb9C9Z+tLP0KHr4Y28JaR29J71yc83WWacx/8lH2pz7pC/SMiaTEZaN q8dWQf38nSYsu8O/H300TPysZfeVlq1GcSLQstLfh5/Q+cQz4YX/UG3b5FUuaXMW2T1WqzRPRNTk T6K1JujF8a0gSR0EqXGUR9wJEVcJOkUFVSEXz5Jk6tQw+taGTvN265k82tpuvk4phRBiq5MbSbm+ XiscDrdjYdnbaRaQNjhkNKuaNEtee3/NVCUn1GsHL+Zi2xqhPZT2IdZIxaQvmfjQC/zor39gVX4G SqVm+woEAht8/FprlFIbTBzVWkBaC41SCsuysG2btrwLz/O2eT3v9iEsRYdC+tarmXR1D6hI1YaK 7j0hvUkbhQv5ZuFwhIC6Is3CNZozIx+wZP8SMkUu+WI3T6HXer3Yxg1z7qnn6PXUc5CsZnUgsL4W qz3SolmER1pIg1DERBg3lMbh1z1Fzbo5fP3Iv1kj6gnXJ/lq0QJyc3Opra2lY8eOrFixgmg0SmZm Jvn5+RQUFKC1Ts2E0yQ8nudhWRZaayzLapm2aOMF71s+dtvG93201vi+v8l0e+1PWFa9AhVb81k0 zD4R/eXHqd1jTkR0mgBCQuFQJr06GiFh0X6K5z6Pc8aqh5nV73R6iv7kZfT4XqXL1vyO1gwfRsOX H5D5yVubNwo2c6JdCkrSThDww0itcC2fT6etoaAom+L8PNJFA0Irbr72Cbx5K3nsxjO596YJjLv2 DH59wXVUzVtK996D8DM8br7zaj5/YSENNbV88tbrDCwdRnZumBseuAqRFuQ/9/yH2ZMXMnvpQjK6 5zGweF/6FPfk83c/wAJyO2Rx3SPX4OoEyvIQKvWZa0GLmbY57WPMsF1rZondvdr4bnOAtUAlPdxk nDguxT0685MTb+LEYwZy+cXncfklV3P0sYcx/pZz+eKtqXwzezEqXeLkdkf0sbj7jZsQIslV5/6W yq/W8NCX/+Kq0IWgQhwz4mzeHHkSf3p0PP9+/UMef/JOMvPihEIFfPr+DO7+5d38b/pTRHWcg8oO w74hjd/c/jMIaJJuAt+zkZbawK/Z3kJzj6s6jjfMxY9vuDCGKyw0AiEgx/NSmsXrHqexIdUNJjc3 VM/ysAAsJ5NkQ78aBESzYU0tDInPoba8iLBOxyH0hRDi2J2oWTrR1Iu2WbP8UISlpqaGRCKRmmlY CAKBADmNmVz5kxtYubyO39x+GQOOKCdaX8+6xZpp06dxxNmHssZr4Ml3V6OVRwdZwYXDjuGfV92I Z2czMb6UIT+5hHf/9TxjAp056h8/4dWvq7jg4K701Otw7XyWvz+fh+96lntfu4WoTPKX659g5EFD GXHkvrihKJ7UeMpG+wpHCyQSO2ATjUUoKMhvv8Jy36LrmVr9Scu+j8eHuZ+w2nfpEpAsv2YMWkrE 469/IRxnBEDSVVNH31EzVAoY0SvI+HMzdklcL75s/fYjj296viAf94QxBPbED/vUk6g47mg67Mgw q6qqNvBXhBD4DtjaQSQFCA/peLjaxo9nkIjHCRBHJywEity8PKINEWQCAtJCFQp0XQIVACck0LXV uIEi4r7EjsQJWQKtLVROgGTAxncUvvBxExZhpQhphU74aARp6SG8SAytFUlfQX4GEVy6ZZvasF3C w39re7sVgT04+h12dICO41BfX4/jOC1OdzgSIOnH8aWP0hLiDnawDt/W6GyFdpMUhgtZLtbhJ6oo yM8m7vk0Wj5ZOo6TFyYGJLVLem42jUqRHqnFzwwTC9ioRIxsG6r1aoINmdjKImI14nuKrLR8nJwQ sWScOlWLbyVJdwWWJUhqQU7a9mXPHics/bKHELbSW/YVPvnpFnVakCNBHHQkQkq0lC0Gp5SIMYPD CAHlnYz87zYHP5lsmXa+2R+IW0mUULiuh+u6BIMeUqeRGbBJJBKEQlnEdZwikQEhUNIjaAtE0qc+ 7hMO+80fAhEhCNk+0aCFEC6WpQimB/EkZMTSibgNpKWlkaVsRFAQt5IktYcMSoLKRtkSH0gkEtie i+077dtnMRj2VMywYoPBCIvBYITFYDDCYjDsyRgH32AwWsVgMIJiMBhBMRiMoBgMRlAMBiMoBoMR FIPBYATFYDCCYjAYQTEYjKAYDEZQDIbN4iX9Ki/pVyl/68smxRqSayuX1rcsg/HYdR/P35VxNeNp 9yIaI6m1IDPS6c4OXCZjZ3H1/k8UAPMgtWzf5hYY+sNJL1ZXLqsvGnRkz3lVKxpC4/57fO7aJXVB o1EM28UpZ7Nu6TJWhIJ0SgvTpaGB1eX9VUU7if7Q+2ZctIFQ33Dwk+64oY+pDx6bPQugcll93qUP HLnuwrsP7jPuv8fnAlQtb+gEcN3I/ybduF8xbthj/t1nvFxjBMXQJsNGU/fik+T36E5X28aREjsz k84LvpIdAtlqXjt4hS+uHPSoTssOxgGuPeA/Klaf/L97p11ovTx+ygCAc+8YtfYfl7+TP3bwBJSf WvYwEXWd5v9rDnjCU762Vy+oyU3GvAojKIYNMy9TT57yCdmbO+/WyT7F+1C9J7/DHyeekwPQb1TX GoBk3JPAVVcOerRlnNSw40uLxk+/kPyumevGDXusrYm6fnzfjIsAmP/lam0ExbABqkHst7VrFs/e s2fTd8J24R8/Ozcy5bWFnQCsgPTPvm3kwvHTL2zxWSoW1y0BuOaZEzcnBJc0b/Qa0WmnfNPGmf+O XHMTX0eiu6eg+WgiHWbPpWm+UP0uiCOaTj3V9H/Wxvfk5hA9+3SWNO8/cC/99pCkFMGwnQ4w4+0l lfdMOj9/3NDHip+89VMsW3r3TD7fvv/iNzpFahMABfdOuzAGbKBVhhxT3P9KHtW5HdPrnJBdtFMi aYYCtz/G3QD33t+043sHYtmp5Y2al51oYzLxwQNpnDaRjL0tLcYOnsCVj42p6dG/MHenmrm74mW0 1pHtMimU2lzthd4o3KgRmy3g+8/s7a943K+GLCvssR0TDO/JgjLqoJHvbrbWZtiwBa33Tzv9tFsa Ghoqm/f77dP3jebtSCSyQcNUWXnpSiMNW8CyztjbX/GIi/t3T8tydvoyf1v1UZLJZAOA4zhhwKKp Icv3/ahlWcFEIhENBoOZra9XSulQKJS1UemfqK2tXZebm9uxtYB++umnHVtpkoavvpp5QGVlZSw7 O1WZM3PGrNGb0ToxwHZdtyEQCGQ2H5NSBpLJZMxxnOY4qUgkUhsOh9OklHvFarzHHU3VvffjwAZr Qz608XUlPXXV+WeLGoDu3ZCw95leu4otapQRI/Z/pXef3qP79Ol9WFl56Xue59U1n+vdt9eLBxy4 /we2bbvNx376s0umrFq9ao4QovGEE49/dr2QwL3j730vIyMjMOKA/We2fkb/Afu2moRbhoWQ60pL S1vWsuvbt3ebbQFNk0Or1suRHXPM0W+dcebpEy3LcpuE0+0/YN/3+w/sv2+v3uU3LFmyZOnekGmH HUwBNFX7Wvb1TYdv3NTywqqpJaOmloz6esLmc/9+/sNm6dazW8tyzyWlxae4rlvTfK6svDTe+tpk Mum5rruurXAOHHXA/1rtqtbnynuVNbTe79O316Ot90tKiyc1bzc2NtZtdO6b1vtlvUorW+/feOMN U3r27Nqr+VdWXjpR7yUsXKTrydC66XcDGXr9+gbrj7f8Bo/UDdrwndmi6eUl3ZZ1lAXUbyRizwLn tRI4bNvellJrp/VBOnj0wdOAo5r3161bJxctWjZ3Zzyr9yAdqWsQ6TuzEKtYu+mxvFz8QAALyOyw viL098DvKdp8Beaq1WR0bNLTUqBWfWva0HaYj1JYWPiWbQX2I4AlpPXIhp/4hpniOI7Vu0+vpXPn zOshpQxM/HTirFEjRw3ZyfHfIEZqo1rR++//a+kdv7tj8i0337J/TU1NxR/u/P3EP919z6k74sHf zNi5QgJtL7Y6b5r+trBA9G4PlTg/GNNLa63nzpu7esG3C1b5vt+otfabj1dWVq5u6/pvv12wasqU KRWtj1VWVq7aXPizZs1a03q/qmrDcJcsWdJyr1LKa33Odd1EPB6vb96vrqle08Yjku+9/15NJBKp bM+qv9mEWlup5hlDaNdjGhz3YNrSKGsX6292gEYxGBW8F9IohEkEIyg/eK67hZXX3cLmG08zjNbf 7dp9TzK9tNZ/EZ+feQXS2Tnhdz05Kbqe5uxxmdBkYm08INaYXu2k1mu3UDcPrJ3UgJ6o3JGFgtKa bQpPZmFtKrVqMp4eCUDASrYSjLiqTy3JrerbFKsyrfG/t3CKNuJkaEeC0o7M1u/gOXwGrGvank+i qVdDICVvJ4yBoIPdTj9iXV9fL5osA6SUaOXjKJ+EDKOljVRJLK2pTg/QOSIQbpI1ORZZnkAohRCC ZgOntaHTvES3aJXgzdutr1NKIaXcnLWySTihUGilEKKLEZQ9jxtpFB9u7uTLT+8deaK1xnVdLClJ ahutNJ6XIICHcF2KfJf6dZVkZGQRjAVxvAAxK/WRN3/oYiulUFsew+aEpDm8ZmH5Lt6GceYNO17V Nn+wQhLzFAk3ge/F8ZVLQmhiXoznr7mD5U+/QUK71Ic3/QyVUvi+j+/7eJ63wc913Zbfxsc3aycr hed5aK1bfu3c9NKA3olhG3ZJBYUQaK0IBiVC+3i+RFlBtEjnzalfc/L995PuR6ioizDn66/ILsym c+fOLF26lLy8PFzXxbZtLMti0aJFDB8+HNd1W4QwEAi0CIfjODiOs0XzSwjRok0aGxtxHIdwOLxV zbXnCkqfq0BsxUTP6I6evKbl4xeDsiFRBcDq5Bga1gky8+DTasXI7i6d5k/mvb6NDLQOp2D3vt0H ZOhmZ34SEWv/Nmq54rqB0N4iMLZOIgVo26FRS+atWscvH3+T+847grP32xftVtO9WxeqGmpYsGAB UkoWL15MPB7nsMMOY9WqVXTu3BnbtrFtu0Vr+L6P1ppAIIAQokUDNQtMW1iWhe/7ZGRkoJRq5xrl m/FstXq42zHoRz8FIUH5iGt6QfU0QLOw9hSWzBIUD7C45+tGio5N0umZp3jskmWMtftTULhjhlRf cjnJSBTnexS5pWToJ9s4Ezj7xzs/mZ98ZCdoEeWQsDXKqsNLuKSLIghIrGQY7BoSTpgf/+bvdO2Y iVy0kjVZeRR2S+Omux6ia05HAgTo078Lh55zPNWVcR6583Ea1tVwwU9/jFACP5xAuklC0Rye+fcL zJw9nbMuvoB99uvFMw89RaIiwQVXnI8udPCFj6eSOELg+AJPihazUAiBZVnbrE2MM/89+PcD64Wk azmrV66h0yaGXsOWPkqRTxuTQED7rbZ1A1EcLwQiSIOTzTPvz+DEo4bheDFwXaoXriWwbBV/u/MW 3vr3C4iIzZgjBzPt1RlES/vip4ep8xOkFy3gzVc+4Ns5X9O4spLEygAjDunLYReNIbY2yk2//h1x VzBtybfk5k3m68+WsnD6Smor13HTl7/lkrsuoaRfT6QF0gJ/B3RsMM78Dv5WgE9/qC+vhCKgFI4f IO4Klq2L8vHEBWgpcVQ6C76Yw/3X/oZhHbJxXIHtBHHS0tl/6KHcdPe1/O2FOxn72yt496W3KS7u yqOvPMBLXzxL6YCevPf2xyTqE/zlnn8RDmfypwdv5J0pL3DsOcewZtVaTrvgR9z3/D2EczP5+90P 4CiLsBMAodBCblDR8F2ceSMoO5YG4IIf6ssHsWmIxqiN1CC8GLFVq/jTuDvx17n8894XeOOF1xkx sgBHwNfTv6Gqrpp6P87ny5ayKtCIm16P78X5+P336L1Pd9xglPrsRg4891Cem/gBqyO1fDR3HivD LpG8OhJUUTokj/c+eI1H//sYlcFagqWZvPXOxyhfoJSH1j7JRKqGLJlMkkgkUEptsYbMmF6GnYoV d5BBiSciZKkY1537I6IfzOfB2x9BWB058JCDEemwor6aQw8dQ4/yPHSBZPCPTqbSySXqK7JEFmU9 B7B87nIGj+qNShPMXrKC3K4DcINBDrvwUoIF6dTmSArqFOkywL6detMjrxsyJBk4cCirjq4m7ntY +Gg0Wmk0ikAggO/7SCnbvzMfGXr/BorOkTaNTVoyVytQCsKFyNvPqEmN29JEO1i5frIeDQy0wrF9 D5TxtCx4cGSQssIc6Phbbu4Wo6tXroCdOQu6AAp/qIISJ47rJhAEcYFwTpyTzxnFfb97hJGHHMyF P/0xlfE1ZNg5pNKz+XoAACAASURBVOfGsVUCNy4pH5nPB7OWMGlOLUcW9+ToQ4ez6NNZXPrGOySH 70OnPkMpCuUQigCds9DpQfLjFrYTwI/6OKEwTloaadpGCkH3Tl1Js4PEki5+QKFCoLSN9hRSCxAS KWyUUrSec6FdCcpPlowjINZXJp1dci/HrdsXgMSC17Ef/wdi1GGIX17fMuHZNROiauqimNQaPrhZ fpmZzyEAg7KafOPicsp2zdvmAl/8kLVKIBAgHo9j2zaReJRhx+9H8q/3M/DwUhJWlHCmxE/EERkx ijqHSbdcTti/L19/u4bp36zh65qVnHzFGNJf78KUf79AYmE1o4/sRKxnIekZHnmBGjrmdSYkwEKi VJyi4hA99y0iEPDoWprDzHkNxK04AVuhPUjGPULSQyiNtCx86SHDDlJue72JMb2+I78cRzIaS9V8 1dSR09Y1F1+258b/4b/tBGe+qb9WOBxOtXE4ATzb54WPn8J3FVrGsK0AMc/h6FNPQfkxZEISimuO 6F3GqG7dkEmFrk5y8PGDOeT4gbiNcQjbHPevS3DjgnMGDiPWGEctd9HSIh52+ekfryIqNbXKJ6t3 OZf07k3MVegGsLSNRZBgOsQbomgh8dMdPMsmbGusdtvg2E7465/XVw8//DczFRCAbdv4vr++fUKD pQSuimPZErSN8hVCBPjgi88ZPKAP7734NtWr13HpLy7gL7f/BbeqERJJzrvpl0z9ei5VK9Zywc/P 4b57/k63Dl3Yb9AQnn/iWTwPBAI/Q3H1X3/Hqx98xEFDDuDld9+iW14OXbIK+fCVN5HCIZCexlln ncS9d9yF9hU/GftLFtVWctjBQ8hO27amsD1uPMrZU/a/YhPTq6pN02t96b6B6ZX/YTiQMr0Muzb7 KisrRXM3EykltmVjJcDFxRcarWyE1lhpiqgMIEWStESIupooud3y0BGXtFCICB4B28eJuQg7RBSP kNTEsPBrG0hHEpUZVFZX0Tu3kEWJJQTz8gk3hHDDiojbSKZyyAtmgSWocRtRUhBKKoi72DkZRNMs CoPhlWxj72FTPWzYYUgpsSyrpY8WAuq8RuLKxfU9PB1HWR6WcAjEEqxbUkE02Uh142pIxqmqXcPs BV+hk1Gi9RHilmTSrKkELMm3S5Zha8WUr2dQH9C8+s6z1DSsZGFsJYsWriBSUcPC1fNoqKlk3rSZ KEvhZUDUSiCkJhSw8EOSZKZNTCVwEu529fzb40yvgwqPxRLr53LrGiri/NyUhpHdi5EHHQF9+m9w z/7lAVGUnZqR0jaiv9vw/dR4Ms/zsO0Na5WEEC1mmRCCUChEx44dkVLSp08fEokEnTt3xnXdlvEs SikGDRoEQJcuXXBdlyFDUjNgHXHEEYTDYRzHoaCggFgsRk5ODkIIhg4dihCCeDyOEALbtjfoZu95 HoFAYPuqM80sLAaDMb0MBiMoBoMRFIPBCIrBYATFYDCCYjAYQTEYDEZQDAYjKAbDTsS0zBsMBoPB WF8Gg8FgMErFYDAYDEapGAwGg8FglIrBYDAYjFIxGAwGg1EqBoPBYDBKxWAwGAwGo1QMBoPBYJSK wWAwGIxSMRgMBoPBKBWDwWAw7BrMysEGg+EHx3sPf1X16v3TCjY+Xtgja+2Yywa7g47q2WV7w4zU Jer//vO33ZXzqvObjwkp1PFXDFl72IX7dgS45YhnahrWxXLtgORPk87fK9PWTChpMOxBJJOs+d3d NNxxFx5aB4CH0IxCihE3Xs26oYOJnXICA01KfT/+9+fJqz56Yk7npt30+2ZcFL1y0KOdgYVAqLBH 1uob/ndKp20Nb93KhprfHf9CLsBl/ziqsnx4p0IAN+FH1iysre/WL7/TDyVtjadiMOxe9Euv6bU/ +QWBh/8usk88jo6330TH228CEAB3tro2H6C6hkT3Pojq5SjHIWSScIeRADRAl1558RaFsaJx2e9O eL474AEfATHgSCB4xk0HTDvg1F5DsvLDUkihtNLyb5e+XTjqzD6zjv/VkPJgeiC9W7/89Oaw7jnz lbUr51cX9Rvddc5P/3J4v0htouamQ5/KbXp2sOk/AuQBFA8sqrzi0WMLjVIxGAxbpaKCyKFj9PI5 U0Wfk5Zt+315uQQbK2DpMqqHHUTiqy9RHTuQa1L0OxO5ctCjzdur/jzlgpi0RHHzgd+f9ELXps1f A0ubtt8AHnjuzi8GHXBqLwIhO/veqRdQuax+zZO3fBqY+PS8AROfngdAYfes6A0vnRIErC3EIQgc dd+Mi94BuHLQo12B5Ytnri1cPHPtiuKBRV2NUjEYDFukQwfS50wVfb7r/T26k1e5xKTj9+XeqRfE hRShz19YsOyZOz7rPm7YY9z6xmlVOR3TCwC00hLg6qdPvCw9N9i6HaZCCCGAouYDhd2zOl7x6LEA eEk/efX+TziVy+rTXn9geuOYywdnbEe0vOYNgWhXTRRGqRgMBgNwwI/Kuy+cumbe1NcX9bn9uOfz /vjpObVOyM7pO6rL/LkTV/b68zmv9D3gR72+7Te6a3Uy5vHaA9MHBkNW7KqnT+TzFxYsfuZ3n/VM zw66ncpyaxpr4llVyxtsgLQsp/HYywaHtyEKb1856NFKoBEoBigZXFTZc2Bht/aUjqah3mDYRYy7 Ae69f5PD5+F7i7DsZ4H1PY60/iMReX3LfobuC8zZlucMHkjjtIlkmBTfwWgS61Y1LqpbG010KM4O p+cEy9loWIaX9KtWf1u7UlqCzr3ySoQgc0tBtmpT4crHxtR037cwtOyryvkF3bPSmsJvdxhPxWBo t4WcXorgExDnmcTYFSY4wfwuGX3zu2xeX9uOVdCtX37Bd36EINxjQGG77t23Vw1+POTQg/9dXV09 7zvcmtjSSd/3a087/dSK8l5lsysqKpa2cYnb1n3JZDJ22OGHvtXWOaWUX1pW+rrruhVGWg3fkQSI SpMM7Zf0nGDu+OkXMn76hfToX7hXdLbYq5SK67mFrusmts/Y09G1ayvmb+maffv3e+7Qww67bcH8 b/fp0KFDj411Tl1d3UKauiJuEB/XdROJZN5mnqtAlymlXCNahu9o1vYCxpqEMOw1SkUpVTv+vvHT SstKp5aWlXxRVl765WOPPzZj7ry5T5b3Lp/i+379xve8/fbbl5X3Kr0nGo08Pf6+eyeXlZdOKisv e97zvOo2CuXItdde825Zeemk0vKSL0rLS6ft23+fJ2bPnj2p7YIavvpq1vyrrr5qcmlZ6czSstJZ 5b3KJk14bMKbWmu/rXvi8XjFqNGjrLa8lX/+88GrynuVveO6/nHj7x3/47Ly0qeUUo0bxdEfOnTI Qq11dFvT7Ve/+tXNvXv3mgWie799+lbffMvNb258zZy5c2b9+spfP+P7fuMVv/7VS6XlJdPKykuf aEsJffDB+1/16lX+fml56ZTSspIZvXqXPz137txZ5vPes/jzHyBexSpgyVYu7bhBe8pmOP0ktUI3 wMY/055i2K3o78h9942fUlZe+mxxaY8NejV0L+6eU1pe+mFZeWm967k1G9/3/PPPjy0tK1lz1NFH LlBKRTYTvDrrrDM/ueHG6xcrpeKbnNzMfSNHHfi/G2647huttdv6eEVFxYLevctnt3VPfX39/PJe ZQ1a6+jm3rVP316PPvjgg5e2dS4ejydKSosnKaXqNz7X2NhYd+DIAye1dZ/v+8mS0uJv4vH48rbO T5o8aVppWcnaM844fZnnebVtXTN9+vSFZeVlC3r27L6B91RSUiJLSotPLS0r+cj3/UZt2GOIx/VK MvRiMrTewq/DJoKaoftu5Z6W3+CRusGktGF38Z0b6h96+N+W7/uXLF60NNb6+LLFy2qLS3peY1nW m+jUkOANlFiqlmjem2+8NVII0ebzY7GYWrJ0if3kk0/1bNvrF2ltKkg0V1xxZYyNOiAUFRWVZWZl Tf+eyneHKnPP87ZY7SVADBo0+Nunn35mBGyajgB3/+muGELbgaDzXHnvsjbCEOHPPvvsk1GjRh2z JxkyN97G7Ej0hzuZ6a8vgy8msfjLKRRvdOpjUoPr/kTGJt9b9raGv3QZ8sprmdvWuR+dCAeNpK8x pw07i++sVEaMOEC//977l7HhNBKpOjVLnq+1DiDWD+DZoLQUerkQYrOFSigUIpFIhF999ZWvjz/+ hH1/iBmj0DorK6thcwoF4Kwzz1b19Q2Nr7z8SnchRFHrc9FodPGsWbNWjBgx4og97d1+fyv7tPf8 KexJfdU6srbh0vjaxXppYYHovQ3XHrSDopcGRnEY2plS+ec//jW4omJN+KIfX3TqggULVmitVwkh ug8fPrzDkUccOffOP95ZJxAZbVjPIIS3RStdCGva1OkDli1btuiwww/7MiMjwx88eJD11ltvra6t rek+duy4mkt/dunhm4Yt3aYRrm2a/pt5lhBCxGHz9dAC4Qmx+VGtUgi1+VehzfsCgUAQId477oQx vV556VUrHA5vMOGcJS0sy9piOp144on9jz322Kqrr7l68UsvvTTrrLPOzKyurtbvvPOON+434+RP f/qzYZhu4zuF5fOIKk3jxsePP1Wv/uATMdSkkOGHihn8aDDsOZ6KwdDuMYt0GQw7Bk1q9lrfJIXB KBWDwfB9WQwMRau3TFIYfsiY+vYtmZ5aPy+ELtvMgPl2EP8AQkgfGGJyc8uIjWZoOus05j/5CL22 I4gSYA7C2GmGH7gsmTaVLSqVv4g5t13BsufACrW3yKPLfpKg+GcfCmkfvSdFrfdg/cr8BeTs2C9Z DIRtauMAaEDrGRvdP3oL1yu0nsJWpvNpD7z4lMg6+XizcqTBeCq7U++SqiVsZxao0GyhN/Ju5Zvp 4oQdHeboo2HiZ9uqcNVcItaG3XcztmhcJZM1olsgQCcjD7vMoGvcVulsuWeT7z11RKeMhhZjS7Rc 1zRqrukiIUTLeLTmTqTfx+beXEfUbXz/7xxO63fQWm/p/tDO0AFGqRj2Zg6lUXz4XW7cqPorBEah 7Eqd0tDQsEkXf6XUBoW9AALKQyNRwsbHTqkRIRD4SK2QKCylCHg2kaDGlR7pviCIREuoxCUUTifU 6KOVj+uIlmcIIba5QG/ruraOaa03URibu27HOvKbPiMUCq0UQnQxSsVgMPww6wyEQCmFUgopJUJK EsJBKYVWCiE8hJRopbCFRqDQykcpjfJcwgHJilmz+OLZl7F9wegjj6TL6GE00EhUWTh2ANAolRp2 ZlnWVr2I1gpvWwrzjfe11pu9d3sVW2t8P9UJUUrZkm67CqNUDAZDu1EqQgiklC0Fso9EKVDKQwiw tMTzknhCAALbDuALiDk2OpEgP787Ha1cQr5LUW5HAjEXPxQiIgXptiCsZJsKxLIsEokEwWAQrTWe 52HbNrFYjFAoRGNjI5ZlIYQgmUwSCARa4imlbFGGgUBgA49FKYXWGiklUkosy2q5vrnqqlkxbKty aY5zc/jN8Ugmky1htXh7YsdXkRulsjXSukLOAJDODnDqVVPzTBsZqTQosb7ut/U9wk/d12IgadAi VRcsAAVYduq8r0BI0B6ECtlT21V2EQ+R0UbdvFZfE7HO3dKNr79N5+EHswjAcfA+epNcy6LQCMSe hY2LsBVC66YpoMC2QwTCacR9iLuaqGvx9xc+5uWPPyIvQ3P5j47j5P0Hk0g2kEizaaiuZu6Hk3jo 0UcYMGo4q1ev5oQTTuCtt94iOzs15drIkSNZsmQJlZWVdOvWjZdffpkLL7yQmTNnkp6eTlFREe+9 9x4333wz+fn5LUqitVKybXuDdhspJbZtb1Ct1+z1tFYizYpge6rEmp+ttW7xWpo9GCFES1x2ivI3 vb+2qPH/ImZefQWr394BSkVBt+PQb9jozz8EKVv7qojjfoTo/zWsm8L6bqkaCofxyYJ7WTRDIGVq ev/SATbvhpK8NjVBNKn520lRRv3tZ8j0XF66+UieXfMQV3W6DyrDiQED+n0opTx6b8+r7Wyon0TE 2n+DY1tuqI8nq6kxDfW7TvQa6hqERqBFc0O7j8JHCoGf9LFkAKEFghgCiVQSKSQKTVJoPDtEQjjU RmM8+NRHTJjVAGot+5fkcf9Pz6IHAYROkMxQJKSPo2xE3MOiyTNQAsu2UCiUn8QOOyQ8F8t2cBMu jmWTiCcJOQ7JRBIrYOF6PkiBlh7aSnkmlpB4rpeKs7AJBcIoL+Xp0DTzk5IgpACh0IBQILVEILAc C8u2EFKgLZEKXyukFPi+ShUjusm+1Kk5oTTrPZBmj6fZM2mt6DIyMkybym7yuVOF/Pcef9BkRkkJ 1sbh6ZT30vyc1kpFyNRtTbcLAUjdckw2eytSNikqgSVSH6TeQ52U3/+JqZHopi7U//2V3tE46dsS RmEBDZdcxIIWpXJg6reNdpwNeupGB6dt6Y5b/wDA6vb+OZ84BmfEfuzxk7Tqpt6LGgstdKqgloq4 62E5YdxkCDfpYgcDOITBU0jfx7ZdlIihpaAxBveOf5pX359NPFjECQd147yR+/HQ7Q+SKdMYNWoo w0b2JJBMcvnPruXbWd+QJYOU9BxAWjAPhUfSaiA9D3427ud0LStm6pffMPWzOdQsr2D6lEnUra0k Jz2brl2LycnL5aAxBzJkVF/ScwO4TsoLyQ7msnblWj5591NmTZ7PyuUVrFyziliygbyOeQwauj/d e3ZjxEH9WbZgGS/+93msJASwkbagrG8Jo04ZRa+hfcGyUFLj+R7CEihUk0JprswQqM1Nf9hG77ad 4z0aDLuYG6+mzQkXH3uC1dE126ZUinvCH241gzr3VhJOFKFsAr5DwJdIzyKpFSKQQb0b4Pk3PqUm 4lKUnc6o4QPpXpSBVAl0PEHYClOzNsE3U+ZzUPdBlBzdnX7Dijni4BJmfTaboAcy6LCutgEpHEhK hpSMJqM6l4K8MEeccCwdyjsR0x4EoUvXIrQrmTD+ReorG4mTJKcgm3HXXklGmk2y1mPKpzOoqljH e0++wxevfsCPzj6OXqOGorTmkze/4MOXP8RtTBIIOQwfOoC+w8/BDweIac3Mz2axfOFaKr79kMLM XK649NegXRbPX86nH09k4cwVLJn9LCWjunHG+aeTXZCFskCh0EKhm9qPfGGlqjI2msO2rc4A29Dd 2CgVw15JNY0inwxdAiw0yfEDqiBApKqiFAg/VVA6lkXE93HsMP333Yf3PpzK6299zNtPvc61486l f+8SHDJYNn8l//jLIySTNsP3O4hzjz+QriXpyHgSO56gYmkFCb2OLqVFOOlB6iMu1XVx1kaTBDoE 6DyoCz327Ypnu2gB0rN54A//5LO3P6NrTmdOu/wsRowZjK88BD64MPjoASz/too7b7ubdz+ewvyV i/hjv7toaEwy4ZkXqVtTT7/e5fx87EV0KM4mQYKElASCIQ48rD+fvTWVCeMfwW1I4sp6fnr1+ZQe VMqBZ47k6X89x5OPPMnHcz4kPZzJuT85E0sKPOUjLI3yNVpbTbUZEq29FmUCtDT+N7fTaK1bOhUY T8VgMPwgCMaDWDJA0lVE3QTS9lDaQwiB5Xv075SJ1a+Y6f94nYSO8fDtD/OzSy8g5KTx1H9ep2K1 JpTu0rU4k3DHGFVenAwZwlMB4lGJi0ZLn5gVg0KHdVlJFjuCBpnJMhvy0nykjuF4EuKSNcvW0lgd YW2yilBAQNJFBnzixPDCAfykJJGXxuyqdaxKWMh1SVYnFHErwHI7yNpQkO69OlPfMwyZtQTcBDIm sNxcRNAmIKNEK9eRaHRZunQRbsijVtQTKHRIpmkqvUaU67GuIYZvg49CiJS3orTCc30810UrsAIb tqk0dxpobk/xvJTScRzHeCq7Bw3aT/2+dzgKlEIotWGnLKUQqvk5qpX7mjqmFWi1/gatUl6ur1Od xtCkwtQKjU65xWgwXTAM7RSJje8rFB6WY+EpP1Wz4yuCto9lJRnWvxsP/t81/OfRZ6iurOGhex7H VzZlffsxYnhnTjj7UPK7homrGNqy8V2b3LyOHHXsISgUXbvlEY36RElyxmUn03n4KiI6h8+XNNAQ zKJvSSa5UpBpO1x4zsW87D2LW13DO/9+iapvVzL6pMNQBdmsTWjmLVvD3K9XIbI60rnAZnCXMnLS MqhyHI648CIiOORlWyTCDkLFsEUAO2DjSRvHExQE8+jVrQ8BQvTo1BUd1wRCNiQtykv6cO5pF+Hq BP36DED6FlgOrvLBAi2BQErc3aSPqzSWtAik1mRqqhETSGyE1VyW+DutX6hRKlvhb9lZTPaLsGWg zfNK+5zZ826urOtPtb9+Ta0iG6Z+8zb2E/9C23ZKcRyYD7+67Asx7taN1/4VSU8tvv6ZxJDpSxKy ucexUjC83OHWU9M+HH0W/VtpG0YR5NaTWw06PvBNAE4GTu56cepYFwRweDtO/ryt9Moy7KW4eCDA 1x5SSCwkUoZRKHwFPi62o+m8TyGX3nwR993xAJO/mk44nE7nXvlc/ovLwIHaeDVKeISVg8ZChFw8 ex22YyFkEDcWwcWnS8cwRxzah2lz1lC5ro6pM2uYNksR0B55doCDBw7irOvO4/Vnn2PZrLW898Yc HnpqIivcGF5BNqOPP45QIEiaU0BhXpjuWZ0JaoUIxBGhRvykQAbC2L4iqDws5aGFxJMeTlwj/Dih dIhG6oh5GaDj4MZwLJo6H0TQMomd5iOC4HtJ7EDKqAxYFr7vIoQgFLbRvofykkhSSkVIAUojJAQc B8sJ4KkgWsidoliMUtkKSRUj5jcQUG13Kfbx8LRLra+p8Nc3htlSot0kxCJgNTWgJeM0uSgFbTgy SxKuJhL3W4axaA0JtyXMfJMbhh9M/UBTI7IQYoMBgc3bWmuU1tSHIoigZNz433DG4pWEAmEKi/IJ pNkoO0G6CoC0UUKilKawvJDRuaPRWpGZYSOkIs0JoZRFfmaQrgO7Egr3Iu77+FrhK4HQPrkZ6Vg6 k4uu/jm+5xGvi9EYacRNKtJzsrCz0ginObinlEN9hAwhkfmStECAjAFlKBkgJ2SRozVpXjoWGnDw /CDajrPPgQPovk9fXN+FsEXUAQJhkloy5Ij96L3fPijtkZ2TSVwnUuNbfI2tHXxPESKMlBZCayyS YGmkkKBB+QoPjeeD6ws8KZF4CBQ7Y05Do1QMuxzPo83JApfMJRNo3MZgxObCMWyhWkliS8keP+V2 6wGAnudt0FOp9WA+betUf9qAT/deHZvGbPgkhYfQqfEsGoFWDq5r0Rh1mb14CVII+vYqxtKCia99 yMpFq3GCNh275HH0UUeRXFvLi0//jzUrVhASQWwkSiXp3KEzB59/HIUlXVk892vmTJuFFJIuxV05 +PCDqK+p4uXnn6W+ci3FPffluBNOQa+q4L2336d2XS3SVwSQxNwkwUAw1SaSDQcceShDRg9nZWWE +QsX0bdXL9LT0lmwcAELl6xAWhbFBQXsG+7L/PlLmfbFl0RqG7EQqYZ6IcjL78hBh4wg5Ni89+Y7 fDtvPhoFSpNTVMCYH51MXvfOzFu0gHlr1nLeMQeSGQ4apWJo/9g2GSYVDFv+Rmx8328ZAb7xrMHN +4G4RCuNr+OoptphLQAl0E0jJzWKQCgOOkQ4I0S/Qb3xtEsgaBEWNkcdcyj1a2JY6TZOvoXlWHTJ 7spFl51PbUUdDhbCAiUVoVCQ9E5FYAsOGL4ffUv6oYUgqzANGbTplJnOuRf8HK8xip2dhR2SlGR2 4dz840jEXOIJjRVOp6aunsyMNMIhi6CUZHXNIRZQdOmejZNZSpYIY3mCfbqX0rGwAGVrcp0QAdun uEdnuhWOgaSH76UGqCgpiXpJcjrk4AQtjjnlWCLVByB9jXQsAo5Den4uCVuxz74l5JV1xXGcnZN3 5vM1GAx7njfrbTC2YuOBe80/X/jE3VhqX0osS+J7Pp7vgQbHCaKVwgmE0QhcL0qm7RMMBamrrUGH wriWR27PIIuXLiE3LZecrI7URaoRWZCRHibpuuTk5BCNx8jMzKSubi2JxhgdO3QkI/T/7N13mFxX efjx7zm3TN2+q91VXa2abckqtmS5F1zABgw2xIlNIMa05AcE00MCpoSSAAYTkgAhiU1i3ACDKcF0 V2TLtmzZ6l2rulptn3rLOb8/RrNeSStbNi6S9X6eZ57dvTNz5+6Zmfve95x736Po7e1DZzwsIcVy mTBRJNuQwagQtEPvwACNnY1QKBDmC4RRninTx1HIF0mlk2iryFOgf2c/2doaGq0lP7SLTDpN0nVo SVpiE5Mf3INfU4Pv+mSafFw3NVLXKzYx9SaJ61qCII9ba2huaMTEMVprojjGuCV8rVHKYWpK471I 02PINHXPwlqDIcbYZ7rtm5fBPn2rnHFhIY7BxJWf+53ZdbDY2MogZPVWPbtLiGPM6MwkiiKCIDho nhBrLdrVuL6Hn0ygncrOU2mF51XOrkJZXM9FKQcTG9atWUNYLlfOIvMSuI7L9u3b6N7bTSqdpDZb g1aKKAyw1pDL50gkfLZt34brOOSGh9nWtY1du7vpHxxkx65dlMOAcrmMozWlUgmlKtUtojBk184d bN+5g1yxgJdMkKnJMDg0QBCU8RMufsLHTydAK0qlMqVCCWVh27atFEsFgjAgKJco5HKE5TJaKVzP QTkKNMQ2JoxDjDXEcUwYBiN1xgwWx/cITYxVPF3N2Rhc7Ujtr5fJCmPjvH2Wc3MVDmOFCxdbOYVr 3yxASmuL0vXAcWOsZm1sbL894NBBgXW0qgVOkLdDHCvHcvl8/pHR3V2jM5TRxRLh4HlWqoP6o+dF qT6ueo2G53kj3WujB/8TicS+03AtQRAAkEgkCMNwpEtudGAzxuD7/sjy6uuOrjBcXV696HD0mJDW emQbRlcurhaaHB1YqxcsWmsPKk5ZfX512w58jWqV5Op2OY6D53lT4YUvkipBRQghhHR/CSGEkKAi hBBCgooQFM5iOwAAIABJREFUQgghQUUIIYQEFSGEEBJUhBBCSFARQgghJKgIIYQ4osjFj0IIISRT EUIIIUFFCCGEBBUhhBBCgooQQggJKkIIISSoCCGEkKAihBBCSFARQgghQUUIIYQEFSGEEEKCihBC CAkqQgghJKgIIYSQoCKEEEJIUBFCCCFBRQghhAQVIYQQQoKKEEIICSpCCCEkqAghhJCgIoQQQkhQ EUIIIUFFCCHEK4krTSCEONaY2A6b2JRHFiilXE83/anrtcYW+nfnB/p25fz2zvow05Bsr95XHAoG fnL9I3v9pMPlH188TWmlJKgIIcTRH1AKHz/9+4koiGtGL3c8Hc67oGPPFf9waiaR8eqf63ofvGNt 14+/urQ9Ds346rLG8dmBf/jp5Y52VM1T93QNL/3phukAl35oEV7CkUxFCPGSiHJ5doxekE4xTmtS 0jQvRFAxhSiIm/f9uRvoB46PQ+Mt++WmCeuX7sp/7jdXlFEkDnedGx7d3ffDLz00GaBtWv3OKSe2 DKy8d1t7385cQ66/tK62OVUz69Tx2SknNm/SjraupzsByVSEEC+uf/kWG9ZtIPq3/2AG1n53307v fZddqnbOOQHz6U8wzXFkLPQF9Pkbnrj6366df5MD/A3wzeHeYmbz8j0DU+ePO+yg8tv/fqoPaGya kO3+2B2XjlNajQds96aBwZrG5BSAunHphmv/57UNr/QGlaAixBFgaJitU2cTnL6Y4Ic3M/VrXyL2 PPUupdBhSGgstffcx+Pt04nu/gm5k+axSFrthXPDE1fH186/6e7q3307c/VT548DwBob/ue1v9++ /pHdE8Jy5DmujpNZn+v+702Rn3STAMO9RQ8gKEYeTw+VqNbO+rrqH92bBzd+/a2/mISFL9z7F67j an3X9Y+uWnLnuunv/tfzB9c9tGv49/+zcmJYivxEyg3e+k/nbJx99sTjj7a2lCMeIV5GUUQw71S7 YcrxjOvtYsbPfsDsRIK07+MrhQMoz8NP+PivvoDFezZz/Ge/SObSPye2llha8IVx7fybFPDq6t/T F7b1VH//xFm3BKvu3z41LEW9WL4fh2Zzvr/kfvy07yerj5l3/pQYYLiv1Ph3Z3w/3Lm+vwdLNPo1 4sjE5XzolwuhX11WKoS2XAj9b15zd92v/mN5Z1iK8kBYLkb+f37gd8f3dA1tlaAihDgsYUjx8qvY /YH3qqh7M8HhPu8ntzE9k7Z73vO39ueAkZb8k3zi2vk3PQHsAf4V4Ly3zd5SNy7dAlAYDDaXC1EG GASm3vDE1W+94YmrZwLdAN2bBpcBXPjOuW0NbZnivmwl9ZUrftry0VNvZtvq3sHD3A4f+NANT1zd CEysLvzVd5ZnJKgIIQ6HvfiNdu373oO55q0c53vUHe4TlcK/9UbVnvCZ9b4PU7SWUJrzeZsAzAOa Ac6+6oQHLv3gwo7qnT/44pJq0O4FLrh2/k2vvXb+Ta8F8gD33rIqCaC0Sl/3yzd7F717Xo+fdAOA KIjdr13187q1S3buOoztWH/DE1d/HeCGJ67eA2wA2LW+/6h7byWoCPEy2LiZtVu30XjR+U8flT5X X/+ymry3F/MfN7JSWvT5+YtPn7HySw9ctXPOOZN2Ajz4gzWLB/cU+qr3b3myZ9q+XzuBn4+6dQJk G5KjM0z34r+Z3/JPf3xLdPnHTumuLrzznx/2n8em/R6gmAuOunFvGagX4mUwbSrHrX/yTzuj1HVI 33YTAPOlRZ+fVK3vJzPe+L/68jnBRxffTBwa785/frj89uvPA8BPOiUg2dZZP/zX376wcODz61rS s8fIJNNnXXl8+tFfbNzStbK3o29XPvs8Nu14gFSNH0mmIoQQR9vRte/4r/nr+WsBnvx9V3t+oNwL cP7b5z4FkBsoUdeSbj3wBnhA/OOvLN0F+4+L5frLmUrgSQ0fxiZMvXb+TTMArp1/UxI4C6B9eoMn QUUIIY5Cp795Zmv19wduWz0AsOh1nQsAcn2lms9d8sOhJ3/X9dCq+7c/9IPPL1nzD+feVrbWYmJb uu+W1e0fXXyz+uxrfmBu+8yDaz594R1h385cC8AZVxxXPJy4Bqy6dv5NS4GRMZiL/2Z+/qgL0PJR Ei+l+x5k9e0/wh6L//u/f5cTDlhUAH4K9jRQU0Ytj4G7gdFHuBcCh1Wb6s/fxOqmxoPbOJ3CfOUL zDnmP4RKaaWw1qL0qPpbNU2p+hmL2javf2T31Lu/s3zaRe+ZX1ZaJT7588s3f+XPfza+f1e+9saP /OHU6uOTWb+kUCiHzCmXTt+w7O7NUwa6C/rhuzYcB+AlneC17ztp2zlvOWEagHb0Ifs7G8dnu72E 43VvHlwEoLSyb/jgwu1NE2umHHXNa621CCFe/C9bzUGLtpFTk0nH30frq0YtL1IO5hEm1o8sydol wKmH8zpDu9hck2WqtPgLKwrNjq4Ve3vStb4e11E3UTuq8aC231tcvXfbcLmtsy6drkvMfLZ13v6P S1Y+dOe62a2dddv/7kdvnFgYLG/Ys2UoN2Vuyyyljs6yPJKpCCHE4ewsPT2hc8G4Cc/0mNrm1PG1 zc8/FqTrEtM75rUc1e0kYypCHJ0M2J8Aa6QphGQqL47YGFPQWte8COu21tohQCulap7Dk/JKKRfG rHYaVHYMJOVjKJ7HJzIijj6M610LHCcNcnQ67bIZDU0Tsl1tnfXeK+V/esVkKvl8fsuZZ535x+d3 xPfMX98VK1ZsnHXcjJ3ve//7lh/i+WOu4ytf/fLyxx57dMNY9913332PvfOd7/y9fK3E86KUi+v9 PXCmNMbRa/Kc5vEXXHPi5DnnTmqXoHKEiaIoiKJw/HN93vv/9v23fOtb37rsUPeHYbj3ssvfmLj7 l7/Off1rXz9o4O2mm266/5vf/Jfbxnrut7/znd25XH7Mon/9/X0mn8+Pl6+V+BO+u+8AFkhTiCPJ K2qg/vlMznn9V68/x/O8K54hA9qrlEpNnTp1tlIqfeD9V1555VSt9djlqRVWHWqjlLJKIWfeCSEk qIwWx3EhCIJAKaV83/e11iljTEkppZVSB9a8sWEYFjzPSwCuMaYYBEHo+76ntR7rlAlrjCmVy+Ug DMMglUqlPM9LP0OGZQEbRVF+eHh4KJVKZRKJRGqM7Xi6AVy3WSk11ryepqura/3KVSv3AtNXrFix etKkSS319fWTD3y+1vq5zAtqCoXCwKZNm8zg0BC9vXu7Ghubxu8bexmdeeVc100B2hhTeqZ2stYG QRCU+vv7e5uamlqepY3Ey+TTn2D9jf/L7q7tlauln8G3gIFn+xx94P+xvr7u4Pc5maBeWlscjUHF PvTQkof/8m1vHbDWtCiUXbhwofPp6z6955Of/NTSzVs2r1r22LJbD3hOefacE/5wx+0/2JtMJlsv vfR1JWPttM997h/XX3XlVW868AVWrFix5rLL37jOGjvBKmsUis9+9nPqqiuvmqOUOmjnWi4H5mc/ +9nSD37ogyHYrLU4SvHEssceP6e2tnbyWP/EW/7yqptNbP/r9ttvf+iAHXXx3Fed+0dH6TkoGi6/ /LLVH/nIR3a+5z1/vd96brrpxkd37Nix9rrrPv2uw4ooxgzOmz93uTFmJpBcfOriJ5c99riura2d OOq1o+NnH/fr5Y8/uairqyv3+ktft85a03Hnj34yPHfu3P360AuFwp4rr/qLh1auWDkFRQTsOe+8 8x779re+85eO49TKR/zI8Zm/Z0bfXm755nefJajk1Ief/dtno3/6rKpNJmmXlhWviKDyq1/d/bsP fOBvG62Jbwb1B2ON+8gjj5x36RsuvcZac1oqk942xhE1wKTL33z5Lx2t/vYjH/7o2quvfvs43/en H7jvfeqpJ1e+/Zqrc5/65HXxlVdeORmFXrp06b03f//m1ksuvnhrQ0Pjcfv3JimVz+enf/6Ln1/x /Zu/XzrppJNmxXEcfPkr/zz5He98x+7bbr2tyXGcg+YmKJXKDSY2qYN7p1R64/qNV+zZs2f9WWef uXv16jUnaq0P2kn39PS4pVLxsOc80FrXrVm9du5tt9+2+ic//nH21ltvm+u6bt0B7WSxTLjjjtuX /ss3/2XWRz/2MXX1265u9TxvvzGdwcHBre981zsHVq5c+ZSx5iMKnTcmnnrPH+657nOf++yGz372 c3OozNMgjkyNZO13sXbxc36mUu57P0SUzXJQWfWvfB7X92mR5hVHTVAxxgx+/O8+3hTG4ds3bdwy +oyo703t7HA8z/tXDLceorss0kp9+ns3/W/P6aef/rqxumn6+vp2X/WWq9QfH1wyraam5rTq8jNO P+NNZ5x+RhkYs7spkUiUH7jvgeM8z6sH8DyP6z716bZLXnvxr5csWbLqzDPPHGsK1kONeyilVMbz PA+wWuuMUuqgU4OVfs69TNpxnKaamhrleZ51XbfpEG2c/eIXv3D2D374o555c+eN1U7xVW+5smvd unV/KOTzX9i1q7tazG5nZ+fUt91y6/f/Z/HixQ9ecslrz5OP+RErA7zzeQ0Ggv7v/2XSWHd8/jo2 S1ARL5fn1e9+zz337M7lc48USqWnDgoakbk5iqL7QR0qYGnXdR44/fTTZx/q9b/xjRu2LVq4cLCm pmbcWLFjrGBorbXpdGpnNaCM4lz/1a+13HjTjXV/Ylu9oIPqH/zgtb96lozGu+DCC7fOmzvvhLHa qbevt2/d+nVuGIW/SiS8jo6OiTOrN2PCujgyt3z1a9drY0xRPuZHjuu/zIdWPsKw1mN+nk7ZdxPi 2MpUli17tMEau3n39t0HXZ/R1dUVTO3seFQ5qLEP07Xzgzt+9Iyn0t57731t1133qf7n3iMw9hGf 4zoqDMOjauBaKZX/2Ec/fsh5GPr7+rVCdfi+9y+gxtpB6R3btq0CFh5J/9cDS1jzw5/IWW/WjnnB 4vsByI7ZPNMOd93/71rKTU2sPnB5OoX54meYLbs9ccQFlclTOoatteMymZTK54v7fQPGjx+vtFId NrZbx9xZomhsbHzGq8hnzprRv3nLlhc6CBxVOzILYWNj4yGzq2QyaYwxy9etXX/uoc5uU0otANSR 9H8tf9J6t/1QTTuavzT5PHEuz2Gd8ee6RE2NB3/Pxo3dOfXWF2L7fvOHsa+w75hou/mMQogjLqhc cvFr3euu+9SpjY2N6Xx+x371/v2kO187zoVYnuFqcfuMV7F/+EMfUde84+2Jd1zzjpDKJDjH6NHs oePg+PHj05lMtv6BBx544uyzz158QPCIljy05I8L5i+YlEwmj6hqte99j5r23vcc3e/Lt/+T7X/z QQ6rJPn8Oax65H7mHiH5b6vs8sSL7XllA9lsZsqfX/HnYSKZuqlz2tQJABOmTtAd0zomea7/ZWNs +KdcJTFjxowTZs06bsNb3nrV0kKh0MO+MijGmPzq1avXlUqlnUd7w3/t+q+/OjbG4dnLxIz9xmmd uf766/U73/WO1NatWzcBYbWNfv2bX6+99oPXdhSLxa3yERdCHPGZCsCnP/2ZeShW3HLLLbd3Tpu6 Rinl1dXVzbr66qt7fvjDH/1ocOgQ124pys8wiF/dYXrf/Y/vnv2Nb9ywZt6Ceasuv+yytO/59rbb bx9YtHBh7U03fe+gU3uVUiilg7FfUqEPMT+O1srE5hkzJ6WUCjhEN5JSyiqlzdivW7kYc6z7Zs+Z 7Tz++LLsz3/x8wdf99rXnXXweimrZzkr6PxXnT/v9ttu33j5my/bc9KCk/va29rMrbfd2tva1lZ3 14/vSjQ0NJwrH/EX3rveTsPb3sJBBzZr1tJ38llMBLn4UBy7/uRJugYHB3c/+eRy33U9O2fOnLim pmZcPp/vdhzHTyaTDQc83Kxbv65/Wuc033Gcw6n2a4aHh3ueeupJNwhCPW3atOLEiRMblVIHjckY Y/Jd27qGOqZ0HHQxWBAEfT09PeUJEya0j7X92Wy23nGcMcd5jDG5lStXlE88cW7DWJldf3//7mQy 6adSqYMm7Onp6dmZyWSS6XS6cYxV2+3bt+82xqjJkye3HXjf1q6tuyZNnFSvtU4/WyOFYdi/atXK sLe31+/snFbs6OhoQebKecl1dbFlymxbC09P3rRwPk8eOd1fQhwFQUWIY823/5OthzumIkFFHGuk PpQQQggJKkIcYQKgDHINjpCgIoT4011BHJ0Ptl+aQhzLZDBXiBfGRJTOAI40hZCgIsQx7PP/zK5c fv/rhT71cbKZDM+lXty/oiXxF0KCyqENAishzDzP6xNfVhYN1l2vlHqjvM/P7Bvfon1v7/7Lrn0v ezIZaRshJKi8cEJgMo9/ZCLl3qMupCgvgznhHx9XqVYjb6UQQoLKkWJ4A5S6j7KYYiGRBRsecQHl 0WWsXHS27eGFHntQ6qzDfKTB2nVAz6jnnsoBNebapzNuVHtuBzYfsJ6uw/p/HweV5f4joe3b2mDX hsNuJyEkqLw4NEfdSXLKHrHbvPAkZpthFb/g79LhT5wcYOPPE6s7RpZ4zk6g+VBPmH+ieXDZH503 y3dBCAkq4kiMeeplP0MqouyGTweVZ760RCvsEbDNx5KitfZZDzxGV8azBy2pLFXV+0bV0avMPmT3 La/cr1CVDJ+n52X6U4uNqOc3o+dBr/tc1mPH+B8O8XwNpF+MN0+Cinil6gceGDNTgWetcn3e2ZSz WRIA73+3XiDN+dIJgmB5qVQ69cCdZaVobGUHaYzBNREuBqM8IuVicLFKYbFoa3CswVGWotGU0y5W K2oDSzofo21MwbcMJSF2NJlI4xqDAvS+s/gOFVTGWj7Wjvtwlo21LmvtQf/v4TLG7Pc8a+3I/zOa 4zibfd9/UabFkKAiXqnWklOXPt8n3/LfDLa1VsdV1CxpzpdfdYc5suNFEVuFsQqjwGBRCtS+4uDW GoyNqQkcklFEmHaITIjRoFxNpAzaKDLaJzlcppxUWK2I43jkdZ5vsDhUADHGHPSYw13f4TgwgDzf 9UhQEUK84o3eKSulMMrBorF2XyajLcbEWGtwsVgbE9sIXQrwtcVJpsgP9FMuxGhHk2hpIAwjTKxw laaExY5av34O1x0dblfZWDv5F7Kmr1JqJNOpBplDZUMSVIQQx6zqEX01qGitsUBkFcZYIEYrhcWg dWXAQFmLNYo45aIx5Pt6uf+un7J72WpmzJzJKZe/nkR7E0UTknM8lNZY8+xdTwfukA+1gz7cDOSZ dvDPtQusGlCqWd3oACNBRQghDrGDVUoRG4jiSnYCFm0r2YkCjLKVbjBjwdXEUUihUKC0vYeaPcOE tgtv7zBhSz1l3yFMOmTDyvhDtfurulOuBrPq3wfusJWqdJlVs4Lqz8MZPzlUkKmuR2v9nIOKMWa/ sZXqtr5UJKgIIY6qwAKV8RWUg9IKZQ3WGtS+LCUMQ3BcQON6LsPWoxhDTWM7M048mS3bBpm66BTc 2lpix8H3fIIoxtUu1lp83wcYCRSu6xIEAVEU4Xke1locxyEIgpFtKZfLeJ5HFEUYY0bWMXp7lVK4 rjuy4x8doKoBxHGc/QLW6MD1XALv6Nf1PI9yuYwxBsdxDhnMJKi8ZA45I/ARvMlH4TYL8Rw5GrRS oBVQOaJX2iM2Bi+RIrKAlyQcctjeu5fdAznmnH4GF5x+Or4NKNclyYcBe7q207tlD2tTgFLU1dVR LBaZPn06q1atorOzky1btnDCCSewfv16HMehubmZMAzp6+sjiiLiOCabzTJhwoSRbOdQ3WijA0r1 99HB5MDnPJegMvr51ewkiiLK5fJIMAnDcCS4SFB5OdQeB4lxL9DKIjjUmxlVjrwO/pREoEcFCEUl pa+c5rIvdmjQGuIYcMAa8JOgvGP5nZtL1i4fY3mAiT5Fwbv7mZ58wespp1NsAvibd9gtb3+bepV8 GY6wYycTgzUoa1GqcrWJNTHJZBonmaRYjCmHhs25Mn//rZ/S3b+dM+ZM5bqrr6ItXUNJlTHWYXBo mF/e+WOKWYfunj1cdNFFaK254YYbOPXUU2lra2Pp0qX09PTQ1dXFpk2baGtr47TTTuOWW25h4cKF dHV1MXPmTCZNmoQxhmQySRzHY2YRo7u0RnetHSrrcBznOXdfVbvgqsHL9/2Rvz3Pk6Dysmo+FaLS C/ANiLGpU2D5SjjgtEJcBzV/FuSfOPBbQ6n2PLZtyGLN00lITYfiwa2VD2xTreZstQFn8wbikxfx oF5Oe2Ii9cXx1Ot6/GP3nUvDmNP4luDZqw+vXM2k6u9xaJa+/W1y7eMR1xVmLRqD2jcwbxXEFmKg kC+i/BSxgR/c/yRrSxqbrKGnaEgkkyhjcTxDIS7TMKGNT3zxszy1cQ2Dg4NMnz4dYwz19fV0dHTQ 2trKggULaGtro66ujtbWVs4//3ziOOaaa66htrYW3/dJpVIjXWXVIFDNRA7sCjswIxkdcKIoGhlT cRznOZ2FNjogjQ5EnueNZEbPJ0hJUHkhrf82BAN/+nriIrR9CXvjd8FE+3dV+UnU318DO27Yv9fK BOSmncSjd7cQBZWoYmLoeIPLl34+hFKKE6elOE09gv7x9wmv+xK3eP/NmQ0XMWvnOZyQbcRPJOQ9 FEdXsEChrNp3ISNYZbDEoCrXnijrgNEoXRmgx2gUGgVEGIyKsdoj0rD08bX8Ztlm8sajta6O153/ KmocD7dkMERkUymy49PYnGHhnJMBRRzG+J5PZ3snYIhVzDlnnkVsoXPqTBwgDmNcx6XhuAY83yMI A4xVxKHB9RxKYQHX8QBLFIYQK3wngatdojCunFygK19/q0G7EJsYx7XYwKKsQjkK7etKz4TnYKie BBCDUpW2UJUKAYpKVLWjgtfo7rTqyQfVgCJjKi/rJ9wBpV+g9ahKR/CBdbmcfX8f+DqqOqj2dJUJ rSupvqMrHySt9j3Aqaxfo9GVr+UR2Zw/+yXdt9xB68u4CR7a+Vuy9o2jltU843HFZn3alW9/BaRu KcL/+neOgj5RhbYOMQ6xgliHWKcMNiKMyqSoxYYebkphlcGNM+jYAyJcXSCgjPV9ugfy3HrXH9m2 oUwyZTl1Si3p3Xu563+eYmJLK6eetZBaB7Zs2cRN372TYm8/dZl66jONqEgR6oBkjeb1V72O9o6J RBbC0GHH+m08vnQZa59aRVgMaGptYvEpizlx8Xzc2gQlNUiixsVGBlMOSXsOnsoQDFoef3g5yx5+ gp6+bpyEZtEpi5m9eAFNbXUkfJdlTzzG0t88jFN2aWpt5PQLTmdCx3iM7xCaGKs0VlmstpjY4CqF Yys95JVAPHZX2IFZzItJgop4SbWOY+/UDnYcuHzJQ9Td8wCdcHjR8F1X80Rz89MT3XziI89pp5UE Zo7u7Xq2nRzQe7S3fTqJBU4+8rfUEutopCaXYy1YhzCKAR+VyJIrxZRCg+f6RDHYsIhHjHUDwGJK ETs39LBq6VPYcgMpneCiMy5k74oV9K3rYbA55vgFBWrQ7Nq8m//70d1kQ0tryyQmts3CxIrYKWP8 IYxjefe172Wgb4D773+KLU9tYdumDaxYtoyMlySTrGXXmiGeXLqesy5dROfMCUSliNh1SegUNoIn HlzF0nufYNPa7WzfsYs9fbvxMw7dPSXWbejhhPmzmDGzjZ9/79f0bt+Dbz00ipUPr+CMi87gpIsX 0tjaQjkIcTxNGAa4jqbatWE59DfnwKv4ARlTEa8cp5zM7FPG2K3degdb7rkfw2EWbvzal6jPZumQ Fn3liXVM6AY4xqKNh45BKRdMTKyTbN+b49Hlm0mnHU6eO5MaP4E1MZ6niIMYTzkUcgF7N+6miTSF cIg3nnYur5oznjsfeRRPJ8gVywwM5KhJNGBKDn4pRcZ10YFDZGIKJkInFH6mlhnHLWBwT8SPb/kt /XuHiYIAz0ng+wnCYoB2wI99dqzezi979vJnV7+BCXM7KIcG1zo8ft8T/N+tvyI/WEbjknBTBBb8 VBY3VUuYtyx/YDWFHQUm102juL1MUCziuB6l3oh7f/QAuWKJi9/yGpJJnziK93VzVcvJaOxIcZqD Y4t+iWcklaAihDjCer8sRkVoXBxrcI3CBAasg/aS7B3ay9buPjAxyWQtC06YQm0mBeEwrnJx8OnZ uptM5PFnF11CWYe86c8W4+djkgb6ophEooZkMgXKoammlQWzT8cPB5g9fy5nvOYcogTEniGR9uns nMSSPzxBqa+AH2lsQnHq2Yt42zsuIxoOyPWWuPc3D2Aiy56de3jgV/fzpnGtJNuz7Nywl2UPPklx sEzSS5CtS3PWxWcwbnozw7Gip7ufTU9twolh0/ouTj7xRM599WIKfUUeuG8JG9etR8c+jz/0OOOn tXHqOYvREfieojKiZAGDVW4lnIxR3DkMw4ObWMZUxDFqI5XJseYBLdIcx0pQqZzJZSuTYqMsuNrB Og6hVUSRIbLgkWTrpm46xjVR257BGvB0kvxgiW0btuOEWcY3NtA5q5W2rE95qIRrFMpoSuWAMIrw 0gmCyJJO15HQmrYp7Ry3aDpkFKGNUK5i745Bnlr+JOV8nrpMHQvOnssZZy/AdS2+cbFlRWNrE3fe /hOUcVi9eh2b1m1mUt00Hlu2nNVrN5JJJGlpa+ENb34NUxZMokRA5CcYHAzwtcO6ZWvAumzd1sVJ 551Pzck1TJo9mZ/e/nMeX7KcqLfIIw8u5aRFC3ATCjehwakM7j/dAaZR6ukuserAvOM4+1UBeLGz Fy2fYHEE+x45dSGwRJriGGLBQeGgsMZirMGYGIXFdSwT2lppa25g3Yr13HXrz7nlxjsoDuZJeVlM 6PHrn97LXXf8jM3r19OQdThuWhMprfFsRH9PP5s3bqGvvx/tKJSrKAQB23bvYUP3LnrKg0RuTFmV iRMhERF9/X08/NASVi5/HBOVmHvKLBINDlEippQoEmUjpi2cyvSFx/Pwmif43UN/5IFHHgbXpXd4 kC1V4r7lAAAgAElEQVTde9gx2Mek2VMZf0I7kVumTBmjQxpaPE4+ey5lW+C++//AvX+8h909PcTa kJmYYeGFixgMh1m67DEeW7qc0lAJrR3iyBBFIcbEI6cKV/q/7H4XVlZPXx59CnM10EimIoQ4Jmij 8KwHRlEsBWBClLaUSwFl65Hw6mnJePRu3kb/5t08MdjL5rNPJX1cJ5vX7ub/fnIf4LBpwxoufePZ xHqYiARRHNG/d5CgFDHQP0ghLlGMy+Qo0V3OYbyYHeUCxWSMmwiwhLgk2bunm907d6Hzlp6ebvyU S76UR3kxkVspWmnrHPriAhu6d+PGlnU7d1MgZkvPXnqikHxcZDAVM5wsEMeVywF8A5FxSdbBcK6X wf69FMsD7OjdRbNuISCilAjpGtjJYFBg1+69FApl6lQNRllcVxObmCg2mAhCA9oxI5lKNaC4rjsy WB9F0UjXl+e9OCcCSqYihDiyer+sxgk9HOOilMY4GvzKtRw1SU3WMSycMZmTJ3dQUwavEPLI7x6j 0F/gsQdXkkw0Y0kwaepEso0phimRsyXwPDI1jWA90pkMXkrj1Lik2mqJal2G0/XkU3Xk0JQVGGsh grSXxdcplHXx/SRebEkpD2UssbUE1lKKNTaRIfYyRG4t1qun7Lj4Le0Ua2oImxrJzpxCMetCjQOu RUcxCRx0HOHHkDAeXuyQTiRwkhqdtGQaMmRr6kEn8FJpdNInUpXXjeKY2BjiOCaMQoJSeaRGWbUG WfXn6KvroygaqVsmmYoQ4pWfqViNjjSx1WjXwyhDqAKMjjFxEQ+Xes/jrW+4lLhrmOFCD9vXdfGL 2++ltzdmfGsnTsrwmtefQVNrDb0UGCwVUUXFzFmzaaibgd9k8BIOw+UhGiY2cvZrz6c3qKW5s4XB AJJpF2yMo3xqUg1M7zyBuBjhuGk2LN/InFOOx1iLTrq4rs9gX4kt2/bQPK4D33okUvVY32HWgoW8 xmsn1BHeuFbyXqWgRlIpPO3hex4JHCY1T6A4qYybdnCMSxxbImvReJx52tlMaJ/MhM52UulkpbZZ 2iOIw8olaq5TOYnBAk6M1pXCldVsZWRnv6+Y5eiimZKpvCziyhkVL8jNouIYZcxBN7BjPL5y5b01 ar8btlL2Ozb7Kr5Yi9rX52yIsZhRM3ALcXSxyhJrQ0SAZV/1iVijjY+JHbyEh5OwTJqe5uTF08gk NUE+4Jd3/Yb+nm6yaYdTTp3NjOMnUybAiS0NyTrSfg3pbIK6RoearIbQISw7JLNpOue10tTZSm85 5J7HtrJut8OwSTEcKiZMHs/iBQsYl3AJd+3iwR/9nk2PbCZBloFSio2DIX9Yt4NeKpfGN+LTkWkk NobId/Ham8lOGk/sOCRiTTrSJB2f0FEUgxgXB2UdvESaVKaWhJfCiSGhPRJugkw6y8T2idQma7GB wlc+UdmirIuxmshaIhVTIqAQhuTDiEI5pBxEhKEhjiwmrlTjAAcTW2wcSabycinM+yI2Cg8dlZXC KoeS3X8PnlSWVPR0/ybWoDLHGT43bai6xx8V2lU0vqW22DJFj67TYq2lprbDXPyuxDB234V+FlKt 8F+TmlFATQYSXIFafCaJjmn8XeJ6GnQj6dZGtFbhUd78WbK2DUjKJ/EYOoyzhoiY0IRE0b4DKwtK OVirKZRKuK5LImU4+9ULWbH6cXat3kF/716Gh3uZMWcii06didURgY2ICkUCBXHoYyhh3WGMhXKh TLqpjpIt0zohzZZcQKkcsnFbL9t29ZCId9JRN45Xz1/E/MXz2bn6CShacruLfOf677E234WdMpXx J89lfOeJDEUKz03SlmogE2viKCJQIYEf43oWYyMSNkEiquwrIldjY4u2CtdxMNpSjso4PqRcj1BH FJQljAJc1yHleyhLpWxLVNlTGK1QunKml+f4KOVg4hhtLFpVSrw41bpiSoOjMCYmjGMJKi+XT+68 nuFwcOwjKmvpSHcy1Pg1vjeoRkqpWGv56/YEn/mHd2AH+ytlVMpl1Be/uUPNnG2pFDvcL3YtWRvm P3NnYoIaCUIQxpb/eE9286wJKKB29BMWTBz9VzM0VILMVI6vLKpkt1eN/HZ0+ti+mziGjD5LCfaf End0IUTjQaY1yyV/9lo+87EvEDoB23u28ubZryORTVCO8xTCYZJpH8dYHKvBD8ENcZMOSgcEpQFi DNMmtVO2MWs3bKEclomNwTh1dOfLPLhmLafPOZ55l53NA3ffQ3G3YijwKReb2bNuCJMaYHKrQ62u JZuoI+XXkkxmSSQ0nlvCMcO4xsF3MlgTYW2ItQ5WhygscbGI58dot4z2NOVyjkJhAJXUaB3jJQyD uSECrVEJg3VjIMbRFu1owjgiDCJQLhBioxBrQLlu5dRhY7GqUrTcdRyU64J+8Y7TJKg8i3KUpxTl xg4qWMpRgZIx7InV06mKhZIFSgUo5PYFlRKY2FKpkHtgldz+KLb5QjneNxdKRRhXPg/7AkqzvBvi mOj+2jegXJ2TxBhDGIYj844AlQFpFeI6HhNPmEDnyZ2sWbmB1umNzD3leFQqJo4CUkkPS0wQGYwC lTJQCEllfBobsjhJn7SrKUeWkzoaaE6EbNvdzdYdO3ATLsYamqfWoVtd5l6ymAkndvLQnU/xyGOP U4NDFBtmNdfQWe8x5bTpPDq4m2R/gWyjwjUFsrpEnVMim0ozviZFWkHSSaJwiJSHweIlNZNmtLNq zVrGTW6jZVILmboU5TggkXFom9LIYLiXVINL7ESUY/D8fQVmI4ONQIWVAoG+A+zrIHFigzaVWTAN CmMicMBoi6ukSrEQ4hjOVKrVdavLrLVENibGkkwk+cjnPkjf7n5aW1tJ1HnElMnUpAjCPNb1UL6P 8lOcePICrDFgA1zfJwoiXNKkrUs5LDNrXBPHT2ynOPcErKpcaFmXSZKIFYokflsLl7/7fC7sW0i+ UMJLJEnUZUnUJPG9CVxw8njSQUyqJkPsepw4cTKd4100mvYaB78Y4NkECgetfIy22KThrEsuZP7Z ZxAr8BtcBksh2nXxalOc/przWByfjnI06cYUJqxUMcYYHAPKaHzPQSuFIkQ7MQqFVgpjK2eKhViM 0VjrEFuLp8IXbfcvQUW8pO7+DXvu+DEHzXq2dh3NqMM/ceSa/0dzNivt+VykkoT/9rUjv0pxNTOp Xk8xuuurOsailEJ5mtjGeL6mobWOuvpKsemQMugIE0a4nk8QgzEeQTkmU19HFBisDYiJwSiiYYON IxzHkEi4pByXGheCoIwNLaqnBI5BGUVNNkG5Lqa1tglbjAhKZZwERLZIQrmkGj1sMSQKBjD99TSq JPVaUSxERPkSodlXoctT2LCESVnKKsTPpPFr6igaQ+SDwUe5kA8sYdIn7SZRsSFfBNdagmKMDWO0 qpTCt9bg+R6uqwFFcaiI9vZ1fdnK+I3OesRKV8aZHE3yRZoVQ4KKeElddD61F5xH7hB355/j6nLS os/ZER9UDpztsFpi5MB6VTY2aEcRmxBtK4PQI+vQCqUcMOBqjzB20I7Lhi1dbO/azqRJbUwe38bW DV0svf9RorLF8QPOOfccZkydxv2/fYB7f3cPOjT4ygdiPO2wYPHJLH7ra+jevZd7f/lbhgcG8ZMJ Tj3ndGbMmso9v72XpQ/eT00yzbnnvYGZM2fxu1/9jtUr1mDKEb7WhEGIdcDFI/ACxs2cxCVvej1e fR2PrlxJNpOhY/IUhnODPLVyNYO5AnWpJPNnHkd9poZHlyxh67rNEFUykthYHDfJ7Lknsmjhiaxe 8RT3/Pr3FAp5lAHlOiw4bTFnXXQ+e3r7eGrdatLNLVy6+HgJKuLopzVJLSeyi2cJKtXaVMaYkd8P zFw0Ckx1WWWMQVeDj1UYW5lvO4hDoihGOx5BFJErF8iVcvipJMVyQD5XxJQVTm1AMSiCsfTs2Ysp xuhYUQ4KuAqKQZnhvf3Y0GHvnhx7uofQ1sHEmkLOEoaW3d05CjmNDS0WB2UN+YF+ioP9ONalbCzG KvyEz3B+ADfl0r1jN0P5IvXNWQbzQwRRxKTQMNyXp79vkJKNCEt5iqUitekM+VyR3FAOx1ZqfRkU QTxI38AA2od8sUz/0BCmHBJHEcpzGRgcxHUdcsM5coVS5SyHF4kEFSHEEal6NXg1SzlwWl4VVbIV Y0ylK4tKIcp900VirapMw+0E+Ikk5bhA54yJNI+vI5NNEOoS8xbMYlJLO75KEdWH1GYzuJ7Hm/7q Ms487ww8ozFxjJNwsCaisX0csaeYe+I0po1/K4V8QCLjkWmuQTkxV1z1JobOPx/X1Xh19SinzBuv uJj8wJkEZYtyU+TKAbGJqa1JkXA1mUwC3ZohzHice85JlIdj0kYxc+JEWsc1MBzlSSd86twEvnK4 6MJzMGedRlyuzACJVhTjED+dJHZjTjlnETNmdmBLZVzXqUxB3tyIVQHTZkxkXEcToSNBRQhxDGUq 1XGVOI5x950aWw0wWmu01rg4YCG2EZXkxFQu5lJgbaXEi9aa2ObxHJcIAy7UNSQwNgAFsYKp08ZT GgrYFG6nNl1LyUbkwmEmzG5HU5lxMbSGUBtCV5EywxDENLZ5NDq1lftUidDGJDKW9s4sURiR8xTl fIifNjRmarD4BMqnxnUoFUsUC8M0N9bjaZf+Qh89w4MkMzVk3SSJIIIgoCnpkNYJwiigHJcxsUN9 OkuqphatHbSrKZfKlFVEOQ4IKRFaS6bRI61TRIUy2nPBj8B3KBFSU+NTx4t39pd0RAghjiijCyH6 vo/rujiOM/KzGlRix5I3RXJRkbIJiawltoYwiigGOSJbJNZFcBIonSLlJbD5PFkcUpGmsDeH53ls 7dlKwR1m54bNeHGMMhGOa9jT281goQ+jAoLyMCltsaUSu7r7KBgoO5pdfXvYO9AL1uA7Ltt37mag WCJ0HJI6plQuQDZFwXcYpMjuoR0E8QCRylHblGJIFehTOYpxhG8SeIEmLhboz3VTYhitI1S5TDiY g3KE7zmEKqTshgReREkHmGQlPUgmE6QSPo5W+OkEUUJDQ5oo4xJ5YGyMb8EPYsLQSKYihDh2MpXq rVoAsRpIqkYKJGIqh8Zq39wi+4KRdiqZTeXaMY3juOzatQvf9ynl84RhiOe4hEFIMpUgshEJz0MD URTS07MH13UZzg1RW1uL4zgMDw2RTqfJZLMYaxnK5djStZUwDFm8eDGDg4OsX7+B0047jSiOCYpF NmzcwMSJE8lmsxgFe3q6WbN2NQAdHR3U19djraVcLrN582ay2SwNDQ1s376dCRMmgIaB/n42b95M S0sLkyZNwvNcHM8d6SIEiONo5AQHr1qVWFWWa60rGZ9RKFvJ9BxXur9eNjExxo5d0sDuq7VlKn/s f7RlgXhfwR2lKj+fIeO0FmJj93tMbOyLmKQKcWQaXVG3+vvo8ZTq+IrWGs/zRuYKqe5gq+vQWh/0 +DiOieOY+vp6wjBkcHAQz/MoFArU1dWNFGKsra0lk8nQ399POp1mYGCAmpoa+vv76erqoqamhvHj x+P7Po2NjQAkk0k6OztHtrNQKJBOp0kkEiNZ1rhx42hqaqK5uRnP80a2f3BwkEmTJpHJZCgWi6RS KRobGwmCgEwmw8SJE6mtrSWRSOA4DnEcHzTOZK0d6S40xoz8L9X7x/pdgspL/NkGOL35QopR4ZBB ZVyilULGY1Dp/cq0LEoo1BnnofK5fYV+Imxd/aHeTTu+wdGvOym9X3SKY2hKyxshjr2gUq2uO/pU 4jiOR041rt7ifTWsqlmN67oEQTCSsVSDSRAEtLS0jDwnDEMSiQTjxo1DKUVLSwtKKeK4MulVe3s7 AOl0mjiOaWtrIwxDXNfl+OOPH7kgc86cOSOv5/s+48ePH9m25uZmamtrRybLUkrR2NiIMYZkMjky TpRMJqmtrSWdTlcyDc8jkUiQSqXwPA+lFOl0euTx1YBSDSSO44z8/9WSNtX/c3S5++pjq0H4Rcs0 7ehiOmK0orV2eaW4w6GbSKGwaA7sodSANmb/GKUdo5RawMEFEovW2idie/AYl6MwSqm5QEbeEnFM 9A7E8eOlUikcvWsa3SU2+gh9dFCpBpDqDnz08mqwqgaG6k64ekJAOp2uTJzl+2itCcNwv5306Cv5 q68ThuHITr+aVY3+fXT5+ep9juOMzBlf/V+qrzF6u+M4Hunuq06sVX1cNaBV113tGjTGjGQxB54p NzI7JFQzPK21XihBRQghxBFNzv4SQgghQUUIIYQEFSGEEBJUhBBCCAkqQgghJKgIIYSQoCKEEEKC ihBCCCFBRQghhAQVIYQQElSEEEIICSpCCCEkqAghhJCgIoQQQoKKEEIIIUFFCCGEBBUhhBASVIQQ QohDkemEhRBCCCGEEEcc6f0SQgghhBBCSKIihBBCCCGEEJKoCCGEEEIIISRREUIIIYQQQghJVIQQ QgghhBCSqAghhBBCCCGEJCpCCCGEEEIISVSEEEIIIYQQQhIVIYQQQgghhJBERQghhBBCCCGJihBC CCGEEEJIoiKEEEIIIYSQREUIIYQQQgghJFERQgghhBBCSKIihBBCCCGEEJKoCCGEEEIIISRREUII IYQQQghJVIQQQgghhBBCEhUhhBBCCCGEJCpCCCGEEEIIIYmKEEIIIYQQQhIVIYQQQgghhHhxudIE QgghhBDilSQOzXApF5Ti2Fov6ahkxq9VioS0jCQqQgghhBDiCLJrQ39hxb3bhvP9ZXOoxygFXtJN ZRuSmdbOuv4Jsxpttj5Zz0t8gB+HZnjrir3B5ie6VU/XcH5obzEa2J3zo9DohtZMqaYppZon1dRM PL7JmXXaeOMlnMbRz1+7ZOemH37pobq924ZbqsvGddTt+ejtr29xfUfJp0ESFSGEEEIIcQSIgnjv w3dtCO69edX45/C0cVorU9+WGT7jilm7Tr1sZn261q9/MbczKEZDD9+1oe+3//Vk09DeYtO+xfsl IT1bh/Z7TsfclqH3/PuFW5IZr6O6rDBUdsJyvF9CUsoFMpoiiYoQQgjxylMosPed7+XBLds471CP yaTZ9dUvUDfvRFoAR1pNHAW+AvwCKAEpoAG4ALgMaDfG6r6dubqf3fBY3fZVvdsu/dAiU9+abnyR kpTB339vRd9vvvvkFGPsyDXU8y/q2HbOW07wmyZkPe1o4tCwd/tQomtFb/eSO9clrCVrjd1vlGjB q6dOnLl4fCE/UBo0sVWOp21je9Z1PC2jKZKoCCGEEEevVWvYuGMnvVu3YT77JY4vl+xPP/lxNWXe XFrmz2NNx2RrFy9Uibo6MibGbNxsh5c/RdQ/oLjvQXp+cTcbvnsjicZGGj73KfrbW60770TV4Tg0 SOuKI8xW4JEbnri6UF1w7fybfgLcCPwnMK+6/Mnfd7Wf+KrJesGrpx5yZSa2hb4duU1rluyINj3e 3dyzdWhcpj6Za55c0ztr8fjcjFPaG5NZb8JYx5+9O4ZZcc82PTpJaZ9ev+38q+fUTDy+ab+RnNqW FJ0LWjvPfesJ1loipag7YHVRuRDuHNpbHIojawHqWzMTHUgD1WQlzvWXu3es7dsOUNOYdFsm10zx km4TwOCewronf99VXL90V0vv9uHWKSe2bJl5avvwCWdObPRT7mT56EiiIoQQQrzowhBbLGIGh+j5 wMfx/3Avnd/4Cs5VV9D0V1eRcV31l0oxqid2/07ZxkbFopP3W2T/7sPYIKDvoaU2d9Eb1DzXZfjd b2fLRz5AR22NtLk44hkgGr2gbly6t7Y5nQJq9/uwGxttebJn23998PcthcEgY62dU00E9q2ndu1D NDx4x1oFoB1lFr9hxpNv/MiimX7KTVbXk8x4cd24dHnH2r6Rde/aODDxfz9xX/efffK0vVNObKnx fMdD7VexVimFd+DG71zfv/WWTz7QsGNd36zqshPOmrjqmq+d1+a4lVGV/EB56Bf/uqz/oTvXnQLQ NCG7+4Jr5u5a9/DOYMW925rDcjzzgHVOW3LnOpTC1rdm+l/7/pMGT7p46iSllIyeSqIihBBCvKBs GDH8+HJ2fP2b2EeWWb1gLsNXXKbUd7/JtKZGOv6EdSutUckkzeeerZp3b6S8YhUbb7wZ78wL6f7w ++m65NU0NDcxWSn8/8/em8fXcZX3/+9zzszcVVf7LlmybHmNt8TO5oQ4QAIlLAGyENLSFMrSAm3K 0v7Y+qNsPxpaSKBlKbTfAE0htP0WkhYISxMgCcEO8ZLEu2VZsmxLsnbdbZZzfn9cSZGNY8uJnfW8 /bqWNPfcmTNn5s48n3me8zz2UFieReqBRTevvj0/pcAzwO8Bfwy0zBIRxSv+eKXbcW79MeerMSb4 7t88uGfjXXuXzRI4u4DPAN+7dctNRYCbV99+AaUws4t1ZNSv/+/ulY//sjf7sR9ek3NcmQSobExX vfytK2LDfRMjR7rGSt5Hgxg4MN7wj2+/B4BYwsmtfc3CvWtf1dFQNz+TSmZiCc5QqY2hvsmGOz/5 YMPUn/3AfcCDlMLiXgdcDiSMQYwcyVZ+75O/Tgz1TU5c8ccr00JYe9oKFYvFYrFYzgDFItH9D5rB L31NTHR10/Zn7yL5ndvPXui64xBbvZI1t90Cv91s9Ec+blLv/7DY/cbXiV0f/HOWL1xga5pZnjU+ NvU6EbmqpvTExW9cZC66ZrGTzHg1xzfY/OP92377o67VsxbtBd5365abfjS73a1bbvrNzatv/xDw NWA5QHa0GN90197NF71x0drpdvNX16U+cOdro23/23PkgTt3egd3DieLuWDG61LMh8kHvrdz5QPf 24kQQte2ZSZee/N5E0svaamSSiTPwHhMArcAX751y01D0wtvXn37PwMvA34AxAH8Qhjfu+nI0fNe 1TFW3Zxus6eSFSoWi8VisTwdTKHAyDf/jV1f+2fib3wdE9/9JuXxGMlnqgPnrRHyR98XbvcByr/y DYrX/yGH33g1E297C8naGhql/N0wFovlbNG2onagprXM6Mjo/q5RDu0ZaZz1tsjUJPyF6xpiyYx3 wvlVP7/9sUVRqGcL7Tbgazevvt0/QXMPqJv5MhojencMJS86rpFyZGbNle2ZNVe2Ywz5gf1jfVt+ 2p048OhgoXvrQEV+MkgAwhgjB7rHyv/5ffeWnXNZ6+ibP3HJZDzt1j3NITkMPDRbpEwJrejm1bdv Af4XeNX08qMHx2OH94xE1c1pezJZoWKxWCwWy9Mjm4Mg4KK/vJnCFS8jG49R/Uz3QQhi89tZcMun 4JcPwLbHoKuboYpydMwmULU8g7z0pnPGVmxobRVSxI1B93eNHrr9g/eJ/v1jjUCie9tg69f/7OeT r37vecMXvr4zc3w9ldy4X4Z54u942tXtK2r9WMo7Ua2WAtAzY4B6kpfcsDR9iu9Kor6jvPkV71w1 JW7IPXZfT/8dH/1VRTEXxgGMNnLvb4+4v/nBnvCyG5edzeHSwLg9a6xQsVgsFovlrGiE6iqq3vNO ABFnKoTj2eQl60sveOYFk8VynCiQDQsqGt/6+csnvv5nPz9ytHeiASA7WkzfdevDyvFkce2rF6jZ tmPbOTX7xwZybWYqU1dFfcq/9qMXBVVN6SVnqY/JZZe0xDvOrd+54/6+ZU8sF8gzU8exDCi/efXt 6tYtN0XTC29efbsAaoFXzm5c05opNnVWRvbsOXvYuFiLxWKxWCwWC4CobStPv+nj61PJ8tjY9ML8 hJ/44Zc3+3s2HSnMbnzNhy4MXO+JpFcD+8fKbv/gfdXdWwcPPNkGjDZDR/aNbhk6OLF1epmOTG7j Xft6/vKif/U/87r/mvivWzbuH9g/tkNHZmL2Z4vZoOs/P/tQ165fH148e3nTospwzSvmF87A/jcA twM/vXn17ZfcvPp2d0qk3AQ8AMykSfbiTr5zXUO6qindYk+bs4f1qFgslhc0+w+wfdtjjBQKswMU LC9kwhAZRZzy8aqUaCHQxiCMQRpz8s8IgRESLTjxuWRAaI0602eaEOC6aCHmvuZYDLFyOeUd8znH nhGW0zzfZMeaOvf1Hzh/8jv/7/16uq7JyOFszff/bmPvjZ+6NGrqrCwHSFfFF33krjcc/vsb705N HC2UaW1k7/ah2tv+6IdGSqGlFAYx9bUyBq2N0JGpBqqT5bHwU/dejxACIYWKpZxkFGhnsGfcG+wZ L/vld3ZM9UcYITFaG4Gh44mOQqLMy62/ZvHRV7xrdY3jysqnv+/CCEncaLPBGH5V+lofd10QmHRF fPKKP16Ru/SGZbXHpUu2WKFisVgsc2d+G8vm23wsLyre/2H4/JdO2awX+BCT4g4SwUUI+R6kvAxo fpL2eYy5DT/4F4LYnhO2SJulwL8AF57J/Vmzislf/JjBsjTz7dG1PBWUq1ItS6pk24paP/QjDyCW cPI1LWWVQgrnBAZ7fM0r24Mo1AO/+u6OhllvtY715wYaF1QUhBRxgExtovFvfnKdLubCoa0/7T78 2x93tYz155JBMYpCP9IA0pE4rpSOp7zGhZVHzn3l/P6ll7QsEEJkpsRRbNXL2mK3PPT744f3jPZu /MGe9P6tA7X5iYAwiLTRBikFTkwpL+E652xo7broDZ26oj61FPid4otVTelU28qa2GyJsebK+ZE8 RWH6uvmZvhs+vj4VS7pDP/36tvTBXcNlxWxgDODFlaqoT0Uvf+uKvkUXNrUJQb09s6xQsVgsFovF YrE8DYQgsfaqBYm1Vy2YvTgx9TqxuHFk2QVXLyy74OqFv2PPn6C5jCWdmvNft7Dm/NctPFV3mqZe J9pmpmVp1fKWpRecah2LT/ZmPOU2X/uR4/OJsWKu49WwoGLhH3z2JU9p25Yzi3VXWSwWi8VisVgs FitULBaLxWJ50WJMQBT9D1F4GdrvAHO7HRSL5VkwgJXA9Y5NFea4SitHajs6zx1s6Ndz8j5mJgXN tyMAACAASURBVO66665/Gh8fT9144403SCnLnyf9DkdGhnfccccd905OTpRfeOFFDZdccula13Wr z8K2oiNHjmz+7W8f3vzyl1/xqng83jzXj+by+b133XXXtxcvWtS0Zs2am3gOpCi1WCwvnks8kAXR Sy62n7SxdRkslmeBRJlX+fq/XJd+3fvXzmQ3k1I0CCk8OzpWqFhOwvj4+MHP/d0tC4Mg6Ljiiiv2 NzQ0rD5b24qiaKi/v//wxo0b/auuumqB67ppQJ3mavy+vr6uP7zpLeM9vT2VWusyYHdjY1P+4ovX rz3ZB7XW4e7dux65664fHHjnO991bnl5xTw4dWXmXC6Xe/VrX90fj8XOS6fTQxs2XN48x/2NfvqT ewY+8pEPveX8dRdM3n777UdjsZhNLWixWJ4ZhPBQ6g3AVaSNxj4osViexa+jcJUjyu1IWKFiOU0M BjAIIcTZ3E4QBNmP/83HH9i48TfnXrbhsoHKisrk6QqVXC578MpXvOyuIIxuvOYN1/yfT33q0++W Uk7nGhenECp669Zt+Tv+7d9cpZx73/e+979ZCOHOZYhGRkcKjfWNkZRqzudxFEX+5z73uV8A15xO qk+LxWI5w/dee/+1WCyW56FQMacybp/zGuPs99/MRQTMhXg8Pu+fvvZP73yKfYiMMSafL+R1ZOow +B0dCw4AjjEmEkLIU/XRcRzv+uuvv+z6669/Ro6NcpT7l3/1Vy/5i/fdbGaN43PxnHu+fw8slmeN RJwglSIyGlEogtZ4T/P7lJt6+cDTjl9XiijmEQo5t4clqSS+EPZ6YLFYrFB5Jom01n42m+3f9ui2 nkN9h+TwyLAMg5BEIkFlZaVesmRxav78+c2xWLwiiqKx7u7unVu2bpHr1q3Lzmudt0GIU8YRhvl8 fvN9991XqK6pLq5etXq553n1xpggm80O7tixvauvr0+OjIzIdLosOP/888taW1s7pZRlc+i/1lrn RkZG+vbu29vfd7BPDo8Myx/+8H92r1q1ur69rT1TXV2tOxd1yvnt8ztd1y2f6u/p3GyMlJIwDMcG BgYObtu2bbi/v19tenjTYYwx69ad31RdXRXNn9/BggULOmOxWPUcvRFPHIQoGtq5c8f2rdu2qVdf 9epsJpN5KafwqBhjcr29vZve8c53HNm3b68CU21ggxSy9m//9rM33HLL3/5MGz344Q9/pPqPbvqj VwohUicZxLC3t+fR7dt3jC1fviw1b17bauYQ+nVaFr8xk3v27Hn4vl/c69x2222P5vOF1UKIut9s /M3AsuVLf3rxxRfLd7/7PYvXrF7TEYvF6k52zCcmJg499JuH9ra0tCQWdS5apJQq11rnh4aGerq6 ugZ7envUxMS4qK6uKa5fv762uqp6qRDiVB6qMAzDiYMHD3bt39+VPdjX54yNjZpvfetbj7zrXX9y XnV1ddQ2r820t7dXlJeXLxRCxLGJMCyWJ+VTf437qb/GLRY59MEP8fUvfZ0/BNqfxio7mBT9Z+iC 5L/h1WbgW9+QKh6nca7PlIAqe2QtFosVKmcfEwTB6AMP3L/rfe9/39HJyckOY0xSa90FdCOYxFAl hGgVUraDOai1/rrRpk8I0SmV/MNkMvnh32565HzHcbxTGKjB3f9z950f++hH36KN3qZ19HdojgrB tULKa4WQqebm5sIFF1xQVV1dc2jp0qWFOQgJHQTB5M6dO4e+/JUvj/3sZz+VILxVq1Z6S5cuk+ed t3ZRFIXu9h3b0z/5yT2D2Wy2wRjTvWLFir3/+u07XpJMJk85H0IIgTEwPDySuPCiC34mpRwTQqSa mpqTa9euLauqqkoabdSjjz4a37zlkYmenp5KYPutX7gttWHDhvZUKlU3V0GUy+WGP/qxjw5u3779 Fd/9zndfc9ddd13CSfKqT/XPdRy1/61ve2uUz+aS+/fvH7nj3+4ASLa1t2+87tpr55dlMt66tesq TyUmgyDQ3/r2t4rf+uY3K6+55podn/nMZxefrtiaA+Lo0aNHhodHmq677vo1W7ZsTj766LaosrLK fenlL11SVVUV5HN5TiUotNbRzp07Bt/znncnL7nk0pHP3fK5IyMjI5NfuPXzg/fcc48SQiTWrl2b mjevTdTXjfVeeMGF8hTrKxQKhYkHH3xg+Au3fr6we/eemBBiUmu9VxtzUCD49Kc/9ZgQollK2aq1 Fi996Ut/85cf/KuW9vb2ZsdxkvYSZrE8ZRRQSdo0o3UNcNphr0/1elQooCcmyQkxt4cyQqI8lzJs uJjFYrFC5awS9fX17Xn3e/50z44dO+q0ifYYY27Rkd4Z+NHYwYMHfYCmpiahlIwpJculUuuFENcL Jd8khchorR2tdThHv4RQUukoiiKDacKIdziu07RixcrK977nPYcuvPCiTs/zyoUQMWDJKTsfRblt j2577Mtf/sf8rl276q+++uqx9773vcnOhZ2LHMcpO87A1p/9/z47P5/Pjw4PD/nd3d2NpxJWx2gB hJBSzmtoqH/j+973gb1XXnFlXSKRqJJSxmfdTLUxpjAxMTH8zW99M/2xv/6oWrxocfdXvvLVyYqK igWncd+MjDFGSjnXORtuU1PzTdddcx0AIyMjj9/5ve9uiiLdfsP1N3S99W1v/XMhRGKuW/e8mNbG +EIIzVkIdxJCpC6++OI3XXzxxWitw//54X8/dPPNN8c7F3ZmP/GJT7ae1mR6AWEYqvvuu9c9//y1 OxGi5YILLgju/O734suXL2+fOp9cYOnJVlMoFoZ//vOf77ntttu87u79I1rrH+gouk9jevOFwvjA 4YEIIJlKyoqqinjcizVIIS++997/vWLr1i31L3/Zyx/88z//i4q6urpVnGEPlMXyIqEJ+BLwJeQz 6KAUwr37HjGv7jRqzE9Vpu+1lektFosVKmeRQ4cOdf/5ze8NHt/+eCyKon8wxnyvu+uAf4J2BihM vf5vW3vbbx1H/YGBPwaSaJjrNGiBwBijlZKXCSG7P/qRj47ecMObGx3HOa3Kolrr6Je/+uWOd77j HemFCxeWfeXLX40tX778JScxrKUQIp5MJhuSyWRDS0vr0tPYnEEYk0qlem75289NXHTRxRefZBvJ TCaTfPefvruyqbFp4yc++YnGW2+9dfLjH//4M3ZcjTFMj0MQBpIzEMN91pRyFAXf//73twEvf8qy R4gyKeU5LS0tA+9/3/uj3/u9V9VNCcg5WTu+749/5zvf6f3MZz5d1MY8aoz5xuT45CZADw4OHtM2 l83pXDaXA7paW1u7HUf979GjQ9fe+b07/6Cyqjr1p3/yp4PJZLIO+6TVYvndC6RE3fQW1u3qIjs4 SPfhI5QdGWAu6dIPArPTBod2NC0Wi+UFLlR+9KMfut0HDqC13uT7/k9GRkaDORnC2vRoo3+JoVlJ 9WYhxZz7bUqZsxytTd9HPvyh7htuePO5juNkTrfvvu+Lf/jSF5NlZenCm998o16+fPlCztJk5ynD H9d18h0dC+YUiiClTK1YuSLjeW5hf/f+tD21n3RszX333XfkqX5eIJBSBg0NDT3vf/8Hcr/3yt/r lFKeVgjWkf4jxQcffAAhaJQwjhA3VlSUXQNQUVE2h++sqBZSlv3T1//p4JrVq/s2bLg8o5Syx9xi OQ7Xpf7c1bzqnu+X/v7uf/DQjW+jSutTXrs/wKS4046gxWKxvIiEyvDIcNwv+sMYJj03VshN5ubk F+np6TEdHe15YAiIzOl46QVIKYUx+v4rrrhiqeM4TylftjHGHB0aTnrx+Ghzc1OCZybcRsBpp9A1 ZlrpWM680CnJyGznws6+S9ZfsuB0RQpAPp+Xo6NjUmsz+Pa3v9179atfc5GUUpzmeZGtKK9oqKmp qVVK2ToMJ+FzXzC7//ZW6icmRRKbSe1FTRSxbg4iBeBfSZtvPcVr9hm/r27ZRqp6HnEh5uzZMeVl ZvRjf8Xge/9ELLNH3mKxWKEyB171qquO3nvvvWrv3j1roig8t62t5f4DBw6e8sLb2tpSbmCVEOLV RpsYoXkKoUVGP52KJJ7n8fa3v/3gJz7xN1Vf+epX82vWnNtdUVHRZg2fF51QmWWPPLVj39LcwkUX XljcunVLiBGypbmlpby8vH4O6zPGmEhrXQSEUirGMzP593nNB/9CLPrgX9hxeLb56jc48LFPUXl0 iMwZXG1h7Wp2//C/TKy2Riw+g+t9roVSPgUBJGqBWnvmWSyW5zPPaIrTpUuWtd500x+p6uqaJVI6 fyalu7K9vf2kT6QXLFhQ6cXc65RSf+A4TidChAiipygPnrKnQSklX/ua13Zee811+c2bH/He/e4/ NT09Pf1a68Kp1muMKWqtc0BgT7ln+W4vhFi3bl3N0z0fzNOoFZlKpSqvvvr1TZddtiH1jX/+xoLz 1p77zz09PXcbY/yT9En7vj/2k5/+5OeLly66e9HSzq/u3r3rTkp1HSwWi8VisVhecDyjT42kFGXX XnPt/EsvubTrS1/6Yt1d/33XN4vF4p4FCzs2Gm02G0yfECJCkDDGtAohV0klLsWoQEe6J9TRESnF FUIJZ652ojFmWtKIpxkQJTKZTO0nP/nJ2Nve9raDf//5v+u94c3XV1VX1+y+6lWv5vzzzy9vbW2t dl3XMUab7u4DBw8dPlT8zUO/dvZ1dZmRkZHBb33z24uqq6uXzKXbmKcgxUr7p7SOTleACkA8VeN7 6nOldTwx3nNGl2IxpotDmjluU5SEtpFaz93BppRy3/GOd563adOmsUOHD1du3LTx4Nrz1rrxeLx8 qj7JWZK6x34VOjo66r942xfFL3/1iz3f/ta3X/m6q1+rL754/a8ve8ll4oILLmjKlGdSAkEul81v 27atb9ujj6p7fnJPOpvN1r7n3e+p+f0b/2B9TU1NI3YSveV5wuJFyKtfzcTwyNwe2AyPED36OGpo mAw2s53FYrFYofJMIIRINDY2Lv/0pz+T/8AHPji0deuWJffee2/b3n1733To0CEnCEJSqaRpbGwM V69arS6//PLk4sVLKgxm9Mc//vGj//mf/37gxjf//gVKKW8O21LrL1r/kssuu6zQ3t6eLitLp55u 96WU5R0dHeVfvO1LhaGhoYHNmzezcdPG4m1fvNUcPHhwNJ/PC6UUZWWZWGtLi7tq1SrnjW+81uvo 6JifTqfnkm2GWCyWeP3rX68OHTo8PpXRaU6UlZW5GzZcPt7Y2Dhnz43rurHXvuY1SaXk/k9/6jNv eirnRDwWT/zhW24q27J1y9hVV121QYi5JztQSonly5brK6+8Mvuyl728BphTCmfXcZ0bb3iza7TJ 1dfXV8xdLEt18UUXz/+HL/3j5rvvvsv7+7//e2/Dhg3bb/rDm+ZXVFS0n+J8EvV19fErr7hi5IIL LlSxWMx7GueSSiQSja+48pWNl2946VhfX9/Q/Q/c727atDH6t+/ckT86dLRojKE8k9FNTc3pxYsW m4995GPy3HPPrS8rK6s6nfTPFstzgctfQuvlL5l7+54eut/zft1/949FJwhb7NBisVhehAg78dpi sVgsZ5v7fsXR//g+qdFR5iSyh0fIPrKVfP8AmZM8wDhbc1QsFovF8hzAho1YLBaL5ayzcxfZO/8T 7+gQc/UGpqZeFovFYnmRIu0QWCwWi8VisVgsluca1qNisVgslucK/cDdwGMYMx+4FCEWYz0rFovF YoWKxWKxWCzPIsPAfzMpfkAiWI8Q9QjZDsIKFYvFYrFCxWKxWCwvRnyfEXOKBNxK4TiK5Fm8d7QA HyZt/gioLnlVRNoeHYvFYrFCxWKZKwEwAUwC2g7Hs0YcyEz9tPPNLE+L5kVUHh06eZs3XcPuL3yW ioZ66s5SN8qA82f+EsIeGIvFYrFCxWI5LcaMMd8WQlzFxM5GgqMQToBQdmTONgZQHiYxTxuv4d+F ircIIV/KHOvPWCwWi8VisVihYnmho4AkPd8tY2gTZA+AjNtROesqBYiVQet1RRpfK4k3CIR1ppyM 7/w7fXd8j5pslpgdjSdnbPzUbX56Ly2vux43mTz99ff0Uj82fsbvOd6O3XS86g1Cpm2A2DEkE/g3 XMvA77+JFjsaFovFChXLixRBKepIYg3mZ0KomKkxtyExc+Xa11Oz4VJ6+w4xFIbP7VDFm97FObv2 UHaGVxtgTA9a/wgjHnryu4H8Cpx820NDJIdOHB4WNNXrB7/2JaFqqq1r9bmA6yLnt1FtR8JisVih YrFYnkFhaDmti5xDrLGBhY0NLHyu97W2FnbtOeOrjcAMIcz95J07n7RV2tx6KqFysm001JnDr3i5 vMx1abRnncVisVisULFYLBbLs46U0NyEjf20vFAxWuvNvu+f1pMicYJkEMaYUhyC0cipcF6DACEx CAwCfYzXXGAEYMxUSzO9dCaDigFCI8BRRAIiYZACCCPiwsGNQER6Zh0GCBQEUhNKAVJijEZo8IRC CYHR+pjHYsfvizHmWTsY4llIsnGy/T2b/Tl+u9Pbmr38dLYvpTRSyhYhRN3z5ctnhYrFYrE8v3gI +BCT4r5nesMnyfoVB3W1PTSWFyphGPq+7194Ooblkxr3xuCYCGX0lNCQaBRGCLSQGFRJkhgQUk5p FgPmCSkjTUmsCGFAQ6QlxnHwlSZUIJXEBD6CCBEYpK8RovQZLaCoNAVlMJ6Lkh5GgPJDgjAgEgIj DIgn9uHpGuOnEjans/7nilB5Jvoxvd0n25YxBiHEnPuilNovpQyeT989K1QsFovFYrFYzrBx+WTG uZgRJ8x4UZjypBhd8pmYKbtTRxFmptX0+jR62sNiNEpDMpSIXECgNGFMol1JoH38KIcJDDEkylFI IcFRGAlah5hihAo1LpJEQaNCQ6jA96b68SRP9E/HOJ6rUT/X9c2l3el4fJ5q354Jr5KU8uTn0iwP y5keFytULBaLxWKxWF6gYmX6dbyBjxBEQqGFwpjZbUtypaRbSkLARCU5AwYhQJrp4DCNmZY6Bog0 MgjxpEQJh0KxSG74KAM9PUz2HyUqhHixGFWVlVQ3N5NqrKMs6REAUeSjjUIbiZISoQQIfYxRO9sQ fiqehLkYyHM1os+koAHQ+qnnWHmmvCqzz6XZQlEIMbN8LvsxLXysULFYLBaLxWJ5kXGyJ++zjUtt DFqD0aBnjFA9006aKYPSTAkVIWbyPoLBiNJbRoMWYJKCMADlgCSiMDbG2P4eeh56hNGdXahsEddz ydXUEl9xDpm1K3Fa69FJl7w0BAImY6W5LTEh8ZDIUxjIp2toP9NC5VRtT8e7cCLP0pkKi5urSNFa HxPqdbrH4XT32QoVi8VisVgslhe4WPnduSpPhHwZUZp7YoyeEioCgSg1EgLQaB098bR8ygMjpcR1 HaQjiQzkIoiEQhkQUUSoYoh4hkJgKPqapJZEvkFLF6+6FicWR4QaHWkCozGOJMLgKIE2EBSKOI6D 53lEUUQQBDP7EQQBsVgMpRRhGKK1JhaL4fs+YRiilMJ1XaIoIoqiY576K6VmlgVBQBRFeJ6H1pp8 Pg8ws+4oimbWF4+XcnUUi0WklL8jFGaH203/Pt3ueCN99s9THavTDfk6m6Jlej+P376UEinljJiZ FjTPpKCyQsVisVgsFovleU7JOKYkSMSUFgGkEBgzbVCaJ94TgigqGaeO4yCVOzV3RKBlaZ5LZCRa xBBOxHgxTxAqUqkaKjvLuby6mfG9+5nsO0R5RYa6eS045WVESQeV9FCeQ0yHGCPRfil8zHEclOMQ RRGTk5MzwkNrTRiGJJNJoiiiUCjMGPu+7xMEAVJKtNZks1mUUk86hyIIAowxJBIJhBDkcjlc1yUM w5nfHcdBSkkYhoyMjCClJBaLzXz2RB6F2Qa64zjHGPezjfxp4Tdt2E+Lmmmjf/ZrmunPHC+Mpts8 E0LgRPs73a8wDPF9f2ZslFLHCBhjDLFYDM/znleixQoVy5m49B7303KW7nBPZH+xY/1iJgG0kzbL 59heY3QRo4fIuWNPZ8Ojo7j7ugjzebLH3Dwl1FajUykS9r5isZwaJZ6okWykACMQTBu8JSGDkAhR Mpa1MSjXQ0qHINKEkcYIiZAOGIdCLqSr+wA/uf83bN3ZRTyuqClPcfGq5Vy0fBmdl1yAp0OECYkc ReQJJoo58hM58oUie3ftZeuvNrL54c1MhkWaO1qJTEmYLF68mFgsRnd3NzU1NaxYsYLx8XH27NnD 4cOHqaqq4qqrrmLTpk10d3ezatUqzj//fPbu3cuhQ4eorKzk4MGD5PN5Vq5ciVKKTCbD5s2b6e/v Z9myZQwPD1NTU0NXVxd9fX1ceumlrF+/nqqqKqSUeJ6HUuoY8XMiw32292D2RPTjvSlKqWPee7KQ qiiKSkJylmg5fr7O2fRYnGiO0/EeFWPMjPfq+H2dFijTgur48bNCxfLCp/FVULkWwkngOVSQWiow CnREKRB4Doa9EKAUSAEmmooNPoVAEwotHCItiE7SXJVySeIbga+PlXiugLg0OEYjwoiZeGTHwZcG 34QYwEPhCAXSxSTbkU4FQkh7Dr74WAX8n9NoXwC2AZ8H7nw6G/7xz5j/45+deBvnrojufugXyhZ8 tFjmYoDqcCrc64l6KDM1UsRUbRUk0ZRgUY6HUA6hMQRIIsdBSEkUwUjOZ9uBEb53zw627TtKIVQw WSA5muVIIPDjZVxRWUVNMomKAjQRvomI3DhCukgjaWhsYsk113Hp2gvZvn8PeaVJplPs2LEDrTXL ly9n/fr1jI2N8eCDD3Lw4EHWrFnDmjVrGBwcpLOzk0wmw6ZNmwiCgL1799LT04OUkv7+frq6ukgk Eiil6OzsZHJykmQySVVVFWVlZWQyGTKZDIlEgra2Njo6Okgmk7iuOxMGprWeESsnEh/Hi4VpT8OT JTU4WU2S44XB8RPVj/fmnCo715ng+D4dH+7mOA6u6x4jUGaLrOND4axQsbw4GLwfJnZBcRik+1y4 +oMOoPllmOI5sGkHPLYFovAJH/sJ9AZGQywOF6xHrKiFwq9hbEdp+QnFgCmJoOqVjCVvYP+OJvr3 K4Ki+Z3mRhtalyiiJth0NODexwOUAG3AD2H5/Divbx9h+YFfEnvoF5DNImob8N94HQ9U9/LA2C/J hxNcXHUlC8VqwgEHd1zR2qqIO0++WxaLxWJ5TsoU5FQNlFJ015RBKUTJaS5KNVQ0oLWZukUZQj8k 0KClQnrgRwEDQ2Ns3N7Hv9y3i91jPn48g8HBlQkSnqSxbQHzWppJOx4yK/BEDFSIcAKKjgbPJZ6M 4ZSnSQmXczrbWBZeSBRFSClmPBOzf65du3ZmXgoGCsUC8VicyspK2tra0FoTj8fRWh8zR0WKUork 6bCsZUuXUSgWSqFljksYlUKXtNY4jkss5mGMIZ/PE0XRjBdktng4kYgojWXJe2B4Yt7GicTGbHFx vIiZ/beOpgx/8cT708b/tHA62xm1TjZf5nihdKK+TIe4zTWVsRUqlhcG+UMw2QWFfpDec+D6b0AX Ib8UCi0weATT2wVhcHKLXkcQTyE6F0HegXwvTOyeNaHxBNsxISQriWSO3GjE2AD4Bc3s64MxpRtM dQNE5TA4HtF1xMeRgshAMTBUlHtk64qYkcFSXycnEH4RnZ9kwh+iL99FLhhjNL2GgswSZB3CuPO0 UipaLBaL5TSMRCRKq1mT4EsV4zWghcbICESENgEQIYVAKYlf8CEATyVQIk5Y1CVjXfkYUUAgMcaF UBFFEimmJ4prJBrHCQlMgE9AKB0C6aAdDz+EQ/2TPLhxHz/79R4OjTmERYWjJ6mOF2mvibOqvZkN ixezMJ4mGBhh3BckYw7xhIsbk8RiDihNGBbRWjA6NMHAaBYThsSEQmhQykEKBRHISCKkAFXa57zK o6Qm4Uq8hjie4xCLpwgNGKmIlCzNtQk10tcERZ/JXB6/UMSEupR6WYNQAtdzcV2XRDyJG49jgtJc F+EZ4p5DpIqEIiA0IUaDIxWukKANoR+hgwhCiTIujojh4GIiKGYLFCZ8gmJQEiuEaDTSkcQcDzce w0nHcWIejqeQrsHoiCg0GAyh9hnrH0P7Gkc4iKAkUpyEQ7wsjpfy8FwHhCESoD1JKAzaGKQjkUIQ 6VJ9ReWUQviCwC+dH7IkTIWZegFypohOyb+mp+YpnUrAPJnoOllbK1QsL5ar99R/06/nSH9KJXiZ mZF4qi/7TJtZKxJTmVdOtF/iiYvJE9v93ZbiBEMjjmsrjtnm7A9NLxXHjbB1oZwOn7qFvbd8geaJ SRIv0iGII+T5CPld0ua7Z2sbjzyq3uRV2fPtuUIqReED76X34x+h047GGXoOJkrGqxFi2icyc43G lN5XSpae4kcROjQEkUapGDhxIuMSKUCCkBqNC1og8XAct/RZbTBRVKpCLzVR6KNFSdxIJVHSI1s0 HOob5kc/uZ+f/u/DHBgoMuFUQSxFRTKitSbBpcuXsG5xBwe372Lz//wUkw+ISZfGhjrOPW8Fncvb SMQkBJogH7Frxw6+9S//yeaHHyXI5UkgScQSlJfXUJGpIeGlQCu0johMSGCKBKZAPKVoa29ixYUr WXXuamoa6hFKEWpNruAzMpzlwJ4e+g8cYmRwiP7Dh+jr7WHg8BEKkzkc6ZBKJsmUV9DcPI/6hnoa mhtYsKSDeQtbyNSmSqPsT3kwXAemMoqFfojUgrhM4SQcKApyI3mODg7Td2CA/XsPcKj3MIcP9zM8 NMLo2ChjkyOE2qesvIyGxgZa57XT0t5OQ3MjTS2N1DVUU1WTQocBe3fu4/5f/IpD3X0UJgsQGJRR CMD1XCpqK2ibP4/OJZ20LmihorESN+aiJISRJvIjtCxNakdAFEYYNEqqGS+amW1STL2ejo4QL8AQ CytULBbLC5r/5320vu89RMaQm0v7O+7kyMc/TerwADWc4YlX565m/K476a8op9keGctZsOjHowAA IABJREFUfWYjwPWYZ0fiTImUiFAFJZPSSEqFFmVJpkzPS9ByqkYKmMigBUgZRzlJ8qFgaGiEbDZA 65B4QlCWSZBKJPGES+BHhEEeoTWuFLhKQxSB1BgdYbQhCiW5Yshk1tC39xCH9h4hGM0TDzSRzqGj gHmNNbx83Uouv2A5Qz29TBwdws8bYqRAKMYmfLp7+klXJ6isTOAIiIKAyaEcg30j+OMhCRFHBiFh EBGIgFBpQl2a8K9RCMfB82J4TgItihweGCa19yCdS1ZgjMvQwAi7d3axb99Bjhwews+FOCj8fJ6j A+MMHhllfCRHTCriXgKKkvH+LCkxgT9u6Nl9iEc3baeyvozG9hqWnbOYjkXtJCrTBIWQoGiIjMBV cTzlYXzDkUMDdD3exZ7H99F34AiFSR8dSYqFgInJPLnJEN8XIBM4TozAuAyN5XAHRpFqiP6+EbY+ vJ2KygzzFzRRWZ5huH+EicMFxo/kMUGEgyQMg1I2Md8wlBtmYH8/Wx7cSnV9FfULGli6bikLli6g oroS13EJgpDpeafSQGQ0csrTNCVLnnhoOfWbTZVjhYrFYnkxXeQcYs5pXOnK0qUkOzyJM+1p9kWU Z3BTKZL2yFgszx+0MIQyLBmURqKMAhTSyFJleFMyNaeKxSO1BMdBC0UhEPQdGWbb43sZGS8QBCHJ pENLUy3zWxupr60gkYjhxlwcDI7QCF0k9AO0jnAdByEUuXxEMB4xeHCUYChPZ10bzoIYB/uPUlSC pnnNXPWK81h/fhs6nyWSAjeMMEWfAIlwp+dGRjieR7osgww0xbBARaqG+Q2dTPQWKU6Mo0yIi0sq VkZVRRXpikoCDIXAJyREOOCly6iprWTZ8oWsvWgNqVSKQ/uPsvm329m5fQ9h0RBFGoMmkhpXOTQ1 NlFTWcn4yFEmRkYhMFSkKykvqyTwNUExRAhBOOYzlD1Ktn+Uyd5Rhg8eZcGKThramnBjHsIBoaEw kudg12Eee2Q7u7btZPjwEBIHKVx0pEnFkmQaMlQUCgxNjDBemMBNJiivraSyugpPehAq4m4Cv+gz 2DvKxOEstdXVNNXXc+m5G+iu6KKvt5dCPo9CEIYRhWKBoOADkiiAo7kRRg9PMDQwwtDACEtXLaGx tR5PeYRBCDIq5epBYiJdErdy1nkzpVDMcTedud6GtNZzKm45u2ikFSoWi8VisVgsLwCM0GgZAgKp BRqDMgZpNFILpCkF6RoB0XScroqjhSTUhklfM5QNyBsHHI+wENHdO06+4DKRk8xrqKCizAVKKYGF DvGcGERuab2hpDAyQc/ugxwdzJI0KZbUz2NBdRvKEZRVxlm4uIHGpjiO0EyGCcpCScZxmXDjaO0h hMQgkdLBhILQj1BCIhwPoePUVsxj6cIYTlQk7oZUVJWzaNlizlm7kqbORlRaEVESOyiDlqVClcIY gkLEvj19PPrbx+npOogKBK5WOG4MkxSkq1PMm9dEW3szDQ3VpFIxXOFgfIOfD5gYybJnx3669x6g /1A/IyMjhL5PbjLPvt37yY6N4eQjKkUap7Ec6RnGR/Ls39nLow8/Su++gxTG8ngiiRCCRCJGbX0N Ta0NNC9spKGtiYq6clRcUUSRC0Ny+YDBwyPs276PIz2HMaFPPJHAxWF0eIL8WJ72eS1c8brLqW+u LGVZCyMGB4bp3t3D3u176O3uZWJskijQFAuaA3t6mMiNkRud4Lx159GysAXPUYShBqOJuQItFZGZ SiU8o3Knc77JY6XJSbKPHl+j5vjsZcdnIHuq1eytULFYLJbnH8PArUyKTwKQNh3AF4DX2qGxWF54 TGd5MpqZCdDSgDTT1U/MTO4VR0gQgjCKEMYgjCAZT1BbXcXho6MUCxHFbMjEZJb+fYP0ZvYzsbyD 1StbKU/HQSscEUfoUjKWfLZAz74etm3ZyehIDs9LU17uEIu5pOIxamormL+whoqqGA4aQo0mQukQ f7JIYTxPoENQAulKgihAo3ETMaSBYi4gQqCNIl+MCIMingkwkcOEyBMmIkiC9gxaRQQmxDCdAUsR +XDoSD8Pb9zI7sd2U5woknTixFWcsroaGha30LFqPq1tDSTTpYKNoQhBakQcZBKqayoon7eS+avb 2Pn4Ph7ZtJl9u/cyOTGGDkOOTo4wWsgyHORY/9oNJNwUoxPj7Os9wGN7djMxlENpQSIWozxTRvvi Ds5dew7NbfWkqxOopEOIphiFGGVIJh3SlS61DQla5lfS03WEru1d7N++j8GBQWQkUVIynh/BxH3W eitpbK9HCkljVR1V7VW0rmxl57ZdPPLrLezf1U0hnyfI5hkYOcL42AQSRXVNNemKJDNzUKdcJFKW QgQxupR0x0xXUdAIoaZq6kxnEjMnFB3A7xSkPL4Q5nTSnemMbdOZ06xQsVgsFovFYnmhCBUNMixl cZIoMBIdGaKwVKtrOtWwiSK0LM1PKUYa4cZxZYyG6gwxbwHu9n1s27yLHVv2cbRnEF3M47qa7e0N BFdfwfnnnUNVZRpXeRSyAZMTBR5+6BEe+OVDHDk8SOCHOK5HVXUNixYtYs15y+lcUkEyA0b6RMaA iQhCn8nxLP2HBunpPkKgHaSryAeV1LdUEYqQUAYII8jjM5QfZ//gIfb29xFERZQXUi3ylBdaWOL4 FLwQlMaIAJypMCMjENogtGFsdIgdOx5n2yOPUpwoEDMuNZXVLHfPYVXDalrnN5JIORgZIkRE6Z/B SBBKEgiDjCky8QrmOR3sOdzLgY0P0rVnH8V8HmWg+UgjVKRYmltHdVmC0WKeg0ND7D3Sz/hIDmEg nUoyr8xlcV2KzIIa3NoYeZUnjHwiHWIQSOmhiGGMi3QkFXVxUHWMDg/wyEMDPLb1MQoTRRxHkUjF KJoJ6jqrqOioRDsRIRE6DsnmNI1BC8nufRx5ZJC9e/aQL2aJxVzyQciiJUsp5HxS5SmUq0AJtAkJ w7CkcsVUUcZZmb4wAm0MYjqG0EQz5+CJ6sbMFi6zRcl0GuLjP/N8zBZqhYrFYrFYLBbLyYSKkTiR U3oybUqelSDSBEFIFIUgIqQCKSEMAgId4Xox/PwEyABPJcg4ho66SiZrqxmQPYxN+uggxHU0A3t6 uec/fkQ4PMmFF55LdXU5xazm0Yf3sOnBHfR0HUUbgeMmEAKCsEBVTYKW9mpkImQyLKAch7jr4SkH 5bpoLSn6mmIhQgsHKQxF3yfQPgGllMeO46DSLqQVWcdnxBTw0UjhEAaSI8WQoTCiXhpiLihZcguY KERohdAK7UcUskWyYzkiX6OES1CMyGXzTE5Ogg6RRhMUiiANyiulX44wpRTPAnQUYrTGoPAdyYSO 6B+fZKQQ4Ig4UkA2UkwEEl86+I4ih2Ak1AxrQ1aVUkdHMZegqgxdk2YyAdIpImUeocKSqDKlDG2E opRSWAuMFBhTxAQFwnwO4wc4EQijKWZzTIyPEYQ+uBCIkIIullIPS4eiKDIyOcbQxBi5MEA4HsUg Ynh0nKMjYxR1hHAlWkaEUQBSI10BEvSUp6RUCwZ0ZNA6REeipE9kqQb179RmO26+iVIKx3Fm1jVd W2a6js3slMWe5+F5np2jYrFYLBaLxfKCESpaIAM5FWojwQiUkBhXIh0FKkJIjSFEGYU0gigKKEvG 0Vqgo5BUMk55Sz0N8QwVWY/7R2FgoB+DTzwh8XzJjod3EIwXWNDZzoGufg72DmGCOE2NC8jlc/hR kcqaFC+5fB3rLliJl4TxwjjEHYQJmczmcUKBKQpS5ZW0z+9EUkmhaMAx1LRkaGioI5GOlSbXK4NM O1S21tK+ooO8jDGRM4SuR21dFeVtrZh0Bl86SBkRASYq1VlRQiKReMqhLFFBTWUDA2UjBDkfN6Go KK+goqKa4mSR3PAEFdUZXNchCH1CHaGVASUxQoBSaCMphjCRDwiNS7K8lkSmQFTUOEIRS9XhJaso aIMvJMnaetqWrWBxFoZGcvhhSFl5kqbl8ylf0IapShEmNVIEqMggwwh8jYkiHCnxHA9cSYghLn0q Umkaq+oYLh8mq/NgDF7apa6qlkQsARiU5+AQlQSAMGQqyulctJiBlSOk0xVks5N4nsPCzg4WLFlM sixJMQwQjkF5HkJFRDog0lEpfA6eKCIpJXLKq0JJDoKIAPE780umC0wePzF+diHK6XCv2UUgHef5 Z/ZboWI5A+jSyzwXXIqm1I/ZQZ/Tf58s6d9M29nrMU+s70m3o49pfqLNHLPMlCYiyqnK9IapiYlm 9kqmXL5TrxP9s/kLLRaL5ZlDCYUnPLQuhepE2hAZg6b0M4widBiACEqFH6MIE4YEhRxlqQpSsRhR MUBhSJanueqlF9LsZXjw/ocZHRvGEGIImRgc4zeHfsuv791CbU0z0kmSildRlpIExqe+uYqV57XT saiJVJmDcEI8WcGkjMBVqBBE3hBGhkSqjMamVtKJBoTwCEwRlY5IpZMIYSiGBfxQE2pJoirJkjWL SdfMI+cn8N00QhoiL0/X4XFkXNHcmKY85YIJ0Qi0LmU9U8qlrqaJ1SvWEqecidFxQj/ALxQYGhpn 068eYXJyjBXnLaO+tR6kwHHckgfECIpBqUBisZhncCDH9l297O/tR6gkmfIGdGBIuDHq65uorKon lUkRSo12Haqb53GOyBDgERqDkRFl5S5hKk3OlSAjXAxxR+IIhcLgThfvnKpZIzCoCJIiRlWigvpM LZFjiMfjOGmHqlQVMelhQkNBFzCeQUqFLgp0JKnIVLJs0XKaaluJhCYwAWUVKcoqKhFKIYRCilJC hiAKCCMfIU2peCZMFREtGQtaT3tXSraVFCCEmREd0y8zZTPMnpNipuq+SSlKiROmwsaOn6diJ9Nb XlwkmiHMglsF0n16AuO0rG9RsvZPtJ4ogGQTyHKob0TM7yzloz/Zl9No8OKImlpIlINshmjiySvT Y0CHkGrBicdJVylqmhShL451005pj/JqSZQRNAWapc0eSpbiUP0QOuokmfI4srYeMX8R5LJQ04BK ZaiM19KWXkghnKQm0UCKMuIZB+UqKaVUtvijxWKxnH0CE5KngJgqyhgRoaPSzHolS1m/NA4Y54mc sm7plzASTEb5kpHoSqQbEXdcLnx5JzUtDg89+Bv27uqmkC3VCBkdmWRkdJzB3gEWLO4kEavGcRSt 86pYvW4hje11qITEdwICXaSQKyBCg4ODlHGk8QgLGqElygnAHcUAiqhUPV4k0TkHk0+hlCAiJJ5S LFzZiCnrZd/hcXxfEUalJ/ej/Xl2Hy2SSSWpqUxSlfFJygIJ4VLhJqmNJamqSnPRhedR6cbZselh xg4N4UQRKu8T7c/yWM8ge+7bTlVLHZmWKkwGcrEYfqocU54mcAVHx0PyRcgVDUficSY8B5SiCkW9 StIeeTTnBbEJg6xwiBxD3oXJpGQi0hiliLmKWFxhhCAWCcp9SSKUKD1VRFNIhHIoegojFCoSeJHB lR5EEj8wCDeOTAoCIQlCTSQcEA4x6eHEFAEBkdYIpfAdD6MFxSBCaxBGEJMuGZWmTKVQeUUs6aAx 6AgcFUdKF4QuiVwitNBoNXXqaIHRJSGsIzX1sLP0cFJGGhmBElMJHGYecJbMIQEIKUr1fURpLg5S I9BTBTJ9pIkwnod4Hk2qt0LF8rT4WU0n/WVpsuEESpzuiV96GlAba6AjcxmP6zoeLkjGn0RTGCCj 4KIyuHr3DuTWhyE7WQrgnG5vTEmUBIvgnOXD5rqLt6LUdiDPya16A8RCw/L9R1nz8ODLKnqOGmFO ksRca1joCC5rkgNLLzdbV0qzF9RJiwquIMZb18dO8E4NLH095pWvn+mMA1zCSi6puurYplUIIAL2 SynewBkuSmiZExngXaTNdJavGNBqh8VieWEyHZoz/Zxs6g6G0U+khtVaz4TcTBuYMxOfp0N7pEQJ hdHglrksXruEZEOa8O6fs3XTY/Qd7WdivIAUCj9f4PE9eTqdTl667lIuuHQ1XjKGViGh8ZFTcxhc JJ5yS1nIdGnShzECGY+IVAGfbKmqvRIYRxOYLMVglLhvMI7CjwLCIngC2ptqETLLnp5J8mEws9+R jhgbHmJ82HDQlXjKYAKfhFDMq62js7WV6soULRctJqyI2PxQkSO9B8E3ePr/b+9enuO4svyOf8+9 NzPriUIBKIAE+KaoB8VutWLUnglHuG33zjGenZde2X+Ad174X/HOG6+88D/gCMes3GHFuF+Su+UW JT5FkCDeVZWZ9+FFVpaKaGlaarljmvL5RCD4QlYlsgrE/eW995wR+B7ls5qPH/2OE/8RL6s5B75k njt625vs3r7NnXffZbQ+Zn5eYc4zXNlBYo/cFBRZH2fXIOX4WCFhhg9zYjrBmjNcMqRkMAFSMM3e k9ghpUBMNSZ92awzIYTYbGh3GGwSqnlJrKcIcxJTQkwYa8gyh9gZIiUxzilnM4INuCzDWsEajzUV WebJitjs/wkVJY6SM7ytSHkBEkhpUelMIjEFIGGlWUIYUyREiClhxOCcRVw7ToqkEEkxYQgYaRpG tg0iZXGjVxLN4xu7mD1JGAsxJsRBTB0ky5uNVK8RDSrqO/nF4X/nt2e/4KB8Tib5t4wpTSOo2723 sPYmf+vX+C9nOc/q+mvCQWI3M4gr+JtPf435b/8VDp6TrF35yRGhqpDyr+Hq1VMZDrtisn8NjL7B KR35On766IU/+9uP6tGH90uJMX3lxE1K4GPiJ3c7/ODa4HjUkcwY+VfARN8V/19wwO7iQyn1PZdS IoSwDCWr6/7b5TSrG5gvHgs01Z4Wd6IyHDZZok8Mttb45//ypxycHvH5/iPqbIYxGc45els5d35w g9t3byBdwfWEIDCtZpSnU5JExAjeSFN9LOU46RKSUJk5wZZEWzW33I1QuIJeP2MwKChySxAQY0jW IMbS73RYH25y+6rj8dN9nr844Gw2paprSqmpF5ve/eJn4zwlHhw8INo59968w/a1ET/Y/YDr79/k 8WcPeHz/CY8/3uf4izlhVlKeeqb1jBg9WUqEuobTM9LRIdn5Cb1BB5tBnKxRXJ0wLQydOjG0js6a Ie8nel2wBfTzSN/VdJhR+kRC6GU5m70hm92cnoFCErmxWGlHCQawzdcsFiORFGsIc7IChuOCfAhT P0UEbN4lZDXRBSQDZ5o9IE31roTYQHeYYbuR6eERZaiwmUBniOuC6SSC8YTkm8DE8qVY3pQMMRJ9 xPtACImUDCIGY8DQVJVLi43zqaltvAi90tzVTYtQDCQjGJdIsqjsYAziBItFosGI4XVbiaFBRX0n RiwWhxX7rWdUEoZIwGAxItjFfyHI13wfpeaHgZHm7hTWNR/GfDkFkwzY0M6yyLf8hmyKBApijWAX EzVfF1QS0k636vorpZT6Hru4mXn1zxfX/Lf7Bowxr/StWK3KlETwKWILQ9cVdEdd/u2/+zfc/eAe f/c//xehjhSdghs3rvH+j9/j+hu7IODTHGyimxfkGIxJWGcJqRnMkjKIGTET1tOIvfoK65PR8kdc v18w2d5gOOw3e7ZTwrkMYx0pCcEIXWMZWMPmzR3SzR18SBydnXHw8pDT8ylJIMuyRV+QyLDf440b ewy7HSRGfAnrO2O297a4+949Zj+pOXx6wqOHj3m2/4yz6Yyy9pQxYIsOG5cmTPYuMxyPWB+PGI97 pPodnj3Y5+nvHjA9OGQgjstbE/Zu7TEcZAQi48xSjQYUNmMem/JYvSJna73PZNhhCOS1kCeHTc0A XcSSsJjkiBhiiPiU6I7XuPPeXUab21x78w7Pn78gARvbm1y/c52tKxtUBJKxzbKpGEAsw80Rb9y7 w2B9zMuDQ6blFCSytj7kyt4ueT8jpNjMlFiLNUJKkXZOI4aESaZZvmUWYxsMiMFIwkpAYvvaflm9 q51LYRFQaKun0az2iG21Y9Ki0HHCpISx7Y4YrfqllFJKKfW90M6UrAaTdjal/XU1jLS/vxh2lr/P DJFE5T2ekjwvKMY5P/2bn/DTf/FPKGeePC+aJUBGmuGmRASIRDCRzFogUXtPSAmRJmykmBBrGW6M 6fQHCIIRg/c1pBrrmuFr9B5jHZkUhBpCHXHGYYwlBE8WEy7LyHsFu8Me8fJ2M7xd3JQPvmlIaU0i enDzZpwt4pBoiGUg73UYrXXZutLn9o92cMZgrBDrRPQJsYLNmpkdnyIhRcR4rLFcXt/mg3tb5CJY H0g+4AUqAVcLY9elv9nnxsQhzjTV1TzkEuikiC0hS45s0ZSzuf7SBBVcU8zGCrVEyjrgig6X3rjG 5Na1ZlmfkabKmU3gIpV46lhjREjJLG6eWvKNda6vb3DbCdYkfB0XywAhSKD2nkws1jb7l2LtMW3Y iKnp0UOzAZ72hm9KiCRIgklNj56mx6Y0x66832JbjnhR7hmEKAaMbSqImTawRFLSPipKKfVn5Vcf 8fnPPiTM59/8FtJ/+PfMgQd/ivP5T/8ZgPv6yqg/paIg/fgvMD98lxt6Nf7feWXfCV8uCfu6QPJV f5eA4GuiSWAhSaKmXi4rM07I+oZIRRlTsyORhJhE07k8IovtmJAQsTiTgeQEDz4kYhRSHZnPS2bn U8rSk+WWQb9LgcUaQ/CR6eEZxy+fcHRwQl3WGOMWK4YCo9Eae1f2GGxt4kSYT+e82D/g4edPOHi5 TzmbIl7o2AIrGSF5qlgSY2SQ99me7DC5uk3/yhA36mALQzWrON5/yctnLzg9OqGuK0QgK3JGW2PG G2NG6yM63Zzazzl48Yynjx5xePACX5Z0iy7bO2+wOdljsDaiEOH4+IRnz/c5eHnI+cmUel5BCDgS uTGYmPAh4iUiTnApQyJEE4lFxA0KNi7tcOXaNdbGayQnzH3gdFpyfH5OSIHhsE+v1yM1DVAIseZ8 OuXo8JTTsxk+QJHlrPe6rHW79DpdiiwjBWF6esrp8RFnJ6eU05JYe6Tp99jsTQnNbIlxjsz1GA7X 2d7ZYGtriIilDhWnxyfsP93nxbMXTKdTfKybal5RsMZQdAr6a2tsXd5hY2dCZzggBKEMNSfnJxwc HXFWVUw2Rty9dolunr0233MaVJRS32v37nL93l29DkqpP56IvLKMqw0pXxVe/lD5VwFs09++WaG8 ONQkgEiSJsAI4JxZbppe3la/UCEzAT4K3tfEYBDJsNZxeH7GgwcPefrkCdPZjG43Z3uywc2rV9kY rVNWc+5/9ohf//xjjg+OqWceIxaTJSSv2Z5scXd6zpvhDoUtuP/JZ3z4sw/537/8iNnplNxmOAyx 9hASuXM4a4jBE7yn1+9x5dZ13v/rf8a199+hnNc8vv+Yj375Kx7+7jOq+Zwi75C5DETY3Nng7Xff 5u1315lNK37zm/t8+LOf8eknv6U6Pydzlk7RZTT6lB//+C+59+5diizn899+ws//7uc8/PwBs/MZ VgySmhK+gixK/kZk0UckhkiIzexYyCKlremOh9x65y0++Md/ydU7N6iIPDl5yW8++T/M5yXro3X2 di5zaWcHg/Dsi+d89vAhL16+pIp+0bQyYIPn8niD29dvsnt5F3zg4aMv+PQ3n/Dk4WNmZ1MIsdkw byximiVrMYEPAR8j/cGAK1ev8s47b3L71hWODg/5+Ncf86tf/JKnDx8RvSdzGWaxL8qHQEiRzqDP m3ff4YO/+kfcuHOLksjjL77g6f4zDk5POUwZe1XO7d1EN399vvc0qCillFJK/YGg0jbYuzijcvHz vtHjeZZNttqeGJ70e4/nl5skFxsQls+73LLAonZts4xK3GIJUGTQz9m7uk1/lDObz+l0czbGa/S7 XaSAvi24cfsKnSzj8WdP8PNIkXdIRSQUNZcvX+La1SuMttbITc7N/Cb5MOfq7T2ePd6nnM4xSXAi NMXym2padV2T5xmX9y5z44032LixR+4MRb+Du7ZHxxr2JtucnpwSY8K6jLxTMNndYXt3h2LQo+gI b717h8FwwK1bb3D84gWprun1B+zeusm1GzcYbw6xyXNTruByz5WrG5yenFJXgaYasQGXEWITApCm d0kMTQ80Z4Uis3R7BVuXtrjy5k3GezvYjkFSYHOj4K23rlCWNf28z6gzJPcBk4RJf4jb3WXc73A6 n+IlkOWO9f6Aydo6m2sj+v2MVAvb2+uYeJ3JxhrVdN5U8ApNz5QQI4mEGNPsfbHCYDRi98oe169f oT/IydcmmA6sbfR5+vARZ8cn+LIkhabKnHWOvMhZ39xk7+Z1dq/ukHcMAuxcGuM6Qn5U0KkTk3EP Z7Xql1JKKaXU9yqotJW9Qmg6k7eN9Np/M8Ys/+5icHllEz5gMEiUZi9EiqQEcTFT0nQkb46P4cum wiw2hKd29/Syi7knxjm5bZZtNTMGFTYr2NgasrbZIwRPIiIERDw+RYyJbGwNuLwz4cfv/wibHL6O zE2FHwSMNRAidYpgPZ2NDrfXb3P3/bdIISHJYKUJb7X3zelYiJIIofmzyzPEQorNcqxiI7G1sccP f3gNkiUtGo8lkwg2EkiEUDOPnmJgefvede794BYmJljsxanygjIkTufnSKgo1gveee8O9354Z1FD x+I91BFc0SUZx7yqqKoKkUSWZRS5pZO7piCBj2AhdoU5FbP6jNwJm2sFa/2tprqXt+TR4ZJDIgxc j421LrduXCaYSJlqal83oS0lCJ7z6RGZWLYnI65dmpAZi0Wa2R6ass8ii/1PMeJTZO5L5nXVhFRm HJ2f41zG+vYao413eO9Hb5Nb1zxOWGyVX+y9CSmCM+As3lSkFBmOckaTXW7Zq8SUyIGefb06GmhQ UUoppZT6e7R9Ui5+tOHjq6p7fWVIEUEWi7kSiRibwJNSbCo1rYQUWS09m1h0Gl/EHLN4nKbwE9YY Mmcx1mKcIcNQh0BVzREjdPMMY23TRyQEfF3jnMNhqKo5IRoycVTJ8/DpE56cPuWW5YJHAAAHmklE QVTmrZvsbG2TuYzZ+YzTkxOijwx7fbLcYY1BaMpjSsc2TQqJGGcwPUeIgcrPmpYBvsYZQyfvNpvv Y40PJbUPhBAxmSPL8qYMr0Sy3EJKlOU5ZYxYpFkqZS1Tf4rNuhTDAmrBhIA1Dpua5VcxJkzHYpNQ +jnJWHqbBUObc3JyzvPnz0gpMOx1GfeHdLMOyQrT6ZSj4xccnL3EdHPGm5tkeUFHHDF5QlkSo5Db rOnnaW2TH31NLgFnmpBFTBgE6wzNZ3h8SsgimIks6m4Zi7Wm+ZpjRCTRKRwZBhazLGGx+T2Fpp0D JhFS03AypYAsgmtc9H2xNlvsx2+KHIg0s0OxrnEhUFiL2C5a9UsppZRS6nsWVtpQYlaa5l0MJV+3 /GtZqYmENwkfmypSbX+VZfWw9OoMTnts4steLgaz/PxEwkhOTAUGhyFRzecE7ymcw4nFhIQva46O jjg+PqbX6zEej8FCWZV47+l0OgQb8EzJfKQvDqlqgg84iWQWpuWco9M5x8fHrK2t0el0ODw8ZHd3 t9n/ESNVGbDW0u12scC8jlRV0/Bw7qEoCrz3nJ+fc35+znw+R0S4dOkSw+EQa4RqNmd/f5/9/X12 dnbY3NykTgkTIx1nIVWcnpyyv79PXddcvnyZPM8JIZBSoqoqTk5OODk54fj4mPF4zGAw4OzsjMlk wmAwJM9zzus5+ycHGGPIsgxvDZARZ4nyaM40nDMcDpnNZrx48YIQAqPRCGMM/X6fPM+Zz+dUVcVs NuP8/BxrLcPhkOFwiOt0SEZIzpAyAWdBhBRjs0wupaYqlzRBOPiwfC8408zOeO+bPTYiSGYI0BRL SPaV6l91jBArjG/KYhsEqWtMMOTWApaYTLN35zVqqqBBRSmllFLqD4SU1Y92RmX17wCstVhrf6/n ykVmsbG7Pab9/IvPs9qPpQ0uabWfxuKxY4xkWYaIMJvNeP78Offv3+fWrVsURUFKie3tbTY2NpYh wjnH0dERJycnjMdjXr58uTyH1UAmIoQQmM1mlGXJ5uYmo9GIg4MDDg4OWF9fp65rHjx4wNraGpPJ hPl8Tl3XhBA4OTkhpURRFNSLmZz5fM6jR484PT2l3++TUmJzcxNrbRN2Fku1lsGsDWUpUZYlx8fH HB8f8+LFC+q6ZjRqesXkeU6WZeR5jnOOqqrY39/n/PycPM9JKTVVs7yn1+vR7XaXx7YB5/T0dBkO 6romyzKqqmI6nS5fr16vR5Zly2slItR1zdnZ2fK1LYoC59zy+q2WtV59X60G2dX3QHtMnuevNBQV keV7pw257XVbPZ/V92r7erbvo9eJBhX1nVjT1AZ3JsPJt3s7NasrDc66RQUMoTBC13x9C8XCgBMQ axFnm7sTxn35+c0cKOIcyZhvP7spiBHBWSGzhmji7995WPy/IhGcE/6Yp1FKKfX6agd+FzfXr4aa i7MrFwelX3Xs6oB0dQBaluUrAcUYsxzwtgPjqqqw1pLnOZcuXWJzc5Nut7sccNd1DcBoNMJauxxE 53lOp9NhbW0NgK2tLQD6/f5y3421lt3d3eV5pZTY29tbDoKLomA4HC7PsT12Op2SZRnz+ZzZbEan 0wFgfX2dbrdLCM3sSwiBTqezfPzBYLD8OlaDXDtIH4/Hy1AUY2QwGLyyV6gdlO/t7bG9vU2e5/T7 /eV1cs4tB/Ht49d1zXA45K233gKappbtuR0eHjIcDjHGMBwOl7NC3vtlKOn3+8vzbY+9eE6r5azb 578YXlb/LaW0/LfVoNIuNWz3StV1vfz8NmCufrTncvH99lp8r6XX8azVP7SXMcb/KCL/9CB8cbmM M+pU0fSW/7ZRJdE1Xfp2wjEdDiLUfE1jeiADJhZ2pmfI4QHU9atzmIvqKTIak4ajp1hbizHvAWvf 4ISOYky/nFapc1zKZFomSV/VwDV9WRxyrSNsDfjcGmZG5C+ALX17KKXU90qazWb/4+Tk5K9Wg8hX hZf219UB6uoAcXVgGmNc3rlfDR6rd8bbwa33fjloXR3Urj7+xYFoOyPRLmsyxiyfz1r7yt346XTa LLtaBCPn3PKY1a+tHZy352+MoSiK5fKtNvy0RQfaSmntubbnUJYlzjk6nQ7GmOWAe3WGqH381Vmk 9tzb2Yz2erbXZ3UWqr1+8/n8ldC3OlvUHp9l2fJ52nNvz7mdBRKRZchZveYXX8f2+dvzba+Lc+73 ZlMuzppdDCjtOa/O4K0G3dXZk7bIw8X3ZhtkFx/3syzLRWRPg4r6Xv+nTVMo8XVocWpY9tH9k35d 3+Z5lFJKvV58+hZtvb/p8po/NAT7JnfBvy6ofKfB4d9z/qvP9ccuI/oux/5ZDoq+RR+df+hxP2AX 4xUNKkoppZRSSin1xzB6CZRSSimllFIaVJRSSimllFJKg4pSSimllFJKg4pSSimllFJKaVBRSiml lFJKaVBRSimllFJKKQ0qSimllFJKKQ0qSimllFJKKaVBRSmllFJKKaU0qCillFJKKaU0qCillFJK KaWUBhWllFJKKaWUBhWllFJKKaWU0qCilFJKKaWU0qCilFJKKaWUUhpUlFJKKaWUUhpUlFJKKaWU UurPy/8FR0NYtzp0WCMAAAAASUVORK5CYII= "
       preserveAspectRatio="none"
       height="55.260113"
       width="205.24107" />
    <rect
       style="fill:#5eeb23;fill-opacity:0.2396166;stroke-width:1.16344178;stroke-miterlimit:4;stroke-dasharray:none"
       id="rect899"
       width="31.372023"
       height="18.898809"
       x="11.731232"
       y="158.69673" />
    <path
       style="fill:none;stroke:#000000;stroke-width:0.3823052;stroke-linecap:butt;stroke-linejoin:miter;stroke-miterlimit:4;stroke-dasharray:none;stroke-opacity:1"
       d="m 74.918131,184.74107 -0.247368,26.45834 H 195.88038"
       id="path919"
       inkscape:connector-curvature="0" />
    <path
       style="fill:none;stroke:#000000;stroke-width:0.86500001;stroke-linecap:butt;stroke-linejoin:miter;stroke-miterlimit:4;stroke-dasharray:none;stroke-opacity:1"
       d="m 105.45529,89.869052 0.75595,202.595238 v 0"
       id="path936"
       inkscape:connector-curvature="0" />
    <path
       style="fill:none;stroke:#000000;stroke-width:0.86500001;stroke-linecap:butt;stroke-linejoin:miter;stroke-miterlimit:4;stroke-dasharray:none;stroke-opacity:1"
       d="m 188.9881,89.491069 0.75595,202.595241 v 0"
       id="path936-3"
       inkscape:connector-curvature="0" />
    <path
       style="fill:none;stroke:#000000;stroke-width:1.03263843;stroke-linecap:butt;stroke-linejoin:miter;stroke-miterlimit:4;stroke-dasharray:none;stroke-opacity:1"
       d="M 3.7928519,136.90459 293.69058,136.57161 v 0"
       id="path936-0"
       inkscape:connector-curvature="0" />
    <rect
       style="fill:#394d59;fill-opacity:0.2396166;stroke-width:1.16344178;stroke-miterlimit:4;stroke-dasharray:none"
       id="rect899-3"
       width="31.372023"
       height="18.898809"
       x="59.153275"
       y="158.69673" />
    <rect
       style="fill:#5eeb23;fill-opacity:0.2396166;stroke-width:1.16344178;stroke-miterlimit:4;stroke-dasharray:none"
       id="rect899-1"
       width="31.372023"
       height="18.898809"
       x="111.21246"
       y="158.50967" />
    <rect
       style="fill:#ccc559;fill-opacity:0.2396166;stroke-width:1.16344178;stroke-miterlimit:4;stroke-dasharray:none"
       id="rect899-3-7"
       width="31.372023"
       height="18.898809"
       x="151.95802"
       y="158.50967" />
    <rect
       style="fill:#ccc559;fill-opacity:0.2396166;stroke-width:1.16344178;stroke-miterlimit:4;stroke-dasharray:none"
       id="rect899-5"
       width="31.372023"
       height="18.898809"
       x="201.75195"
       y="157.98041" />
    <rect
       style="fill:#394d59;fill-opacity:0.2396166;stroke-width:1.16344178;stroke-miterlimit:4;stroke-dasharray:none"
       id="rect899-3-9"
       width="31.372023"
       height="18.898809"
       x="249.65329"
       y="157.98041" />
    <rect
       style="fill:#cc4d59;fill-opacity:0.2396166;stroke-width:1.16344178;stroke-miterlimit:4;stroke-dasharray:none"
       id="rect899-5-6"
       width="31.372023"
       height="18.898809"
       x="201.75195"
       y="197.59225" />
    <path
       style="fill:none;stroke:#000000;stroke-width:0.465;stroke-linecap:butt;stroke-linejoin:miter;stroke-miterlimit:4;stroke-dasharray:none;stroke-opacity:1"
       d="m 29.860118,177.9375 v 12.09524 l 99.785712,-0.37797 V 177.9375"
       id="path1063"
       inkscape:connector-curvature="0" />
    <text
       xml:space="preserve"
       style="font-style:normal;font-variant:normal;font-weight:normal;font-stretch:normal;font-size:6.3499999px;line-height:1.25;font-family:'DIN Pro';-inkscape-font-specification:'DIN Pro';text-align:center;letter-spacing:0px;word-spacing:0px;text-anchor:middle;fill:#000000;fill-opacity:1;stroke:none;stroke-width:0.26458332"
       x="75.143654"
       y="165.25667"
       id="text1067"><tspan
         sodipodi:role="line"
         id="tspan1065"
         x="75.143654"
         y="165.25667"
         style="font-style:normal;font-variant:normal;font-weight:normal;font-stretch:normal;font-size:6.3499999px;font-family:'DIN Pro';-inkscape-font-specification:'DIN Pro';text-align:center;text-anchor:middle;stroke-width:0.26458332">export</tspan><tspan
         sodipodi:role="line"
         x="75.143654"
         y="173.19417"
         style="font-style:normal;font-variant:normal;font-weight:normal;font-stretch:normal;font-size:6.3499999px;font-family:'DIN Pro';-inkscape-font-specification:'DIN Pro';text-align:center;text-anchor:middle;stroke-width:0.26458332"
         id="tspan1069">CSV</tspan></text>
    <text
       xml:space="preserve"
       style="font-style:normal;font-variant:normal;font-weight:normal;font-stretch:normal;font-size:6.3499999px;line-height:1.25;font-family:'DIN Pro';-inkscape-font-specification:'DIN Pro';text-align:center;letter-spacing:0px;word-spacing:0px;text-anchor:middle;fill:#000000;fill-opacity:1;stroke:none;stroke-width:0.26458332"
       x="26.048706"
       y="165.25667"
       id="text1067-1"><tspan
         sodipodi:role="line"
         id="tspan1065-7"
         x="26.048706"
         y="165.25667"
         style="font-style:normal;font-variant:normal;font-weight:normal;font-stretch:normal;font-size:6.3499999px;font-family:'DIN Pro';-inkscape-font-specification:'DIN Pro';text-align:center;text-anchor:middle;stroke-width:0.26458332">export</tspan><tspan
         sodipodi:role="line"
         x="26.048706"
         y="173.19417"
         style="font-style:normal;font-variant:normal;font-weight:normal;font-stretch:normal;font-size:6.3499999px;font-family:'DIN Pro';-inkscape-font-specification:'DIN Pro';text-align:center;text-anchor:middle;stroke-width:0.26458332"
         id="tspan1069-4">METS</tspan></text>
    <text
       xml:space="preserve"
       style="font-style:normal;font-variant:normal;font-weight:normal;font-stretch:normal;font-size:6.3499999px;line-height:1.25;font-family:'DIN Pro';-inkscape-font-specification:'DIN Pro';text-align:center;letter-spacing:0px;word-spacing:0px;text-anchor:middle;fill:#000000;fill-opacity:1;stroke:none;stroke-width:0.26458332"
       x="216.54871"
       y="205.0954"
       id="text1067-17"><tspan
         sodipodi:role="line"
         id="tspan1065-1"
         x="216.54871"
         y="205.0954"
         style="font-style:normal;font-variant:normal;font-weight:normal;font-stretch:normal;font-size:6.3499999px;font-family:'DIN Pro';-inkscape-font-specification:'DIN Pro';text-align:center;text-anchor:middle;stroke-width:0.26458332">import</tspan><tspan
         sodipodi:role="line"
         x="216.54871"
         y="213.0329"
         style="font-style:normal;font-variant:normal;font-weight:normal;font-stretch:normal;font-size:6.3499999px;font-family:'DIN Pro';-inkscape-font-specification:'DIN Pro';text-align:center;text-anchor:middle;stroke-width:0.26458332"
         id="tspan1069-1">CSV</tspan></text>
    <text
       xml:space="preserve"
       style="font-style:normal;font-variant:normal;font-weight:normal;font-stretch:normal;font-size:6.3499999px;line-height:1.25;font-family:'DIN Pro';-inkscape-font-specification:'DIN Pro';text-align:center;letter-spacing:0px;word-spacing:0px;text-anchor:middle;fill:#000000;fill-opacity:1;stroke:none;stroke-width:0.26458332"
       x="126.96835"
       y="165.78587"
       id="text1067-170"><tspan
         sodipodi:role="line"
         id="tspan1065-4"
         x="126.96835"
         y="165.78587"
         style="font-style:normal;font-variant:normal;font-weight:normal;font-stretch:normal;font-size:6.3499999px;font-family:'DIN Pro';-inkscape-font-specification:'DIN Pro';text-align:center;text-anchor:middle;stroke-width:0.26458332">import</tspan><tspan
         sodipodi:role="line"
         x="126.96835"
         y="173.72337"
         style="font-style:normal;font-variant:normal;font-weight:normal;font-stretch:normal;font-size:6.3499999px;font-family:'DIN Pro';-inkscape-font-specification:'DIN Pro';text-align:center;text-anchor:middle;stroke-width:0.26458332"
         id="tspan1069-0">METS</tspan></text>
    <text
       xml:space="preserve"
       style="font-style:normal;font-variant:normal;font-weight:normal;font-stretch:normal;font-size:6.3499999px;line-height:1.25;font-family:'DIN Pro';-inkscape-font-specification:'DIN Pro';text-align:center;letter-spacing:0px;word-spacing:0px;text-anchor:middle;fill:#000000;fill-opacity:1;stroke:none;stroke-width:0.26458332"
       x="165.8999"
       y="165.78587"
       id="text1067-8"><tspan
         sodipodi:role="line"
         id="tspan1065-5"
         x="165.8999"
         y="165.78587"
         style="font-style:normal;font-variant:normal;font-weight:normal;font-stretch:normal;font-size:6.3499999px;font-family:'DIN Pro';-inkscape-font-specification:'DIN Pro';text-align:center;text-anchor:middle;stroke-width:0.26458332">export</tspan><tspan
         sodipodi:role="line"
         x="165.8999"
         y="173.72337"
         style="font-style:normal;font-variant:normal;font-weight:normal;font-stretch:normal;font-size:6.3499999px;font-family:'DIN Pro';-inkscape-font-specification:'DIN Pro';text-align:center;text-anchor:middle;stroke-width:0.26458332"
         id="tspan1069-16">SEDA</tspan></text>
    <text
       xml:space="preserve"
       style="font-style:normal;font-variant:normal;font-weight:normal;font-stretch:normal;font-size:6.3499999px;line-height:1.25;font-family:'DIN Pro';-inkscape-font-specification:'DIN Pro';text-align:center;letter-spacing:0px;word-spacing:0px;text-anchor:middle;fill:#000000;fill-opacity:1;stroke:none;stroke-width:0.26458332"
       x="215.41478"
       y="165.40788"
       id="text1067-6"><tspan
         sodipodi:role="line"
         x="215.41478"
         y="165.40788"
         style="font-style:normal;font-variant:normal;font-weight:normal;font-stretch:normal;font-size:6.3499999px;font-family:'DIN Pro';-inkscape-font-specification:'DIN Pro';text-align:center;text-anchor:middle;stroke-width:0.26458332"
         id="tspan1069-19">import</tspan><tspan
         sodipodi:role="line"
         x="215.41478"
         y="173.34538"
         style="font-style:normal;font-variant:normal;font-weight:normal;font-stretch:normal;font-size:6.3499999px;font-family:'DIN Pro';-inkscape-font-specification:'DIN Pro';text-align:center;text-anchor:middle;stroke-width:0.26458332"
         id="tspan1134">SEDA</tspan></text>
    <text
       xml:space="preserve"
       style="font-style:normal;font-variant:normal;font-weight:normal;font-stretch:normal;font-size:6.3499999px;line-height:1.25;font-family:'DIN Pro';-inkscape-font-specification:'DIN Pro';text-align:center;letter-spacing:0px;word-spacing:0px;text-anchor:middle;fill:#000000;fill-opacity:1;stroke:none;stroke-width:0.26458332"
       x="264.17371"
       y="164.65193"
       id="text1067-64"><tspan
         sodipodi:role="line"
         id="tspan1065-8"
         x="264.17371"
         y="164.65193"
         style="font-style:normal;font-variant:normal;font-weight:normal;font-stretch:normal;font-size:6.3499999px;font-family:'DIN Pro';-inkscape-font-specification:'DIN Pro';text-align:center;text-anchor:middle;stroke-width:0.26458332">export</tspan><tspan
         sodipodi:role="line"
         x="264.17371"
         y="172.58943"
         style="font-style:normal;font-variant:normal;font-weight:normal;font-stretch:normal;font-size:6.3499999px;font-family:'DIN Pro';-inkscape-font-specification:'DIN Pro';text-align:center;text-anchor:middle;stroke-width:0.26458332"
         id="tspan1069-08">CSV</tspan></text>
    <rect
       style="fill:#394d59;fill-opacity:0.2396166;stroke-width:1.16344178;stroke-miterlimit:4;stroke-dasharray:none"
       id="rect899-3-9-1"
       width="31.372023"
       height="18.898809"
       x="111.21246"
       y="232.36607" />
    <text
       xml:space="preserve"
       style="font-style:normal;font-variant:normal;font-weight:normal;font-stretch:normal;font-size:6.3499999px;line-height:1.25;font-family:'DIN Pro';-inkscape-font-specification:'DIN Pro';text-align:center;letter-spacing:0px;word-spacing:0px;text-anchor:middle;fill:#000000;fill-opacity:1;stroke:none;stroke-width:0.26458332"
       x="126.21233"
       y="239.64175"
       id="text1067-64-0"><tspan
         sodipodi:role="line"
         id="tspan1065-8-2"
         x="126.21233"
         y="239.64175"
         style="font-style:normal;font-variant:normal;font-weight:normal;font-stretch:normal;font-size:6.3499999px;font-family:'DIN Pro';-inkscape-font-specification:'DIN Pro';text-align:center;text-anchor:middle;stroke-width:0.26458332">export</tspan><tspan
         sodipodi:role="line"
         x="126.21233"
         y="247.57925"
         style="font-style:normal;font-variant:normal;font-weight:normal;font-stretch:normal;font-size:6.3499999px;font-family:'DIN Pro';-inkscape-font-specification:'DIN Pro';text-align:center;text-anchor:middle;stroke-width:0.26458332"
         id="tspan1069-08-2">CSV</tspan></text>
    <rect
       style="fill:#ccc559;fill-opacity:0.2396166;stroke-width:1.16344178;stroke-miterlimit:4;stroke-dasharray:none"
       id="rect899-3-7-9"
       width="31.372023"
       height="18.898809"
       x="249.65329"
       y="232.36607" />
    <text
       xml:space="preserve"
       style="font-style:normal;font-variant:normal;font-weight:normal;font-stretch:normal;font-size:6.3499999px;line-height:1.25;font-family:'DIN Pro';-inkscape-font-specification:'DIN Pro';text-align:center;letter-spacing:0px;word-spacing:0px;text-anchor:middle;fill:#000000;fill-opacity:1;stroke:none;stroke-width:0.26458332"
       x="263.59515"
       y="239.64227"
       id="text1067-8-7"><tspan
         sodipodi:role="line"
         id="tspan1065-5-5"
         x="263.59515"
         y="239.64227"
         style="font-style:normal;font-variant:normal;font-weight:normal;font-stretch:normal;font-size:6.3499999px;font-family:'DIN Pro';-inkscape-font-specification:'DIN Pro';text-align:center;text-anchor:middle;stroke-width:0.26458332">export</tspan><tspan
         sodipodi:role="line"
         x="263.59515"
         y="247.57977"
         style="font-style:normal;font-variant:normal;font-weight:normal;font-stretch:normal;font-size:6.3499999px;font-family:'DIN Pro';-inkscape-font-specification:'DIN Pro';text-align:center;text-anchor:middle;stroke-width:0.26458332"
         id="tspan1069-16-6">SEDA</tspan></text>
    <rect
       style="fill:#ccc559;fill-opacity:0.2396166;stroke-width:1.16344178;stroke-miterlimit:4;stroke-dasharray:none"
       id="rect899-3-7-4"
       width="31.372023"
       height="18.898809"
       x="14.325214"
       y="232.06378" />
    <text
       xml:space="preserve"
       style="font-style:normal;font-variant:normal;font-weight:normal;font-stretch:normal;font-size:6.3499999px;line-height:1.25;font-family:'DIN Pro';-inkscape-font-specification:'DIN Pro';text-align:center;letter-spacing:0px;word-spacing:0px;text-anchor:middle;fill:#000000;fill-opacity:1;stroke:none;stroke-width:0.26458332"
       x="28.26712"
       y="239.33998"
       id="text1067-8-6"><tspan
         sodipodi:role="line"
         id="tspan1065-5-3"
         x="28.26712"
         y="239.33998"
         style="font-style:normal;font-variant:normal;font-weight:normal;font-stretch:normal;font-size:6.3499999px;font-family:'DIN Pro';-inkscape-font-specification:'DIN Pro';text-align:center;text-anchor:middle;stroke-width:0.26458332">export</tspan><tspan
         sodipodi:role="line"
         x="28.26712"
         y="247.27748"
         style="font-style:normal;font-variant:normal;font-weight:normal;font-stretch:normal;font-size:6.3499999px;font-family:'DIN Pro';-inkscape-font-specification:'DIN Pro';text-align:center;text-anchor:middle;stroke-width:0.26458332"
         id="tspan1069-16-7">DOCX</tspan></text>
    <text
       xml:space="preserve"
       style="font-style:normal;font-variant:normal;font-weight:normal;font-stretch:normal;font-size:6.3499999px;line-height:1.25;font-family:'DIN Pro';-inkscape-font-specification:'DIN Pro';text-align:center;letter-spacing:0px;word-spacing:0px;text-anchor:middle;fill:#000000;fill-opacity:1;stroke:none;stroke-width:0.26458332"
       x="166.45515"
       y="239.86862"
       id="text1067-64-0-7"><tspan
         sodipodi:role="line"
         id="tspan1065-8-2-4"
         x="166.45515"
         y="239.86862"
         style="font-style:normal;font-variant:normal;font-weight:normal;font-stretch:normal;font-size:6.3499999px;font-family:'DIN Pro';-inkscape-font-specification:'DIN Pro';text-align:center;text-anchor:middle;stroke-width:0.26458332">export</tspan><tspan
         sodipodi:role="line"
         x="166.45515"
         y="247.80612"
         style="font-style:normal;font-variant:normal;font-weight:normal;font-stretch:normal;font-size:6.3499999px;font-family:'DIN Pro';-inkscape-font-specification:'DIN Pro';text-align:center;text-anchor:middle;stroke-width:0.26458332"
         id="tspan1069-08-2-9">METS</tspan></text>
    <rect
       style="fill:#5eeb23;fill-opacity:0.2396166;stroke-width:1.16344178;stroke-miterlimit:4;stroke-dasharray:none"
       id="rect899-17"
       width="31.372023"
       height="18.898809"
       x="152.67451"
       y="232.2265" />
  </g>
  <g
     inkscape:label="Calque 1"
     inkscape:groupmode="layer"
     id="layer1"
     transform="translate(0,-87)"
     style="display:inline">
    <rect
       style="fill:#000000;fill-opacity:0;stroke-width:0.46499997;stroke-miterlimit:4;stroke-dasharray:none"
       id="rect864"
       width="297.69662"
       height="209.92024"
       x="0.4644253"
       y="87.079758"
       inkscape:export-xdpi="52"
       inkscape:export-ydpi="52" />
  </g>
</svg>
